% $ biblatex auxiliary file $
% $ biblatex bbl format version 2.3 $
% Do not modify the above lines!
%
% This is an auxiliary file used by the 'biblatex' package.
% This file may safely be deleted. It will be recreated by
% biber as required.
%
\begingroup
\makeatletter
\@ifundefined{ver@biblatex.sty}
  {\@latex@error
     {Missing 'biblatex' package}
     {The bibliography requires the 'biblatex' package.}
      \aftergroup\endinput}
  {}
\endgroup


\refsection{0}
  \sortlist{entry}{nyt}
    \entry{Balahur2014d}{article}{}
      \name{labelname}{2}{}{%
        {{uniquename=0,hash=62a874d02833635da9cf1541aaf0c40f}{Balahur}{B\bibinitperiod}{Alexandra}{A\bibinitperiod}{}{}{}{}}%
        {{uniquename=0,hash=abebe32f4d5b1a29c5f5dddab4544482}{Turchi}{T\bibinitperiod}{Marco}{M\bibinitperiod}{}{}{}{}}%
      }
      \name{author}{2}{}{%
        {{uniquename=0,hash=62a874d02833635da9cf1541aaf0c40f}{Balahur}{B\bibinitperiod}{Alexandra}{A\bibinitperiod}{}{}{}{}}%
        {{uniquename=0,hash=abebe32f4d5b1a29c5f5dddab4544482}{Turchi}{T\bibinitperiod}{Marco}{M\bibinitperiod}{}{}{}{}}%
      }
      \list{publisher}{1}{%
        {Elsevier Ltd}%
      }
      \strng{namehash}{08bece7b07e8238e34c5a3fd43de1deb}
      \strng{fullhash}{08bece7b07e8238e34c5a3fd43de1deb}
      \field{sortinit}{B}
      \field{labelyear}{2014}
      \field{datelabelsource}{}
      \field{labeltitle}{{Comparative experiments usingsupervised learning and machine translation for multilingual sentiment analysis}}
      \field{journaltitle}{Computer Speech {\&} Language}
      \field{number}{1}
      \field{title}{{Comparative experiments usingsupervised learning and machine translation for multilingual sentiment analysis}}
      \field{volume}{28}
      \field{year}{2014}
      \field{pages}{56\bibrangedash 75}
    \endentry
    \entry{Banea2013a}{article}{}
      \name{labelname}{3}{}{%
        {{uniquename=0,hash=fdb3cb4df3c265d38c0907e6fd046b90}{Banea}{B\bibinitperiod}{Carmen}{C\bibinitperiod}{}{}{}{}}%
        {{uniquename=0,hash=7147443179f5f0b00a44986a0f561f4d}{Mihalcea}{M\bibinitperiod}{Rada}{R\bibinitperiod}{}{}{}{}}%
        {{uniquename=0,hash=8b8e4a1aaddec1ce44f30fe829fb76bd}{Wiebe}{W\bibinitperiod}{Janyce}{J\bibinitperiod}{}{}{}{}}%
      }
      \name{author}{3}{}{%
        {{uniquename=0,hash=fdb3cb4df3c265d38c0907e6fd046b90}{Banea}{B\bibinitperiod}{Carmen}{C\bibinitperiod}{}{}{}{}}%
        {{uniquename=0,hash=7147443179f5f0b00a44986a0f561f4d}{Mihalcea}{M\bibinitperiod}{Rada}{R\bibinitperiod}{}{}{}{}}%
        {{uniquename=0,hash=8b8e4a1aaddec1ce44f30fe829fb76bd}{Wiebe}{W\bibinitperiod}{Janyce}{J\bibinitperiod}{}{}{}{}}%
      }
      \list{location}{1}{%
        {Los Alamitos, CA, USA}%
      }
      \list{publisher}{1}{%
        {IEEE Computer Society}%
      }
      \strng{namehash}{3cbbe297838906ead01e7230c635f571}
      \strng{fullhash}{d7af6ef2327cc20234a679ee60df772c}
      \field{sortinit}{B}
      \field{labelyear}{2013}
      \field{datelabelsource}{}
      \field{labeltitle}{Porting Multilingual Subjectivity Resources Across Languages}
      \field{issn}{1949-3045}
      \field{journaltitle}{IEEE Transactions on Affective Computing}
      \field{number}{PrePrints}
      \field{title}{Porting Multilingual Subjectivity Resources Across Languages}
      \field{volume}{99}
      \field{year}{2013}
      \field{pages}{1}
      \verb{doi}
      \verb http://doi.ieeecomputersociety.org/10.1109/T-AFFC.2013.1
      \endverb
    \endentry
    \entry{Barnes2016}{inproceedings}{}
      \name{labelname}{3}{}{%
        {{uniquename=0,hash=4c6898e152d3f4537b14c1489a6432ee}{Barnes}{B\bibinitperiod}{Jeremy}{J\bibinitperiod}{}{}{}{}}%
        {{uniquename=0,hash=4a91873765c3b1fe1f5176cfd578c2c8}{Lambert}{L\bibinitperiod}{Patrik}{P\bibinitperiod}{}{}{}{}}%
        {{uniquename=0,hash=d45d0e829f41e91f145363c769fd7c33}{Badia}{B\bibinitperiod}{Toni}{T\bibinitperiod}{}{}{}{}}%
      }
      \name{author}{3}{}{%
        {{uniquename=0,hash=4c6898e152d3f4537b14c1489a6432ee}{Barnes}{B\bibinitperiod}{Jeremy}{J\bibinitperiod}{}{}{}{}}%
        {{uniquename=0,hash=4a91873765c3b1fe1f5176cfd578c2c8}{Lambert}{L\bibinitperiod}{Patrik}{P\bibinitperiod}{}{}{}{}}%
        {{uniquename=0,hash=d45d0e829f41e91f145363c769fd7c33}{Badia}{B\bibinitperiod}{Toni}{T\bibinitperiod}{}{}{}{}}%
      }
      \strng{namehash}{cf4403b745a8bde7e8e8af298bc40572}
      \strng{fullhash}{e773cea971e3d038c914a26cba207c3c}
      \field{sortinit}{B}
      \field{labelyear}{2016}
      \field{datelabelsource}{}
      \field{labeltitle}{Exploring distributional representations and machine translation for aspect-based cross-lingual sentiment analysis}
      \field{booktitle}{Proceedings of COLING 2016: To appear}
      \field{title}{Exploring distributional representations and machine translation for aspect-based cross-lingual sentiment analysis}
      \field{year}{2016}
    \endentry
    \entry{Chandar2013}{inproceedings}{}
      \name{labelname}{5}{}{%
        {{uniquename=0,hash=5fc5e175d6caeca6cf596c994cc02cd8}{Chandar}{C\bibinitperiod}{Sarath}{S\bibinitperiod}{}{}{}{}}%
        {{uniquename=0,hash=171b5ebafab1a7c45afa42a03be12af8}{Khapra}{K\bibinitperiod}{Mitesh\bibnamedelima M.}{M\bibinitperiod\bibinitdelim M\bibinitperiod}{}{}{}{}}%
        {{uniquename=0,hash=c8addc8f1d3acf0213ef98aadb8f59a6}{Ravindran}{R\bibinitperiod}{Balaraman}{B\bibinitperiod}{}{}{}{}}%
        {{uniquename=0,hash=e96d7787e53eea68fef8fb04bd586340}{Raykar}{R\bibinitperiod}{Vikas}{V\bibinitperiod}{}{}{}{}}%
        {{uniquename=0,hash=519dfa60e93f7fb3036b6b48fb7443a5}{Saha}{S\bibinitperiod}{Amrita}{A\bibinitperiod}{}{}{}{}}%
      }
      \name{author}{5}{}{%
        {{uniquename=0,hash=5fc5e175d6caeca6cf596c994cc02cd8}{Chandar}{C\bibinitperiod}{Sarath}{S\bibinitperiod}{}{}{}{}}%
        {{uniquename=0,hash=171b5ebafab1a7c45afa42a03be12af8}{Khapra}{K\bibinitperiod}{Mitesh\bibnamedelima M.}{M\bibinitperiod\bibinitdelim M\bibinitperiod}{}{}{}{}}%
        {{uniquename=0,hash=c8addc8f1d3acf0213ef98aadb8f59a6}{Ravindran}{R\bibinitperiod}{Balaraman}{B\bibinitperiod}{}{}{}{}}%
        {{uniquename=0,hash=e96d7787e53eea68fef8fb04bd586340}{Raykar}{R\bibinitperiod}{Vikas}{V\bibinitperiod}{}{}{}{}}%
        {{uniquename=0,hash=519dfa60e93f7fb3036b6b48fb7443a5}{Saha}{S\bibinitperiod}{Amrita}{A\bibinitperiod}{}{}{}{}}%
      }
      \strng{namehash}{14723973ba779634196b8f68e5a84aaf}
      \strng{fullhash}{56bdebab6090b9c2012795c596bd8a59}
      \field{sortinit}{C}
      \field{labelyear}{2013}
      \field{datelabelsource}{}
      \field{labeltitle}{Multilingual deep learning}
      \field{booktitle}{NIPS 2013 Deep Learning Workshop}
      \field{title}{Multilingual deep learning}
      \field{year}{2013}
    \endentry
    \entry{Duh2011a}{article}{}
      \name{labelname}{3}{}{%
        {{uniquename=0,hash=466717c52fd1324df4f599b1a5a0a8af}{Duh}{D\bibinitperiod}{Kevin}{K\bibinitperiod}{}{}{}{}}%
        {{uniquename=0,hash=f72811498e17d06142bf29d059b3a003}{Fujino}{F\bibinitperiod}{Akinori}{A\bibinitperiod}{}{}{}{}}%
        {{uniquename=0,hash=cc0c7605c0dcf97b069a1f6176ccb2c8}{Nagata}{N\bibinitperiod}{Masaaki}{M\bibinitperiod}{}{}{}{}}%
      }
      \name{author}{3}{}{%
        {{uniquename=0,hash=466717c52fd1324df4f599b1a5a0a8af}{Duh}{D\bibinitperiod}{Kevin}{K\bibinitperiod}{}{}{}{}}%
        {{uniquename=0,hash=f72811498e17d06142bf29d059b3a003}{Fujino}{F\bibinitperiod}{Akinori}{A\bibinitperiod}{}{}{}{}}%
        {{uniquename=0,hash=cc0c7605c0dcf97b069a1f6176ccb2c8}{Nagata}{N\bibinitperiod}{Masaaki}{M\bibinitperiod}{}{}{}{}}%
      }
      \strng{namehash}{7fd6f3f45c20f3b13da79b889ccfde6c}
      \strng{fullhash}{181de5b61d6f85f8c99aaeb5fa1df3ce}
      \field{sortinit}{D}
      \field{labelyear}{2011}
      \field{datelabelsource}{}
      \field{labeltitle}{{Is machine translation ripe for cross-lingual sentiment classification?}}
      \field{journaltitle}{Proceedings of the 49th Annual Meeting of the Association for Computational Linguistics: Human Language Technologies: short papers}
      \field{title}{{Is machine translation ripe for cross-lingual sentiment classification?}}
      \field{volume}{2}
      \field{year}{2011}
      \field{pages}{429\bibrangedash 433}
    \endentry
    \entry{Faruqui2014}{inproceedings}{}
      \name{labelname}{2}{}{%
        {{uniquename=0,hash=7a0b82c57d86d45ad2132d2cff643d32}{Faruqui}{F\bibinitperiod}{Manaal}{M\bibinitperiod}{}{}{}{}}%
        {{uniquename=0,hash=dc0d6b065a6566cde5d6b93214be1b55}{Dyer}{D\bibinitperiod}{Chris}{C\bibinitperiod}{}{}{}{}}%
      }
      \name{author}{2}{}{%
        {{uniquename=0,hash=7a0b82c57d86d45ad2132d2cff643d32}{Faruqui}{F\bibinitperiod}{Manaal}{M\bibinitperiod}{}{}{}{}}%
        {{uniquename=0,hash=dc0d6b065a6566cde5d6b93214be1b55}{Dyer}{D\bibinitperiod}{Chris}{C\bibinitperiod}{}{}{}{}}%
      }
      \strng{namehash}{2c56aa530fcb29ef71f68f02d7e2386f}
      \strng{fullhash}{2c56aa530fcb29ef71f68f02d7e2386f}
      \field{sortinit}{F}
      \field{labelyear}{2014}
      \field{datelabelsource}{}
      \field{labeltitle}{Improving vector space word representations using multilingual correlation}
      \field{booktitle}{Proceedings of EACL}
      \field{title}{Improving vector space word representations using multilingual correlation}
      \field{year}{2014}
    \endentry
    \entry{Gouws2015}{article}{}
      \name{labelname}{3}{}{%
        {{uniquename=0,hash=353c4a3aa4878af27170be1cfd53bd8a}{Gouws}{G\bibinitperiod}{Stephan}{S\bibinitperiod}{}{}{}{}}%
        {{uniquename=0,hash=40a8e4774982146adc2688546f54efb2}{Bengio}{B\bibinitperiod}{Yoshua}{Y\bibinitperiod}{}{}{}{}}%
        {{uniquename=0,hash=3d11e6f2a0d0a1183b2cf62996525afc}{Corrado}{C\bibinitperiod}{Greg}{G\bibinitperiod}{}{}{}{}}%
      }
      \name{author}{3}{}{%
        {{uniquename=0,hash=353c4a3aa4878af27170be1cfd53bd8a}{Gouws}{G\bibinitperiod}{Stephan}{S\bibinitperiod}{}{}{}{}}%
        {{uniquename=0,hash=40a8e4774982146adc2688546f54efb2}{Bengio}{B\bibinitperiod}{Yoshua}{Y\bibinitperiod}{}{}{}{}}%
        {{uniquename=0,hash=3d11e6f2a0d0a1183b2cf62996525afc}{Corrado}{C\bibinitperiod}{Greg}{G\bibinitperiod}{}{}{}{}}%
      }
      \strng{namehash}{e33b1bacac38f54afe398af2e46e0938}
      \strng{fullhash}{5df15e8ee61c94192554c58ccf8bbb46}
      \field{sortinit}{G}
      \field{labelyear}{2015}
      \field{datelabelsource}{}
      \field{labeltitle}{{BilBOWA: Fast bilingual distributed representations without word alignments}}
      \field{journaltitle}{Proceedings of The 32nd International Conference on Machine Learning}
      \field{title}{{BilBOWA: Fast bilingual distributed representations without word alignments}}
      \field{year}{2015}
      \field{pages}{748\bibrangedash 756}
    \endentry
    \entry{Gouws2015taskspecific}{inproceedings}{}
      \name{labelname}{2}{}{%
        {{uniquename=0,hash=353c4a3aa4878af27170be1cfd53bd8a}{Gouws}{G\bibinitperiod}{Stephan}{S\bibinitperiod}{}{}{}{}}%
        {{uniquename=0,hash=13388f2c364934e07d3ceda0a751f15f}{S{\o}gaard}{S\bibinitperiod}{Anders}{A\bibinitperiod}{}{}{}{}}%
      }
      \name{author}{2}{}{%
        {{uniquename=0,hash=353c4a3aa4878af27170be1cfd53bd8a}{Gouws}{G\bibinitperiod}{Stephan}{S\bibinitperiod}{}{}{}{}}%
        {{uniquename=0,hash=13388f2c364934e07d3ceda0a751f15f}{S{\o}gaard}{S\bibinitperiod}{Anders}{A\bibinitperiod}{}{}{}{}}%
      }
      \list{location}{1}{%
        {Denver, Colorado}%
      }
      \strng{namehash}{c34a781a2d25ad1176f83d1ab86a7476}
      \strng{fullhash}{c34a781a2d25ad1176f83d1ab86a7476}
      \field{sortinit}{G}
      \field{labelyear}{2015}
      \field{datelabelsource}{}
      \field{labeltitle}{Simple task-specific bilingual word embeddings}
      \field{booktitle}{Proceedings of the 2015 Annual Conference of the North American Chapter of the ACL: NAACL 2015}
      \field{title}{Simple task-specific bilingual word embeddings}
      \field{year}{2015}
      \field{pages}{1386\bibrangedash 1390}
    \endentry
    \entry{Jain2015}{inproceedings}{}
      \name{labelname}{2}{}{%
        {{uniquename=0,hash=473b58dab2062f9cc6cabc0d011e1e2a}{Jain}{J\bibinitperiod}{Sarthak}{S\bibinitperiod}{}{}{}{}}%
        {{uniquename=0,hash=9cdb97f107260ae60e7bd79ea6d7a04d}{Batra}{B\bibinitperiod}{Shashank}{S\bibinitperiod}{}{}{}{}}%
      }
      \name{author}{2}{}{%
        {{uniquename=0,hash=473b58dab2062f9cc6cabc0d011e1e2a}{Jain}{J\bibinitperiod}{Sarthak}{S\bibinitperiod}{}{}{}{}}%
        {{uniquename=0,hash=9cdb97f107260ae60e7bd79ea6d7a04d}{Batra}{B\bibinitperiod}{Shashank}{S\bibinitperiod}{}{}{}{}}%
      }
      \strng{namehash}{14d76781636a9d57083b3aa4658c04ea}
      \strng{fullhash}{14d76781636a9d57083b3aa4658c04ea}
      \field{sortinit}{J}
      \field{labelyear}{2015}
      \field{datelabelsource}{}
      \field{labeltitle}{Cross-lingual sentiment analysis using modified BRAE}
      \field{booktitle}{Proceedings of the 2015 Conference on Empirical Methods in Natural Language Processing}
      \field{title}{Cross-lingual sentiment analysis using modified BRAE}
      \field{year}{2015}
      \field{pages}{159\bibrangedash 168}
    \endentry
    \entry{Kim2014}{article}{}
      \name{labelname}{1}{}{%
        {{uniquename=0,hash=1fecefbf07117382be6f83e7910ea8a0}{Kim}{K\bibinitperiod}{Yoon}{Y\bibinitperiod}{}{}{}{}}%
      }
      \name{author}{1}{}{%
        {{uniquename=0,hash=1fecefbf07117382be6f83e7910ea8a0}{Kim}{K\bibinitperiod}{Yoon}{Y\bibinitperiod}{}{}{}{}}%
      }
      \list{location}{1}{%
        {Doha, Qatar}%
      }
      \strng{namehash}{1fecefbf07117382be6f83e7910ea8a0}
      \strng{fullhash}{1fecefbf07117382be6f83e7910ea8a0}
      \field{sortinit}{K}
      \field{labelyear}{2014}
      \field{datelabelsource}{}
      \field{labeltitle}{{Convolutional neural networks for sentence classification}}
      \field{journaltitle}{Proceedings of the 2014 Conference on Empirical Methods in Natural Language Processing (EMNLP 2014)}
      \field{title}{{Convolutional neural networks for sentence classification}}
      \field{year}{2014}
      \field{pages}{1746\bibrangedash 1751}
    \endentry
    \entry{Klementiev2012b}{article}{}
      \name{labelname}{3}{}{%
        {{uniquename=0,hash=26e4a723ed3bd76114039830ddb58d10}{Klementiev}{K\bibinitperiod}{Alexandre}{A\bibinitperiod}{}{}{}{}}%
        {{uniquename=0,hash=38c1cf91413109beb40bd024b86e0969}{Titov}{T\bibinitperiod}{Ivan}{I\bibinitperiod}{}{}{}{}}%
        {{uniquename=0,hash=9ee270e7b4c2f09872e25514046a4846}{Bhattarai}{B\bibinitperiod}{Binod}{B\bibinitperiod}{}{}{}{}}%
      }
      \name{author}{3}{}{%
        {{uniquename=0,hash=26e4a723ed3bd76114039830ddb58d10}{Klementiev}{K\bibinitperiod}{Alexandre}{A\bibinitperiod}{}{}{}{}}%
        {{uniquename=0,hash=38c1cf91413109beb40bd024b86e0969}{Titov}{T\bibinitperiod}{Ivan}{I\bibinitperiod}{}{}{}{}}%
        {{uniquename=0,hash=9ee270e7b4c2f09872e25514046a4846}{Bhattarai}{B\bibinitperiod}{Binod}{B\bibinitperiod}{}{}{}{}}%
      }
      \strng{namehash}{8cc3ddd5a8c430ca1462834165e05148}
      \strng{fullhash}{b74879c63fdd9666f9ad1c30dce67a91}
      \field{sortinit}{K}
      \field{labelyear}{2012}
      \field{datelabelsource}{}
      \field{labeltitle}{{Inducing crosslingual distributed representations of words}}
      \field{journaltitle}{24th International Conference on Computational Linguistics - Proceedings of COLING 2012: Technical Papers (2012)}
      \field{number}{December}
      \field{title}{{Inducing crosslingual distributed representations of words}}
      \field{year}{2012}
      \field{pages}{1459\bibrangedash 1474}
    \endentry
    \entry{Koeper2016}{inproceedings}{}
      \name{labelname}{4}{}{%
        {{uniquename=0,hash=b0293ea3eb0f9f17150b43e11a62a881}{K\"{o}per}{K\bibinitperiod}{Maximilian}{M\bibinitperiod}{}{}{}{}}%
        {{uniquename=0,hash=3621eb5b59293ebea487e14e05575543}{{Schulte\bibnamedelimb im\bibnamedelimb Walde}}{S\bibinitperiod}{Sabine}{S\bibinitperiod}{}{}{}{}}%
        {{uniquename=0,hash=4b819579dfc17ccd307baea24eb67124}{Kisselew}{K\bibinitperiod}{Max}{M\bibinitperiod}{}{}{}{}}%
        {{uniquename=0,hash=9228facabce6f06de6173f5df9ab1677}{Pad\'{o}}{P\bibinitperiod}{Sebastian}{S\bibinitperiod}{}{}{}{}}%
      }
      \name{author}{4}{}{%
        {{uniquename=0,hash=b0293ea3eb0f9f17150b43e11a62a881}{K\"{o}per}{K\bibinitperiod}{Maximilian}{M\bibinitperiod}{}{}{}{}}%
        {{uniquename=0,hash=3621eb5b59293ebea487e14e05575543}{{Schulte\bibnamedelimb im\bibnamedelimb Walde}}{S\bibinitperiod}{Sabine}{S\bibinitperiod}{}{}{}{}}%
        {{uniquename=0,hash=4b819579dfc17ccd307baea24eb67124}{Kisselew}{K\bibinitperiod}{Max}{M\bibinitperiod}{}{}{}{}}%
        {{uniquename=0,hash=9228facabce6f06de6173f5df9ab1677}{Pad\'{o}}{P\bibinitperiod}{Sebastian}{S\bibinitperiod}{}{}{}{}}%
      }
      \list{location}{1}{%
        {Berlin, Germany}%
      }
      \list{publisher}{1}{%
        {Association for Computational Linguistics}%
      }
      \strng{namehash}{48bfe9ff75d33d13d58d9ec891697be5}
      \strng{fullhash}{28c29b9ae74f5c32319c863e3e7aa827}
      \field{sortinit}{K}
      \field{labelyear}{2016}
      \field{datelabelsource}{}
      \field{labeltitle}{Improving Zero-Shot-Learning for German Particle Verbs by using Training-Space Restrictions and Local Scaling}
      \field{booktitle}{Proceedings of the Fifth Joint Conference on Lexical and Computational Semantics}
      \field{title}{Improving Zero-Shot-Learning for German Particle Verbs by using Training-Space Restrictions and Local Scaling}
      \field{year}{2016}
      \field{pages}{91\bibrangedash 96}
      \verb{url}
      \verb http://anthology.aclweb.org/S16-2010
      \endverb
    \endentry
    \entry{Madhyastha2016}{inproceedings}{}
      \name{labelname}{4}{}{%
        {{uniquename=0,hash=8496a719420e74aa3a2311c7ed7b0a09}{Madhyastha}{M\bibinitperiod}{Pranava\bibnamedelima Swaroop}{P\bibinitperiod\bibinitdelim S\bibinitperiod}{}{}{}{}}%
        {{uniquename=0,hash=b118f9d5c7ddaa3d38926cc7de6586e0}{Bansal}{B\bibinitperiod}{Mohit}{M\bibinitperiod}{}{}{}{}}%
        {{uniquename=0,hash=6bc70be3492f0800ecee6926d290244f}{Gimpel}{G\bibinitperiod}{Kevin}{K\bibinitperiod}{}{}{}{}}%
        {{uniquename=0,hash=5b63870735ebd156230f5ab6ed223676}{Livescu}{L\bibinitperiod}{Karen}{K\bibinitperiod}{}{}{}{}}%
      }
      \name{author}{4}{}{%
        {{uniquename=0,hash=8496a719420e74aa3a2311c7ed7b0a09}{Madhyastha}{M\bibinitperiod}{Pranava\bibnamedelima Swaroop}{P\bibinitperiod\bibinitdelim S\bibinitperiod}{}{}{}{}}%
        {{uniquename=0,hash=b118f9d5c7ddaa3d38926cc7de6586e0}{Bansal}{B\bibinitperiod}{Mohit}{M\bibinitperiod}{}{}{}{}}%
        {{uniquename=0,hash=6bc70be3492f0800ecee6926d290244f}{Gimpel}{G\bibinitperiod}{Kevin}{K\bibinitperiod}{}{}{}{}}%
        {{uniquename=0,hash=5b63870735ebd156230f5ab6ed223676}{Livescu}{L\bibinitperiod}{Karen}{K\bibinitperiod}{}{}{}{}}%
      }
      \strng{namehash}{a69372f5a13dc97d6124244853192104}
      \strng{fullhash}{413065da88b73d368cc96f30d20de4a0}
      \field{sortinit}{M}
      \field{labelyear}{2016}
      \field{datelabelsource}{}
      \field{labeltitle}{Mapping Unseen Words to Task-Trained Embedding Spaces}
      \field{booktitle}{Workshop on Representation Learning for NLP; In Proceedings of ACL 2016}
      \field{title}{Mapping Unseen Words to Task-Trained Embedding Spaces}
      \field{year}{2016}
    \endentry
    \entry{Mikolov2013word2vec}{article}{}
      \name{labelname}{4}{}{%
        {{uniquename=0,hash=a2d359b12ca2fadf0b40136a73f021bb}{Mikolov}{M\bibinitperiod}{Tomas}{T\bibinitperiod}{}{}{}{}}%
        {{uniquename=0,hash=3d11e6f2a0d0a1183b2cf62996525afc}{Corrado}{C\bibinitperiod}{Greg}{G\bibinitperiod}{}{}{}{}}%
        {{uniquename=0,hash=ee3f7d7b96add98106db907e189d6c13}{Chen}{C\bibinitperiod}{Kai}{K\bibinitperiod}{}{}{}{}}%
        {{uniquename=0,hash=4aecfb0cc2e1e3b7899129fa2a94e2b8}{Dean}{D\bibinitperiod}{Jeffrey}{J\bibinitperiod}{}{}{}{}}%
      }
      \name{author}{4}{}{%
        {{uniquename=0,hash=a2d359b12ca2fadf0b40136a73f021bb}{Mikolov}{M\bibinitperiod}{Tomas}{T\bibinitperiod}{}{}{}{}}%
        {{uniquename=0,hash=3d11e6f2a0d0a1183b2cf62996525afc}{Corrado}{C\bibinitperiod}{Greg}{G\bibinitperiod}{}{}{}{}}%
        {{uniquename=0,hash=ee3f7d7b96add98106db907e189d6c13}{Chen}{C\bibinitperiod}{Kai}{K\bibinitperiod}{}{}{}{}}%
        {{uniquename=0,hash=4aecfb0cc2e1e3b7899129fa2a94e2b8}{Dean}{D\bibinitperiod}{Jeffrey}{J\bibinitperiod}{}{}{}{}}%
      }
      \strng{namehash}{d4849f6d57e38d9b9846cfb360e45131}
      \strng{fullhash}{ac4ebcf7d82813ac37e3202566bd12c9}
      \field{sortinit}{M}
      \field{extrayear}{1}
      \field{labelyear}{2013}
      \field{datelabelsource}{}
      \field{labeltitle}{{Efficient estimation of word representations in vector space}}
      \field{journaltitle}{Proceedings of the International Conference on Learning Representations (ICLR 2013)}
      \field{title}{{Efficient estimation of word representations in vector space}}
      \field{year}{2013}
      \field{pages}{1\bibrangedash 12}
    \endentry
    \entry{Mikolov2013translation}{article}{}
      \name{labelname}{3}{}{%
        {{uniquename=0,hash=a2d359b12ca2fadf0b40136a73f021bb}{Mikolov}{M\bibinitperiod}{Tomas}{T\bibinitperiod}{}{}{}{}}%
        {{uniquename=0,hash=1633c392d651912a53a929a28bd31bb4}{Le}{L\bibinitperiod}{Quoc\bibnamedelima V.}{Q\bibinitperiod\bibinitdelim V\bibinitperiod}{}{}{}{}}%
        {{uniquename=0,hash=8d569d1d5b8b5a7836017a98b430f959}{Sutskever}{S\bibinitperiod}{Ilya}{I\bibinitperiod}{}{}{}{}}%
      }
      \name{author}{3}{}{%
        {{uniquename=0,hash=a2d359b12ca2fadf0b40136a73f021bb}{Mikolov}{M\bibinitperiod}{Tomas}{T\bibinitperiod}{}{}{}{}}%
        {{uniquename=0,hash=1633c392d651912a53a929a28bd31bb4}{Le}{L\bibinitperiod}{Quoc\bibnamedelima V.}{Q\bibinitperiod\bibinitdelim V\bibinitperiod}{}{}{}{}}%
        {{uniquename=0,hash=8d569d1d5b8b5a7836017a98b430f959}{Sutskever}{S\bibinitperiod}{Ilya}{I\bibinitperiod}{}{}{}{}}%
      }
      \strng{namehash}{d4849f6d57e38d9b9846cfb360e45131}
      \strng{fullhash}{c6e4c71983882a22dfb3dd34444940d9}
      \field{sortinit}{M}
      \field{extrayear}{2}
      \field{labelyear}{2013}
      \field{datelabelsource}{}
      \field{labeltitle}{{Exploiting similarities among languages for machine translation}}
      \field{eprinttype}{arXiv}
      \field{title}{{Exploiting similarities among languages for machine translation}}
      \field{year}{2013}
      \verb{eprint}
      \verb 1309.4168
      \endverb
    \endentry
    \entry{Mohammad2015b}{article}{}
      \name{labelname}{3}{}{%
        {{uniquename=0,hash=e04176abee5a0a812375ce04b2916c76}{Mohammad}{M\bibinitperiod}{Saif\bibnamedelima M}{S\bibinitperiod\bibinitdelim M\bibinitperiod}{}{}{}{}}%
        {{uniquename=0,hash=6c5a88370a1857554cc36454670a4b1d}{Salameh}{S\bibinitperiod}{Mohammad}{M\bibinitperiod}{}{}{}{}}%
        {{uniquename=0,hash=b566bb471d34e64e4c863c07b944c04e}{Kiritchenko}{K\bibinitperiod}{Svetlana}{S\bibinitperiod}{}{}{}{}}%
      }
      \name{author}{3}{}{%
        {{uniquename=0,hash=e04176abee5a0a812375ce04b2916c76}{Mohammad}{M\bibinitperiod}{Saif\bibnamedelima M}{S\bibinitperiod\bibinitdelim M\bibinitperiod}{}{}{}{}}%
        {{uniquename=0,hash=6c5a88370a1857554cc36454670a4b1d}{Salameh}{S\bibinitperiod}{Mohammad}{M\bibinitperiod}{}{}{}{}}%
        {{uniquename=0,hash=b566bb471d34e64e4c863c07b944c04e}{Kiritchenko}{K\bibinitperiod}{Svetlana}{S\bibinitperiod}{}{}{}{}}%
      }
      \strng{namehash}{0bbad9a159acd566006221c7d4dddb81}
      \strng{fullhash}{eea52475766315491e19612abdaf9b07}
      \field{sortinit}{M}
      \field{labelyear}{2015}
      \field{datelabelsource}{}
      \field{labeltitle}{{How translation alters sentiment}}
      \field{journaltitle}{Journal of Artificial Intelligence Research}
      \field{title}{{How translation alters sentiment}}
      \field{volume}{50}
      \field{year}{2015}
      \field{pages}{95\bibrangedash 130}
    \endentry
    \entry{Pennington2014}{article}{}
      \name{labelname}{3}{}{%
        {{uniquename=0,hash=ab47b497d1b0cdaddd8594e4bd501ee5}{Pennington}{P\bibinitperiod}{Jeffrey}{J\bibinitperiod}{}{}{}{}}%
        {{uniquename=0,hash=d5670b2600fea169724521e252d9d09d}{Socher}{S\bibinitperiod}{Richard}{R\bibinitperiod}{}{}{}{}}%
        {{uniquename=0,hash=1261894eaefc186bfeabf336e05e6294}{Manning}{M\bibinitperiod}{Christopher\bibnamedelima D}{C\bibinitperiod\bibinitdelim D\bibinitperiod}{}{}{}{}}%
      }
      \name{author}{3}{}{%
        {{uniquename=0,hash=ab47b497d1b0cdaddd8594e4bd501ee5}{Pennington}{P\bibinitperiod}{Jeffrey}{J\bibinitperiod}{}{}{}{}}%
        {{uniquename=0,hash=d5670b2600fea169724521e252d9d09d}{Socher}{S\bibinitperiod}{Richard}{R\bibinitperiod}{}{}{}{}}%
        {{uniquename=0,hash=1261894eaefc186bfeabf336e05e6294}{Manning}{M\bibinitperiod}{Christopher\bibnamedelima D}{C\bibinitperiod\bibinitdelim D\bibinitperiod}{}{}{}{}}%
      }
      \strng{namehash}{53011f5d2e5e36f9701e6ec74c20784b}
      \strng{fullhash}{0df55a667d521136e32ac03f82c3d15c}
      \field{sortinit}{P}
      \field{labelyear}{2014}
      \field{datelabelsource}{}
      \field{labeltitle}{{Glove: Global vectors for word representation}}
      \field{journaltitle}{Proceedings of the 2014 Conference on Empirical Methods in Natural Language Processing}
      \field{title}{{Glove: Global vectors for word representation}}
      \field{year}{2014}
      \field{pages}{1532\bibrangedash 1543}
    \endentry
    \entry{Rothe2016}{inproceedings}{}
      \name{labelname}{3}{}{%
        {{uniquename=0,hash=2163b275fa6923dfb4381f364c8af6c1}{Rothe}{R\bibinitperiod}{Sascha}{S\bibinitperiod}{}{}{}{}}%
        {{uniquename=0,hash=f964cb0e14708fd7881935e5d24df385}{Ebert}{E\bibinitperiod}{Sebastian}{S\bibinitperiod}{}{}{}{}}%
        {{uniquename=0,hash=420bf97bb3a65590ef645c529ee65cc7}{Sch\"{u}tze}{S\bibinitperiod}{Hinrich}{H\bibinitperiod}{}{}{}{}}%
      }
      \name{author}{3}{}{%
        {{uniquename=0,hash=2163b275fa6923dfb4381f364c8af6c1}{Rothe}{R\bibinitperiod}{Sascha}{S\bibinitperiod}{}{}{}{}}%
        {{uniquename=0,hash=f964cb0e14708fd7881935e5d24df385}{Ebert}{E\bibinitperiod}{Sebastian}{S\bibinitperiod}{}{}{}{}}%
        {{uniquename=0,hash=420bf97bb3a65590ef645c529ee65cc7}{Sch\"{u}tze}{S\bibinitperiod}{Hinrich}{H\bibinitperiod}{}{}{}{}}%
      }
      \list{location}{1}{%
        {San Diego, California}%
      }
      \list{publisher}{1}{%
        {Association for Computational Linguistics}%
      }
      \strng{namehash}{a4889a495b0253378e7662bdac4ce944}
      \strng{fullhash}{30325e15f75f352d7572dbcb83f05d9a}
      \field{sortinit}{R}
      \field{labelyear}{2016}
      \field{labelmonth}{06}
      \field{datelabelsource}{}
      \field{labeltitle}{Ultradense Word Embeddings by Orthogonal Transformation}
      \field{booktitle}{Proceedings of the 2016 Conference of the North American Chapter of the Association for Computational Linguistics: Human Language Technologies}
      \field{month}{06}
      \field{title}{Ultradense Word Embeddings by Orthogonal Transformation}
      \field{year}{2016}
      \field{pages}{767\bibrangedash 777}
    \endentry
    \entry{Skipper2014}{article}{}
      \name{labelname}{2}{}{%
        {{uniquename=0,hash=61e7567c123f02470850b539be7bb702}{Skipper}{S\bibinitperiod}{Laura\bibnamedelima M.}{L\bibinitperiod\bibinitdelim M\bibinitperiod}{}{}{}{}}%
        {{uniquename=0,hash=4e551e07fc14a187be21132af0f6b5a7}{Olson}{O\bibinitperiod}{Ingrid\bibnamedelima R.}{I\bibinitperiod\bibinitdelim R\bibinitperiod}{}{}{}{}}%
      }
      \name{author}{2}{}{%
        {{uniquename=0,hash=61e7567c123f02470850b539be7bb702}{Skipper}{S\bibinitperiod}{Laura\bibnamedelima M.}{L\bibinitperiod\bibinitdelim M\bibinitperiod}{}{}{}{}}%
        {{uniquename=0,hash=4e551e07fc14a187be21132af0f6b5a7}{Olson}{O\bibinitperiod}{Ingrid\bibnamedelima R.}{I\bibinitperiod\bibinitdelim R\bibinitperiod}{}{}{}{}}%
      }
      \strng{namehash}{2490177638d2eec2d698b28daa31a400}
      \strng{fullhash}{2490177638d2eec2d698b28daa31a400}
      \field{sortinit}{S}
      \field{labelyear}{2014}
      \field{datelabelsource}{}
      \field{labeltitle}{{Semantic memory: Distinct neural representations for abstractness and valence}}
      \field{journaltitle}{Brain and Language}
      \field{title}{{Semantic memory: Distinct neural representations for abstractness and valence}}
      \field{volume}{130}
      \field{year}{2014}
      \field{pages}{1\bibrangedash 10}
    \endentry
    \entry{Socher2013zeroshot}{inproceedings}{}
      \name{labelname}{4}{}{%
        {{uniquename=0,hash=d5670b2600fea169724521e252d9d09d}{Socher}{S\bibinitperiod}{Richard}{R\bibinitperiod}{}{}{}{}}%
        {{uniquename=0,hash=34620a85d818dae2703d3d88832d3ac1}{Ganjoo}{G\bibinitperiod}{Milind}{M\bibinitperiod}{}{}{}{}}%
        {{uniquename=0,hash=016fc1e04b3b878ce0ba16c74854c0f6}{Manning}{M\bibinitperiod}{Christopher\bibnamedelima D.}{C\bibinitperiod\bibinitdelim D\bibinitperiod}{}{}{}{}}%
        {{uniquename=0,hash=66b1ab24d7f42d468388f6200a7b5967}{Ng}{N\bibinitperiod}{Andrew\bibnamedelima Y.}{A\bibinitperiod\bibinitdelim Y\bibinitperiod}{}{}{}{}}%
      }
      \name{author}{4}{}{%
        {{uniquename=0,hash=d5670b2600fea169724521e252d9d09d}{Socher}{S\bibinitperiod}{Richard}{R\bibinitperiod}{}{}{}{}}%
        {{uniquename=0,hash=34620a85d818dae2703d3d88832d3ac1}{Ganjoo}{G\bibinitperiod}{Milind}{M\bibinitperiod}{}{}{}{}}%
        {{uniquename=0,hash=016fc1e04b3b878ce0ba16c74854c0f6}{Manning}{M\bibinitperiod}{Christopher\bibnamedelima D.}{C\bibinitperiod\bibinitdelim D\bibinitperiod}{}{}{}{}}%
        {{uniquename=0,hash=66b1ab24d7f42d468388f6200a7b5967}{Ng}{N\bibinitperiod}{Andrew\bibnamedelima Y.}{A\bibinitperiod\bibinitdelim Y\bibinitperiod}{}{}{}{}}%
      }
      \strng{namehash}{e7c60479e674fc5df9f60993d72cca39}
      \strng{fullhash}{d2efc47fe9358b4b88478f6d6bb1ac73}
      \field{sortinit}{S}
      \field{labelyear}{2013}
      \field{datelabelsource}{}
      \field{labeltitle}{{Zero-shot learning through cross-modal transfer}}
      \field{booktitle}{Advances in Neural Information Processing Systems (NIPS 2013)}
      \field{title}{{Zero-shot learning through cross-modal transfer}}
      \field{year}{2013}
    \endentry
    \entry{Tai2015a}{article}{}
      \name{labelname}{3}{}{%
        {{uniquename=0,hash=4fee2bdc3598f267c9e242ff79e81dc4}{Tai}{T\bibinitperiod}{Kai\bibnamedelima Sheng}{K\bibinitperiod\bibinitdelim S\bibinitperiod}{}{}{}{}}%
        {{uniquename=0,hash=d5670b2600fea169724521e252d9d09d}{Socher}{S\bibinitperiod}{Richard}{R\bibinitperiod}{}{}{}{}}%
        {{uniquename=0,hash=1261894eaefc186bfeabf336e05e6294}{Manning}{M\bibinitperiod}{Christopher\bibnamedelima D}{C\bibinitperiod\bibinitdelim D\bibinitperiod}{}{}{}{}}%
      }
      \name{author}{3}{}{%
        {{uniquename=0,hash=4fee2bdc3598f267c9e242ff79e81dc4}{Tai}{T\bibinitperiod}{Kai\bibnamedelima Sheng}{K\bibinitperiod\bibinitdelim S\bibinitperiod}{}{}{}{}}%
        {{uniquename=0,hash=d5670b2600fea169724521e252d9d09d}{Socher}{S\bibinitperiod}{Richard}{R\bibinitperiod}{}{}{}{}}%
        {{uniquename=0,hash=1261894eaefc186bfeabf336e05e6294}{Manning}{M\bibinitperiod}{Christopher\bibnamedelima D}{C\bibinitperiod\bibinitdelim D\bibinitperiod}{}{}{}{}}%
      }
      \strng{namehash}{99b6abb83b2e1be5303a710ac466ee8f}
      \strng{fullhash}{9ac97c244c9d0fd42f45768442db0f3e}
      \field{sortinit}{T}
      \field{labelyear}{2015}
      \field{datelabelsource}{}
      \field{labeltitle}{{Improved semantic representations From tree-structured long short-term memory networks}}
      \field{journaltitle}{Association for Computational Linguistics 2015 Conference}
      \field{title}{{Improved semantic representations From tree-structured long short-term memory networks}}
      \field{year}{2015}
      \field{pages}{1556\bibrangedash 1566}
    \endentry
    \entry{Tang2014}{article}{}
      \name{labelname}{6}{}{%
        {{uniquename=0,hash=2ef14334845428fc816990affe4546c7}{Tang}{T\bibinitperiod}{D.}{D\bibinitperiod}{}{}{}{}}%
        {{uniquename=0,hash=56e38d365abfe238a040a7aab2aa8218}{Wei}{W\bibinitperiod}{F.}{F\bibinitperiod}{}{}{}{}}%
        {{uniquename=0,hash=5c2392cd0370e5780bd0b5da4907352c}{Yang}{Y\bibinitperiod}{N.}{N\bibinitperiod}{}{}{}{}}%
        {{uniquename=0,hash=b39ad670204d5c1ca537e50378ae8c75}{Zhou}{Z\bibinitperiod}{M.}{M\bibinitperiod}{}{}{}{}}%
        {{uniquename=0,hash=f55c6ea18fa4c867185eb77ee5d6b830}{Liu}{L\bibinitperiod}{T.}{T\bibinitperiod}{}{}{}{}}%
        {{uniquename=0,hash=b87a8cc29c422162875dad0612f7dcd1}{Qin}{Q\bibinitperiod}{B.}{B\bibinitperiod}{}{}{}{}}%
      }
      \name{author}{6}{}{%
        {{uniquename=0,hash=2ef14334845428fc816990affe4546c7}{Tang}{T\bibinitperiod}{D.}{D\bibinitperiod}{}{}{}{}}%
        {{uniquename=0,hash=56e38d365abfe238a040a7aab2aa8218}{Wei}{W\bibinitperiod}{F.}{F\bibinitperiod}{}{}{}{}}%
        {{uniquename=0,hash=5c2392cd0370e5780bd0b5da4907352c}{Yang}{Y\bibinitperiod}{N.}{N\bibinitperiod}{}{}{}{}}%
        {{uniquename=0,hash=b39ad670204d5c1ca537e50378ae8c75}{Zhou}{Z\bibinitperiod}{M.}{M\bibinitperiod}{}{}{}{}}%
        {{uniquename=0,hash=f55c6ea18fa4c867185eb77ee5d6b830}{Liu}{L\bibinitperiod}{T.}{T\bibinitperiod}{}{}{}{}}%
        {{uniquename=0,hash=b87a8cc29c422162875dad0612f7dcd1}{Qin}{Q\bibinitperiod}{B.}{B\bibinitperiod}{}{}{}{}}%
      }
      \strng{namehash}{fcb6698b6596bcbe318ebcf38b9634ca}
      \strng{fullhash}{f67adc15445b17cff6a4e2ec45f637ca}
      \field{sortinit}{T}
      \field{labelyear}{2014}
      \field{datelabelsource}{}
      \field{labeltitle}{{Learning sentiment-specific word embedding for twitter sentiment classification}}
      \field{journaltitle}{Proceedings of the 52nd Annual Meeting of the Association for Computational Linguistics}
      \field{title}{{Learning sentiment-specific word embedding for twitter sentiment classification}}
      \field{year}{2014}
      \field{pages}{1555\bibrangedash 1565}
    \endentry
    \entry{Turney2011}{inproceedings}{}
      \name{labelname}{4}{}{%
        {{uniquename=0,hash=fdbd45bb580c8245de7f8eea5e31de2b}{Turney}{T\bibinitperiod}{Peter\bibnamedelima D.}{P\bibinitperiod\bibinitdelim D\bibinitperiod}{}{}{}{}}%
        {{uniquename=0,hash=04db0ba28a63dfc4d718a081bb3af1a9}{Neuman}{N\bibinitperiod}{Yair}{Y\bibinitperiod}{}{}{}{}}%
        {{uniquename=0,hash=1115d8cde1c68970f9d6413e7e23c77d}{Assaf}{A\bibinitperiod}{Dan}{D\bibinitperiod}{}{}{}{}}%
        {{uniquename=0,hash=a2681239acbef43434d01ef7f561c91f}{cohen}{c\bibinitperiod}{Yohai}{Y\bibinitperiod}{}{}{}{}}%
      }
      \name{author}{4}{}{%
        {{uniquename=0,hash=fdbd45bb580c8245de7f8eea5e31de2b}{Turney}{T\bibinitperiod}{Peter\bibnamedelima D.}{P\bibinitperiod\bibinitdelim D\bibinitperiod}{}{}{}{}}%
        {{uniquename=0,hash=04db0ba28a63dfc4d718a081bb3af1a9}{Neuman}{N\bibinitperiod}{Yair}{Y\bibinitperiod}{}{}{}{}}%
        {{uniquename=0,hash=1115d8cde1c68970f9d6413e7e23c77d}{Assaf}{A\bibinitperiod}{Dan}{D\bibinitperiod}{}{}{}{}}%
        {{uniquename=0,hash=a2681239acbef43434d01ef7f561c91f}{cohen}{c\bibinitperiod}{Yohai}{Y\bibinitperiod}{}{}{}{}}%
      }
      \list{location}{1}{%
        {Edinburgh, UK.}%
      }
      \strng{namehash}{53ad702797b723191797b6daa9a6aa02}
      \strng{fullhash}{843e8fed51deed7d2e35df8c371e6a32}
      \field{sortinit}{T}
      \field{labelyear}{2011}
      \field{datelabelsource}{}
      \field{labeltitle}{Literal and metaphorical sense identification through concrete and abstract context}
      \field{booktitle}{Proceedings of the Conference on Empirical Methods in Natural Language Processing}
      \field{title}{Literal and metaphorical sense identification through concrete and abstract context}
      \field{year}{2011}
      \field{pages}{680\bibrangedash 690}
    \endentry
    \entry{Vigliocco2009}{article}{}
      \name{labelname}{4}{}{%
        {{uniquename=0,hash=c89600fab6d653cadb516195eb19d289}{Vigliocco}{V\bibinitperiod}{Gabriellla}{G\bibinitperiod}{}{}{}{}}%
        {{uniquename=0,hash=a6c3d4e2420a972c959423c8b933d97d}{Meteyard}{M\bibinitperiod}{Lotte}{L\bibinitperiod}{}{}{}{}}%
        {{uniquename=0,hash=6a18124373ef7d3ed9bdfdcac5a52482}{Andrews}{A\bibinitperiod}{Mark}{M\bibinitperiod}{}{}{}{}}%
        {{uniquename=0,hash=874d4d80a215a292bc4454aa63dc5e99}{Stavroula}{S\bibinitperiod}{Kousta}{K\bibinitperiod}{}{}{}{}}%
      }
      \name{author}{4}{}{%
        {{uniquename=0,hash=c89600fab6d653cadb516195eb19d289}{Vigliocco}{V\bibinitperiod}{Gabriellla}{G\bibinitperiod}{}{}{}{}}%
        {{uniquename=0,hash=a6c3d4e2420a972c959423c8b933d97d}{Meteyard}{M\bibinitperiod}{Lotte}{L\bibinitperiod}{}{}{}{}}%
        {{uniquename=0,hash=6a18124373ef7d3ed9bdfdcac5a52482}{Andrews}{A\bibinitperiod}{Mark}{M\bibinitperiod}{}{}{}{}}%
        {{uniquename=0,hash=874d4d80a215a292bc4454aa63dc5e99}{Stavroula}{S\bibinitperiod}{Kousta}{K\bibinitperiod}{}{}{}{}}%
      }
      \strng{namehash}{f40394dee013e616af46e40671932a51}
      \strng{fullhash}{029ffcde83e9e69e200fb36b87a2a461}
      \field{sortinit}{V}
      \field{labelyear}{2009}
      \field{datelabelsource}{}
      \field{labeltitle}{{Toward a theory of semantic representation}}
      \field{issue}{2}
      \field{journaltitle}{Language and Cognition}
      \field{title}{{Toward a theory of semantic representation}}
      \field{volume}{1}
      \field{year}{2009}
      \field{pages}{219\bibrangedash 247}
    \endentry
    \entry{Wan2009c}{inproceedings}{}
      \name{labelname}{1}{}{%
        {{uniquename=0,hash=40a156736220380336743b1e0712efb4}{Wan}{W\bibinitperiod}{X}{X\bibinitperiod}{}{}{}{}}%
      }
      \name{author}{1}{}{%
        {{uniquename=0,hash=40a156736220380336743b1e0712efb4}{Wan}{W\bibinitperiod}{X}{X\bibinitperiod}{}{}{}{}}%
      }
      \list{location}{1}{%
        {Suntec, Singapore}%
      }
      \strng{namehash}{40a156736220380336743b1e0712efb4}
      \strng{fullhash}{40a156736220380336743b1e0712efb4}
      \field{sortinit}{W}
      \field{labelyear}{2009}
      \field{datelabelsource}{}
      \field{labeltitle}{{Co-training for cross-lingual sentiment classification}}
      \field{booktitle}{Proceedings of the Joint Conference of the 47th Annual meeting of the ACL and the 4th international joint conference on natural language processing.}
      \field{title}{{Co-training for cross-lingual sentiment classification}}
      \field{year}{2009}
      \field{pages}{235\bibrangedash 243}
    \endentry
    \entry{Zhou2015}{inproceedings}{}
      \name{labelname}{4}{}{%
        {{uniquename=0,hash=8a8899732df01f951e22691eb4e2df34}{Zhou}{Z\bibinitperiod}{Guangyou}{G\bibinitperiod}{}{}{}{}}%
        {{uniquename=0,hash=09283e7a1d71310dc5a2d870ca84965f}{He}{H\bibinitperiod}{Tingting}{T\bibinitperiod}{}{}{}{}}%
        {{uniquename=0,hash=3313b0fb30c52802abe615a883198713}{Zhao}{Z\bibinitperiod}{Jun}{J\bibinitperiod}{}{}{}{}}%
        {{uniquename=0,hash=1c9b99463721c37e1fe7d353e4f96918}{Wu}{W\bibinitperiod}{Wensheng}{W\bibinitperiod}{}{}{}{}}%
      }
      \name{author}{4}{}{%
        {{uniquename=0,hash=8a8899732df01f951e22691eb4e2df34}{Zhou}{Z\bibinitperiod}{Guangyou}{G\bibinitperiod}{}{}{}{}}%
        {{uniquename=0,hash=09283e7a1d71310dc5a2d870ca84965f}{He}{H\bibinitperiod}{Tingting}{T\bibinitperiod}{}{}{}{}}%
        {{uniquename=0,hash=3313b0fb30c52802abe615a883198713}{Zhao}{Z\bibinitperiod}{Jun}{J\bibinitperiod}{}{}{}{}}%
        {{uniquename=0,hash=1c9b99463721c37e1fe7d353e4f96918}{Wu}{W\bibinitperiod}{Wensheng}{W\bibinitperiod}{}{}{}{}}%
      }
      \strng{namehash}{28608c01c3ec2fb9ee033d1ce7bf9d0d}
      \strng{fullhash}{f1a5803c343c36ff2db57fd189769760}
      \field{sortinit}{Z}
      \field{labelyear}{2015}
      \field{datelabelsource}{}
      \field{labeltitle}{A subspace learning framework for cross-lingual sentiment classification with partial parallel data}
      \field{booktitle}{Proceedings of International Joint Conference on Artificial Intelligence (IJCAI)}
      \field{title}{A subspace learning framework for cross-lingual sentiment classification with partial parallel data}
      \field{year}{2015}
    \endentry
    \entry{Zou2013}{article}{}
      \name{labelname}{4}{}{%
        {{uniquename=0,hash=1fe8a381b066fbffc3aaf33e2166969f}{Zou}{Z\bibinitperiod}{Will\bibnamedelima Y}{W\bibinitperiod\bibinitdelim Y\bibinitperiod}{}{}{}{}}%
        {{uniquename=0,hash=d5670b2600fea169724521e252d9d09d}{Socher}{S\bibinitperiod}{Richard}{R\bibinitperiod}{}{}{}{}}%
        {{uniquename=0,hash=73291503692ca44df1071d1d8a59a3a1}{Cer}{C\bibinitperiod}{Daniel}{D\bibinitperiod}{}{}{}{}}%
        {{uniquename=0,hash=1261894eaefc186bfeabf336e05e6294}{Manning}{M\bibinitperiod}{Christopher\bibnamedelima D}{C\bibinitperiod\bibinitdelim D\bibinitperiod}{}{}{}{}}%
      }
      \name{author}{4}{}{%
        {{uniquename=0,hash=1fe8a381b066fbffc3aaf33e2166969f}{Zou}{Z\bibinitperiod}{Will\bibnamedelima Y}{W\bibinitperiod\bibinitdelim Y\bibinitperiod}{}{}{}{}}%
        {{uniquename=0,hash=d5670b2600fea169724521e252d9d09d}{Socher}{S\bibinitperiod}{Richard}{R\bibinitperiod}{}{}{}{}}%
        {{uniquename=0,hash=73291503692ca44df1071d1d8a59a3a1}{Cer}{C\bibinitperiod}{Daniel}{D\bibinitperiod}{}{}{}{}}%
        {{uniquename=0,hash=1261894eaefc186bfeabf336e05e6294}{Manning}{M\bibinitperiod}{Christopher\bibnamedelima D}{C\bibinitperiod\bibinitdelim D\bibinitperiod}{}{}{}{}}%
      }
      \strng{namehash}{7df4400d14f7e32bc19aabacbaada139}
      \strng{fullhash}{d96158c94ef231d32e82032ccf164ae0}
      \field{sortinit}{Z}
      \field{labelyear}{2013}
      \field{datelabelsource}{}
      \field{labeltitle}{{Bilingual word embeddings for phrase-based machine translation}}
      \field{journaltitle}{Proceedings of the 2013 Conference on Empirical Methods in Natural Language Processing (EMNLP 2013)}
      \field{number}{October}
      \field{title}{{Bilingual word embeddings for phrase-based machine translation}}
      \field{year}{2013}
      \field{pages}{1393\bibrangedash 1398}
    \endentry
  \endsortlist
\endrefsection
\endinput

