[0] Config.pm:318> INFO - This is Biber 1.8
[0] Config.pm:321> INFO - Logfile is 'motivation_letter.blg'
[44] biber:275> INFO - === jue dic  1, 2016, 20:00:30
[44] Biber.pm:333> INFO - Reading 'motivation_letter.bcf'
[87] Biber.pm:630> INFO - Found 27 citekeys in bib section 0
[98] Biber.pm:3053> INFO - Processing section 0
[108] Biber.pm:3190> INFO - Looking for bibtex format file 'motivation_letter.bib' for section 0
[112] bibtex.pm:808> INFO - Found BibTeX data source 'motivation_letter.bib'
[215] Biber.pm:2939> INFO - Overriding locale 'en_US.UTF-8' default tailoring 'variable = shifted' with 'variable = non-ignorable'
[215] Biber.pm:2945> INFO - Sorting 'entry' list 'nyt' keys
[215] Biber.pm:2949> INFO - No sort tailoring available for locale 'en_US.UTF-8'
[290] bbl.pm:482> INFO - Writing 'motivation_letter.bbl' with encoding 'ascii'
[293] bbl.pm:555> INFO - Output to motivation_letter.bbl
