\relax 
\providecommand\hyper@newdestlabel[2]{}
\providecommand\HyperFirstAtBeginDocument{\AtBeginDocument}
\HyperFirstAtBeginDocument{\ifx\hyper@anchor\@undefined
\global\let\oldcontentsline\contentsline
\gdef\contentsline#1#2#3#4{\oldcontentsline{#1}{#2}{#3}}
\global\let\oldnewlabel\newlabel
\gdef\newlabel#1#2{\newlabelxx{#1}#2}
\gdef\newlabelxx#1#2#3#4#5#6{\oldnewlabel{#1}{{#2}{#3}}}
\AtEndDocument{\ifx\hyper@anchor\@undefined
\let\contentsline\oldcontentsline
\let\newlabel\oldnewlabel
\fi}
\fi}
\global\let\hyper@last\relax 
\gdef\HyperFirstAtBeginDocument#1{#1}
\providecommand\HyField@AuxAddToFields[1]{}
\providecommand\HyField@AuxAddToCoFields[2]{}
\providecommand\pbs@newkey[2]{}
\providecommand\pbs@seq@push@cx[2]{}
\providecommand\pbs@at@end@dvi@check{}
\pbs@at@end@dvi@check
\providecommand\@anim@newkey[2]{}
\pbs@newkey{pbs@last@page}{1}
\pbs@newkey{pbs@last@page}{2}
\pbs@newkey{pbs@last@page}{3}
\@writefile{nav}{\headcommand {\slideentry {0}{0}{1}{1/1}{}{0}}}
\@writefile{nav}{\headcommand {\beamer@framepages {1}{1}}}
\pbs@newkey{pbs@last@page}{4}
\pbs@newkey{pbs@last@page}{5}
\@writefile{toc}{\beamer@sectionintoc {1}{Introduction}{2}{0}{1}}
\@writefile{nav}{\headcommand {\beamer@sectionpages {1}{1}}}
\@writefile{nav}{\headcommand {\beamer@subsectionpages {1}{1}}}
\@writefile{nav}{\headcommand {\sectionentry {1}{Introduction}{2}{Introduction}{0}}}
\@writefile{nav}{\headcommand {\slideentry {1}{0}{1}{2/2}{}{0}}}
\@writefile{nav}{\headcommand {\beamer@framepages {2}{2}}}
\pbs@newkey{pbs@last@page}{6}
\pbs@newkey{pbs@last@page}{7}
\pbs@newkey{pbs@last@page}{8}
\pbs@newkey{pbs@last@page}{9}
\pbs@newkey{pbs@last@page}{10}
\pbs@newkey{pbs@last@page}{11}
\pbs@newkey{pbs@last@page}{12}
\pbs@newkey{pbs@last@page}{13}
\@writefile{nav}{\headcommand {\slideentry {1}{0}{2}{3/6}{}{0}}}
\@writefile{nav}{\headcommand {\beamer@framepages {3}{6}}}
\pbs@newkey{pbs@last@page}{14}
\pbs@newkey{pbs@last@page}{15}
\pbs@newkey{pbs@last@page}{16}
\pbs@newkey{pbs@last@page}{17}
\pbs@newkey{pbs@last@page}{18}
\pbs@newkey{pbs@last@page}{19}
\pbs@newkey{pbs@last@page}{20}
\pbs@newkey{pbs@last@page}{21}
\@writefile{nav}{\headcommand {\slideentry {1}{0}{3}{7/10}{}{0}}}
\@writefile{nav}{\headcommand {\beamer@framepages {7}{10}}}
\pbs@newkey{pbs@last@page}{22}
\pbs@newkey{pbs@last@page}{23}
\pbs@newkey{pbs@last@page}{24}
\pbs@newkey{pbs@last@page}{25}
\pbs@newkey{pbs@last@page}{26}
\pbs@newkey{pbs@last@page}{27}
\@writefile{nav}{\headcommand {\slideentry {1}{0}{4}{11/13}{}{0}}}
\@writefile{nav}{\headcommand {\beamer@framepages {11}{13}}}
\pbs@newkey{pbs@last@page}{28}
\pbs@newkey{pbs@last@page}{29}
\pbs@newkey{pbs@last@page}{30}
\pbs@newkey{pbs@last@page}{31}
\pbs@newkey{pbs@last@page}{32}
\citation{Pang2002}
\citation{Socher2013b}
\citation{wang2012demo}
\citation{bakliwal2013}
\citation{Nahar2012}
\citation{hartung-EtAl:2017:WASSA2017}
\pbs@newkey{pbs@last@page}{33}
\@writefile{nav}{\headcommand {\slideentry {1}{0}{5}{14/16}{}{0}}}
\@writefile{nav}{\headcommand {\beamer@framepages {14}{16}}}
\pbs@newkey{pbs@last@page}{34}
\citation{Pang2002}
\citation{Socher2013b}
\citation{wang2012demo}
\citation{bakliwal2013}
\citation{Nahar2012}
\citation{hartung-EtAl:2017:WASSA2017}
\pbs@newkey{pbs@last@page}{35}
\pbs@newkey{pbs@last@page}{36}
\citation{Pang2002}
\citation{Socher2013b}
\citation{wang2012demo}
\citation{bakliwal2013}
\citation{Nahar2012}
\citation{hartung-EtAl:2017:WASSA2017}
\pbs@newkey{pbs@last@page}{37}
\pbs@newkey{pbs@last@page}{38}
\citation{Pang2002}
\citation{Socher2013b}
\citation{wang2012demo}
\citation{bakliwal2013}
\citation{Nahar2012}
\citation{hartung-EtAl:2017:WASSA2017}
\pbs@newkey{pbs@last@page}{39}
\pbs@newkey{pbs@last@page}{40}
\pbs@newkey{pbs@last@page}{41}
\@writefile{nav}{\headcommand {\slideentry {1}{0}{6}{17/20}{}{0}}}
\@writefile{nav}{\headcommand {\beamer@framepages {17}{20}}}
\pbs@newkey{pbs@last@page}{42}
\pbs@newkey{pbs@last@page}{43}
\pbs@newkey{pbs@last@page}{44}
\pbs@newkey{pbs@last@page}{45}
\pbs@newkey{pbs@last@page}{46}
\pbs@newkey{pbs@last@page}{47}
\@writefile{nav}{\headcommand {\slideentry {1}{0}{7}{21/23}{}{0}}}
\@writefile{nav}{\headcommand {\beamer@framepages {21}{23}}}
\pbs@newkey{pbs@last@page}{48}
\pbs@newkey{pbs@last@page}{49}
\pbs@newkey{pbs@last@page}{50}
\pbs@newkey{pbs@last@page}{51}
\@writefile{nav}{\headcommand {\slideentry {1}{0}{8}{24/25}{}{0}}}
\@writefile{nav}{\headcommand {\beamer@framepages {24}{25}}}
\pbs@newkey{pbs@last@page}{52}
\pbs@newkey{pbs@last@page}{53}
\@writefile{nav}{\headcommand {\slideentry {1}{0}{9}{26/26}{}{0}}}
\@writefile{nav}{\headcommand {\beamer@framepages {26}{26}}}
\pbs@newkey{pbs@last@page}{54}
\pbs@newkey{pbs@last@page}{55}
\@writefile{nav}{\headcommand {\slideentry {1}{0}{10}{27/27}{}{0}}}
\@writefile{nav}{\headcommand {\beamer@framepages {27}{27}}}
\pbs@newkey{pbs@last@page}{56}
\pbs@newkey{pbs@last@page}{57}
\pbs@newkey{pbs@last@page}{58}
\pbs@newkey{pbs@last@page}{59}
\pbs@newkey{pbs@last@page}{60}
\pbs@newkey{pbs@last@page}{61}
\@writefile{nav}{\headcommand {\slideentry {1}{0}{11}{28/30}{}{0}}}
\@writefile{nav}{\headcommand {\beamer@framepages {28}{30}}}
\pbs@newkey{pbs@last@page}{62}
\pbs@newkey{pbs@last@page}{63}
\pbs@newkey{pbs@last@page}{64}
\pbs@newkey{pbs@last@page}{65}
\pbs@newkey{pbs@last@page}{66}
\pbs@newkey{pbs@last@page}{67}
\@writefile{nav}{\headcommand {\slideentry {1}{0}{12}{31/33}{}{0}}}
\@writefile{nav}{\headcommand {\beamer@framepages {31}{33}}}
\pbs@newkey{pbs@last@page}{68}
\pbs@newkey{pbs@last@page}{69}
\pbs@newkey{pbs@last@page}{70}
\pbs@newkey{pbs@last@page}{71}
\pbs@newkey{pbs@last@page}{72}
\pbs@newkey{pbs@last@page}{73}
\pbs@newkey{pbs@last@page}{74}
\pbs@newkey{pbs@last@page}{75}
\@writefile{nav}{\headcommand {\slideentry {1}{0}{13}{34/37}{}{0}}}
\@writefile{nav}{\headcommand {\beamer@framepages {34}{37}}}
\pbs@newkey{pbs@last@page}{76}
\pbs@newkey{pbs@last@page}{77}
\pbs@newkey{pbs@last@page}{78}
\pbs@newkey{pbs@last@page}{79}
\pbs@newkey{pbs@last@page}{80}
\pbs@newkey{pbs@last@page}{81}
\pbs@newkey{pbs@last@page}{82}
\pbs@newkey{pbs@last@page}{83}
\pbs@newkey{pbs@last@page}{84}
\pbs@newkey{pbs@last@page}{85}
\pbs@newkey{pbs@last@page}{86}
\pbs@newkey{pbs@last@page}{87}
\pbs@newkey{pbs@last@page}{88}
\pbs@newkey{pbs@last@page}{89}
\pbs@newkey{pbs@last@page}{90}
\pbs@newkey{pbs@last@page}{91}
\pbs@newkey{pbs@last@page}{92}
\pbs@newkey{pbs@last@page}{93}
\pbs@newkey{pbs@last@page}{94}
\pbs@newkey{pbs@last@page}{95}
\@writefile{nav}{\headcommand {\slideentry {1}{0}{14}{38/47}{}{0}}}
\@writefile{nav}{\headcommand {\beamer@framepages {38}{47}}}
\pbs@newkey{pbs@last@page}{96}
\pbs@newkey{pbs@last@page}{97}
\@writefile{nav}{\headcommand {\slideentry {1}{0}{15}{48/48}{}{0}}}
\@writefile{nav}{\headcommand {\beamer@framepages {48}{48}}}
\pbs@newkey{pbs@last@page}{98}
\pbs@newkey{pbs@last@page}{99}
\pbs@newkey{pbs@last@page}{100}
\pbs@newkey{pbs@last@page}{101}
\pbs@newkey{pbs@last@page}{102}
\pbs@newkey{pbs@last@page}{103}
\pbs@newkey{pbs@last@page}{104}
\pbs@newkey{pbs@last@page}{105}
\pbs@newkey{pbs@last@page}{106}
\pbs@newkey{pbs@last@page}{107}
\pbs@newkey{pbs@last@page}{108}
\pbs@newkey{pbs@last@page}{109}
\pbs@newkey{pbs@last@page}{110}
\pbs@newkey{pbs@last@page}{111}
\@writefile{nav}{\headcommand {\slideentry {1}{0}{16}{49/55}{}{0}}}
\@writefile{nav}{\headcommand {\beamer@framepages {49}{55}}}
\pbs@newkey{pbs@last@page}{112}
\citation{Turney2002}
\citation{Liu2005}
\citation{Wiebe2005}
\citation{Pang2002}
\citation{Wiebe2005}
\citation{Blitzer2006}
\citation{Socher2013b}
\citation{Kim2014}
\citation{Santos2014}
\citation{Pontiki2014}
\citation{Zhang2015}
\citation{Tang2016}
\pbs@newkey{pbs@last@page}{113}
\@writefile{toc}{\beamer@sectionintoc {2}{Related Work}{56}{0}{2}}
\@writefile{nav}{\headcommand {\beamer@sectionpages {2}{55}}}
\@writefile{nav}{\headcommand {\beamer@subsectionpages {2}{55}}}
\@writefile{nav}{\headcommand {\sectionentry {2}{Related Work}{56}{Related Work}{0}}}
\@writefile{nav}{\headcommand {\slideentry {2}{0}{1}{56/56}{}{0}}}
\@writefile{nav}{\headcommand {\beamer@framepages {56}{56}}}
\pbs@newkey{pbs@last@page}{114}
\citation{Turney2002}
\citation{Liu2005}
\citation{Wiebe2005}
\citation{Pang2002}
\citation{Wiebe2005}
\citation{Blitzer2006}
\citation{Socher2013b}
\citation{Kim2014}
\citation{Santos2014}
\citation{Pontiki2014}
\citation{Zhang2015}
\citation{Tang2016}
\pbs@newkey{pbs@last@page}{115}
\pbs@newkey{pbs@last@page}{116}
\citation{Turney2002}
\citation{Liu2005}
\citation{Wiebe2005}
\citation{Pang2002}
\citation{Wiebe2005}
\citation{Blitzer2006}
\citation{Socher2013b}
\citation{Kim2014}
\citation{Santos2014}
\citation{Pontiki2014}
\citation{Zhang2015}
\citation{Tang2016}
\pbs@newkey{pbs@last@page}{117}
\pbs@newkey{pbs@last@page}{118}
\citation{Turney2002}
\citation{Liu2005}
\citation{Wiebe2005}
\citation{Pang2002}
\citation{Wiebe2005}
\citation{Blitzer2006}
\citation{Socher2013b}
\citation{Kim2014}
\citation{Santos2014}
\citation{Pontiki2014}
\citation{Zhang2015}
\citation{Tang2016}
\pbs@newkey{pbs@last@page}{119}
\pbs@newkey{pbs@last@page}{120}
\citation{Turney2002}
\citation{Liu2005}
\citation{Wiebe2005}
\citation{Pang2002}
\citation{Wiebe2005}
\citation{Blitzer2006}
\citation{Socher2013b}
\citation{Kim2014}
\citation{Santos2014}
\citation{Pontiki2014}
\citation{Zhang2015}
\citation{Tang2016}
\pbs@newkey{pbs@last@page}{121}
\pbs@newkey{pbs@last@page}{122}
\citation{Mihalcea2007}
\citation{Banea2008}
\citation{Duh2011a}
\citation{Demirtas2013}
\citation{Balahur2014d}
\citation{Meng2012}
\citation{Zhang2015}
\citation{Rasooli2017}
\citation{Chen2016}
\pbs@newkey{pbs@last@page}{123}
\@writefile{nav}{\headcommand {\slideentry {2}{0}{2}{57/61}{}{0}}}
\@writefile{nav}{\headcommand {\beamer@framepages {57}{61}}}
\pbs@newkey{pbs@last@page}{124}
\citation{Mihalcea2007}
\citation{Banea2008}
\citation{Duh2011a}
\citation{Demirtas2013}
\citation{Balahur2014d}
\citation{Meng2012}
\citation{Zhang2015}
\citation{Rasooli2017}
\citation{Chen2016}
\pbs@newkey{pbs@last@page}{125}
\pbs@newkey{pbs@last@page}{126}
\citation{Mihalcea2007}
\citation{Banea2008}
\citation{Duh2011a}
\citation{Demirtas2013}
\citation{Balahur2014d}
\citation{Meng2012}
\citation{Zhang2015}
\citation{Rasooli2017}
\citation{Chen2016}
\pbs@newkey{pbs@last@page}{127}
\pbs@newkey{pbs@last@page}{128}
\citation{Mihalcea2007}
\citation{Banea2008}
\citation{Duh2011a}
\citation{Demirtas2013}
\citation{Balahur2014d}
\citation{Meng2012}
\citation{Zhang2015}
\citation{Rasooli2017}
\citation{Chen2016}
\pbs@newkey{pbs@last@page}{129}
\pbs@newkey{pbs@last@page}{130}
\citation{Almeida2015}
\citation{Klinger2015}
\citation{Lambert2015}
\pbs@newkey{pbs@last@page}{131}
\@writefile{nav}{\headcommand {\slideentry {2}{0}{3}{62/65}{}{0}}}
\@writefile{nav}{\headcommand {\beamer@framepages {62}{65}}}
\pbs@newkey{pbs@last@page}{132}
\citation{Almeida2015}
\citation{Klinger2015}
\citation{Lambert2015}
\pbs@newkey{pbs@last@page}{133}
\pbs@newkey{pbs@last@page}{134}
\citation{Almeida2015}
\citation{Klinger2015}
\citation{Lambert2015}
\pbs@newkey{pbs@last@page}{135}
\pbs@newkey{pbs@last@page}{136}
\citation{Chandar2014}
\citation{Luong2015}
\citation{Gouws2015}
\citation{Vulic2016}
\citation{Mikolov2013translation}
\citation{Artetxe2016}
\citation{Artetxe2017}
\citation{Lample2017}
\pbs@newkey{pbs@last@page}{137}
\@writefile{nav}{\headcommand {\slideentry {2}{0}{4}{66/68}{}{0}}}
\@writefile{nav}{\headcommand {\beamer@framepages {66}{68}}}
\pbs@newkey{pbs@last@page}{138}
\citation{Chandar2014}
\citation{Luong2015}
\citation{Gouws2015}
\citation{Vulic2016}
\citation{Mikolov2013translation}
\citation{Artetxe2016}
\citation{Artetxe2017}
\citation{Lample2017}
\pbs@newkey{pbs@last@page}{139}
\pbs@newkey{pbs@last@page}{140}
\citation{Chandar2014}
\citation{Luong2015}
\citation{Gouws2015}
\citation{Vulic2016}
\citation{Mikolov2013translation}
\citation{Artetxe2016}
\citation{Artetxe2017}
\citation{Lample2017}
\pbs@newkey{pbs@last@page}{141}
\pbs@newkey{pbs@last@page}{142}
\citation{Chandar2014}
\citation{Luong2015}
\citation{Gouws2015}
\citation{Vulic2016}
\citation{Mikolov2013translation}
\citation{Artetxe2016}
\citation{Artetxe2017}
\citation{Lample2017}
\pbs@newkey{pbs@last@page}{143}
\pbs@newkey{pbs@last@page}{144}
\citation{Chandar2014}
\citation{Luong2015}
\citation{Gouws2015}
\citation{Vulic2016}
\citation{Mikolov2013translation}
\citation{Artetxe2016}
\citation{Artetxe2017}
\citation{Lample2017}
\pbs@newkey{pbs@last@page}{145}
\pbs@newkey{pbs@last@page}{146}
\citation{Barnes2016}
\pbs@newkey{pbs@last@page}{147}
\@writefile{nav}{\headcommand {\slideentry {2}{0}{5}{69/73}{}{0}}}
\@writefile{nav}{\headcommand {\beamer@framepages {69}{73}}}
\pbs@newkey{pbs@last@page}{148}
\citation{Barnes2016}
\pbs@newkey{pbs@last@page}{149}
\pbs@newkey{pbs@last@page}{150}
\citation{Barnes2016}
\pbs@newkey{pbs@last@page}{151}
\pbs@newkey{pbs@last@page}{152}
\pbs@newkey{pbs@last@page}{153}
\@writefile{nav}{\headcommand {\slideentry {2}{0}{6}{74/76}{}{0}}}
\@writefile{nav}{\headcommand {\beamer@framepages {74}{76}}}
\pbs@newkey{pbs@last@page}{154}
\pbs@newkey{pbs@last@page}{155}
\@writefile{toc}{\beamer@sectionintoc {3}{Sentence-level Cross-lingual Classification: (BLSE)}{77}{0}{3}}
\@writefile{nav}{\headcommand {\beamer@sectionpages {56}{76}}}
\@writefile{nav}{\headcommand {\beamer@subsectionpages {56}{76}}}
\@writefile{nav}{\headcommand {\sectionentry {3}{Sentence-level Cross-lingual Classification: (BLSE)}{77}{Sentence-level Cross-lingual Classification: (BLSE)}{0}}}
\@writefile{nav}{\headcommand {\slideentry {3}{0}{1}{77/77}{}{0}}}
\@writefile{nav}{\headcommand {\beamer@framepages {77}{77}}}
\pbs@newkey{pbs@last@page}{156}
\pbs@newkey{pbs@last@page}{157}
\pbs@newkey{pbs@last@page}{158}
\pbs@newkey{pbs@last@page}{159}
\pbs@newkey{pbs@last@page}{160}
\pbs@newkey{pbs@last@page}{161}
\pbs@newkey{pbs@last@page}{162}
\citation{Agerri2013}
\citation{Barnes2018a}
\pbs@newkey{pbs@last@page}{163}
\@writefile{nav}{\headcommand {\slideentry {3}{0}{2}{78/81}{}{0}}}
\@writefile{nav}{\headcommand {\beamer@framepages {78}{81}}}
\pbs@newkey{pbs@last@page}{164}
\pbs@newkey{pbs@last@page}{165}
\@writefile{nav}{\headcommand {\slideentry {3}{0}{3}{82/82}{}{0}}}
\@writefile{nav}{\headcommand {\beamer@framepages {82}{82}}}
\pbs@newkey{pbs@last@page}{166}
\pbs@newkey{pbs@last@page}{167}
\pbs@newkey{pbs@last@page}{168}
\citation{Artetxe2016}
\citation{Gouws2015taskspecific}
\pbs@newkey{pbs@last@page}{169}
\@writefile{nav}{\headcommand {\slideentry {3}{0}{4}{83/84}{}{0}}}
\@writefile{nav}{\headcommand {\beamer@framepages {83}{84}}}
\pbs@newkey{pbs@last@page}{170}
\citation{Artetxe2016}
\citation{Gouws2015taskspecific}
\pbs@newkey{pbs@last@page}{171}
\pbs@newkey{pbs@last@page}{172}
\citation{Artetxe2016}
\citation{Gouws2015taskspecific}
\pbs@newkey{pbs@last@page}{173}
\pbs@newkey{pbs@last@page}{174}
\citation{Artetxe2016}
\citation{Gouws2015taskspecific}
\pbs@newkey{pbs@last@page}{175}
\pbs@newkey{pbs@last@page}{176}
\pbs@newkey{pbs@last@page}{177}
\@writefile{nav}{\headcommand {\slideentry {3}{0}{5}{85/88}{}{0}}}
\@writefile{nav}{\headcommand {\beamer@framepages {85}{88}}}
\pbs@newkey{pbs@last@page}{178}
\pbs@newkey{pbs@last@page}{179}
\@writefile{nav}{\headcommand {\slideentry {3}{0}{6}{89/89}{}{0}}}
\@writefile{nav}{\headcommand {\beamer@framepages {89}{89}}}
\pbs@newkey{pbs@last@page}{180}
\pbs@newkey{pbs@last@page}{181}
\pbs@newkey{pbs@last@page}{182}
\pbs@newkey{pbs@last@page}{183}
\pbs@newkey{pbs@last@page}{184}
\pbs@newkey{pbs@last@page}{185}
\pbs@newkey{pbs@last@page}{186}
\pbs@newkey{pbs@last@page}{187}
\@writefile{nav}{\headcommand {\slideentry {3}{0}{7}{90/93}{}{0}}}
\@writefile{nav}{\headcommand {\beamer@framepages {90}{93}}}
\pbs@newkey{pbs@last@page}{188}
\pbs@newkey{pbs@last@page}{189}
\pbs@newkey{pbs@last@page}{190}
\pbs@newkey{pbs@last@page}{191}
\pbs@newkey{pbs@last@page}{192}
\pbs@newkey{pbs@last@page}{193}
\pbs@newkey{pbs@last@page}{194}
\pbs@newkey{pbs@last@page}{195}
\pbs@newkey{pbs@last@page}{196}
\pbs@newkey{pbs@last@page}{197}
\pbs@newkey{pbs@last@page}{198}
\pbs@newkey{pbs@last@page}{199}
\pbs@newkey{pbs@last@page}{200}
\pbs@newkey{pbs@last@page}{201}
\pbs@newkey{pbs@last@page}{202}
\pbs@newkey{pbs@last@page}{203}
\pbs@newkey{pbs@last@page}{204}
\pbs@newkey{pbs@last@page}{205}
\pbs@newkey{pbs@last@page}{206}
\pbs@newkey{pbs@last@page}{207}
\pbs@newkey{pbs@last@page}{208}
\pbs@newkey{pbs@last@page}{209}
\pbs@newkey{pbs@last@page}{210}
\pbs@newkey{pbs@last@page}{211}
\pbs@newkey{pbs@last@page}{212}
\pbs@newkey{pbs@last@page}{213}
\pbs@newkey{pbs@last@page}{214}
\pbs@newkey{pbs@last@page}{215}
\pbs@newkey{pbs@last@page}{216}
\pbs@newkey{pbs@last@page}{217}
\pbs@newkey{pbs@last@page}{218}
\pbs@newkey{pbs@last@page}{219}
\@writefile{nav}{\headcommand {\slideentry {3}{0}{8}{94/109}{}{0}}}
\@writefile{nav}{\headcommand {\beamer@framepages {94}{109}}}
\pbs@newkey{pbs@last@page}{220}
\pbs@newkey{pbs@last@page}{221}
\pbs@newkey{pbs@last@page}{222}
\pbs@newkey{pbs@last@page}{223}
\pbs@newkey{pbs@last@page}{224}
\pbs@newkey{pbs@last@page}{225}
\@writefile{nav}{\headcommand {\slideentry {3}{0}{9}{110/112}{}{0}}}
\@writefile{nav}{\headcommand {\beamer@framepages {110}{112}}}
\pbs@newkey{pbs@last@page}{226}
\pbs@newkey{pbs@last@page}{227}
\pbs@newkey{pbs@last@page}{228}
\pbs@newkey{pbs@last@page}{229}
\pbs@newkey{pbs@last@page}{230}
\pbs@newkey{pbs@last@page}{231}
\pbs@newkey{pbs@last@page}{232}
\pbs@newkey{pbs@last@page}{233}
\pbs@newkey{pbs@last@page}{234}
\pbs@newkey{pbs@last@page}{235}
\@writefile{nav}{\headcommand {\slideentry {3}{0}{10}{113/117}{}{0}}}
\@writefile{nav}{\headcommand {\beamer@framepages {113}{117}}}
\pbs@newkey{pbs@last@page}{236}
\pbs@newkey{pbs@last@page}{237}
\@writefile{toc}{\beamer@sectionintoc {4}{Targeted Cross-lingual Classification}{118}{0}{4}}
\@writefile{nav}{\headcommand {\beamer@sectionpages {77}{117}}}
\@writefile{nav}{\headcommand {\beamer@subsectionpages {77}{117}}}
\@writefile{nav}{\headcommand {\sectionentry {4}{Targeted Cross-lingual Classification}{118}{Targeted Cross-lingual Classification}{0}}}
\@writefile{nav}{\headcommand {\slideentry {4}{0}{1}{118/118}{}{0}}}
\@writefile{nav}{\headcommand {\beamer@framepages {118}{118}}}
\pbs@newkey{pbs@last@page}{238}
\pbs@newkey{pbs@last@page}{239}
\pbs@newkey{pbs@last@page}{240}
\pbs@newkey{pbs@last@page}{241}
\pbs@newkey{pbs@last@page}{242}
\pbs@newkey{pbs@last@page}{243}
\pbs@newkey{pbs@last@page}{244}
\citation{Agerri2013}
\citation{Barnes2018a}
\citation{Pontiki2016}
\citation{Klinger2014a}
\pbs@newkey{pbs@last@page}{245}
\@writefile{nav}{\headcommand {\slideentry {4}{0}{2}{119/122}{}{0}}}
\@writefile{nav}{\headcommand {\beamer@framepages {119}{122}}}
\pbs@newkey{pbs@last@page}{246}
\pbs@newkey{pbs@last@page}{247}
\newlabel{beyond:stats:datasets}{{32}{124}{Targeted Cross-lingual Classification}{Doc-Start}{}}
\@writefile{snm}{\beamer@slide {beyond:stats:datasets}{123}}
\@writefile{nav}{\headcommand {\slideentry {4}{0}{3}{123/123}{}{0}}}
\@writefile{nav}{\headcommand {\beamer@framepages {123}{123}}}
\pbs@newkey{pbs@last@page}{248}
\pbs@newkey{pbs@last@page}{249}
\@writefile{nav}{\headcommand {\slideentry {4}{0}{4}{124/124}{}{0}}}
\@writefile{nav}{\headcommand {\beamer@framepages {124}{124}}}
\pbs@newkey{pbs@last@page}{250}
\pbs@newkey{pbs@last@page}{251}
\@writefile{nav}{\headcommand {\slideentry {4}{0}{5}{125/125}{}{0}}}
\@writefile{nav}{\headcommand {\beamer@framepages {125}{125}}}
\pbs@newkey{pbs@last@page}{252}
\pbs@newkey{pbs@last@page}{253}
\@writefile{nav}{\headcommand {\slideentry {4}{0}{6}{126/126}{}{0}}}
\@writefile{nav}{\headcommand {\beamer@framepages {126}{126}}}
\pbs@newkey{pbs@last@page}{254}
\pbs@newkey{pbs@last@page}{255}
\@writefile{nav}{\headcommand {\slideentry {4}{0}{7}{127/127}{}{0}}}
\@writefile{nav}{\headcommand {\beamer@framepages {127}{127}}}
\pbs@newkey{pbs@last@page}{256}
\citation{Artetxe2016}
\citation{Gouws2015taskspecific}
\citation{Lample2017}
\pbs@newkey{pbs@last@page}{257}
\@writefile{nav}{\headcommand {\slideentry {4}{0}{8}{128/128}{}{0}}}
\@writefile{nav}{\headcommand {\beamer@framepages {128}{128}}}
\pbs@newkey{pbs@last@page}{258}
\citation{Artetxe2016}
\citation{Gouws2015taskspecific}
\citation{Lample2017}
\pbs@newkey{pbs@last@page}{259}
\pbs@newkey{pbs@last@page}{260}
\citation{Artetxe2016}
\citation{Gouws2015taskspecific}
\citation{Lample2017}
\pbs@newkey{pbs@last@page}{261}
\pbs@newkey{pbs@last@page}{262}
\citation{Artetxe2016}
\citation{Gouws2015taskspecific}
\citation{Lample2017}
\pbs@newkey{pbs@last@page}{263}
\pbs@newkey{pbs@last@page}{264}
\citation{Artetxe2016}
\citation{Gouws2015taskspecific}
\citation{Lample2017}
\pbs@newkey{pbs@last@page}{265}
\pbs@newkey{pbs@last@page}{266}
\savepointas {a}{pgfid272}
\savepointas {b}{pgfid273}
\pbs@newkey{pbs@last@page}{267}
\@writefile{nav}{\headcommand {\slideentry {4}{0}{9}{129/133}{}{0}}}
\@writefile{nav}{\headcommand {\beamer@framepages {129}{133}}}
\pbs@newkey{pbs@last@page}{268}
\savepointas {a}{pgfid277}
\savepointas {b}{pgfid278}
\pbs@newkey{pbs@last@page}{269}
\pgfsyspdfmark {pgfid272}{21318692}{7484784}
\pgfsyspdfmark {pgfid273}{21318692}{4620880}
\pbs@newkey{pbs@last@page}{270}
\savepointas {a}{pgfid281}
\savepointas {b}{pgfid283}
\pbs@newkey{pbs@last@page}{271}
\pgfsyspdfmark {pgfid276}{19771303}{7484784}
\pgfsyspdfmark {pgfid277}{21318692}{7484784}
\pgfsyspdfmark {pgfid278}{21318692}{4620880}
\pbs@newkey{pbs@last@page}{272}
\savepointas {c}{pgfid286}
\savepointas {d}{pgfid287}
\pbs@newkey{pbs@last@page}{273}
\pgfsyspdfmark {pgfid281}{21318692}{7484784}
\pgfsyspdfmark {pgfid282}{19771303}{4620880}
\pgfsyspdfmark {pgfid283}{21318692}{4620880}
\@writefile{nav}{\headcommand {\slideentry {4}{0}{10}{134/136}{}{0}}}
\@writefile{nav}{\headcommand {\beamer@framepages {134}{136}}}
\pbs@newkey{pbs@last@page}{274}
\savepointas {c}{pgfid290}
\savepointas {d}{pgfid292}
\pbs@newkey{pbs@last@page}{275}
\pgfsyspdfmark {pgfid286}{21318692}{8226974}
\pgfsyspdfmark {pgfid287}{21225848}{6052832}
\pbs@newkey{pbs@last@page}{276}
\savepointas {c}{pgfid296}
\savepointas {d}{pgfid297}
\pbs@newkey{pbs@last@page}{277}
\pgfsyspdfmark {pgfid290}{21318692}{8226974}
\pgfsyspdfmark {pgfid291}{19864147}{6052832}
\pgfsyspdfmark {pgfid292}{21225848}{6052832}
\pbs@newkey{pbs@last@page}{278}
\pbs@newkey{pbs@last@page}{279}
\pgfsyspdfmark {pgfid295}{19771303}{8226974}
\pgfsyspdfmark {pgfid296}{21318692}{8226974}
\pgfsyspdfmark {pgfid297}{21225848}{6052832}
\@writefile{nav}{\headcommand {\slideentry {4}{0}{11}{137/139}{}{0}}}
\@writefile{nav}{\headcommand {\beamer@framepages {137}{139}}}
\pbs@newkey{pbs@last@page}{280}
\pbs@newkey{pbs@last@page}{281}
\@writefile{nav}{\headcommand {\slideentry {4}{0}{12}{140/140}{}{0}}}
\@writefile{nav}{\headcommand {\beamer@framepages {140}{140}}}
\pbs@newkey{pbs@last@page}{282}
\pbs@newkey{pbs@last@page}{283}
\pbs@newkey{pbs@last@page}{284}
\pbs@newkey{pbs@last@page}{285}
\pbs@newkey{pbs@last@page}{286}
\pbs@newkey{pbs@last@page}{287}
\pbs@newkey{pbs@last@page}{288}
\pbs@newkey{pbs@last@page}{289}
\pbs@newkey{pbs@last@page}{290}
\pbs@newkey{pbs@last@page}{291}
\pbs@newkey{pbs@last@page}{292}
\pbs@newkey{pbs@last@page}{293}
\@writefile{nav}{\headcommand {\slideentry {4}{0}{13}{141/146}{}{0}}}
\@writefile{nav}{\headcommand {\beamer@framepages {141}{146}}}
\pbs@newkey{pbs@last@page}{294}
\pbs@newkey{pbs@last@page}{295}
\@writefile{toc}{\beamer@sectionintoc {5}{Case-study: Deploying BLSE for targeted tourism}{147}{0}{5}}
\@writefile{nav}{\headcommand {\beamer@sectionpages {118}{146}}}
\@writefile{nav}{\headcommand {\beamer@subsectionpages {118}{146}}}
\@writefile{nav}{\headcommand {\sectionentry {5}{Case-study: Deploying BLSE for targeted tourism}{147}{Case-study: Deploying BLSE for targeted tourism}{0}}}
\@writefile{nav}{\headcommand {\slideentry {5}{0}{1}{147/147}{}{0}}}
\@writefile{nav}{\headcommand {\beamer@framepages {147}{147}}}
\pbs@newkey{pbs@last@page}{296}
\pbs@newkey{pbs@last@page}{297}
\pbs@newkey{pbs@last@page}{298}
\pbs@newkey{pbs@last@page}{299}
\pbs@newkey{pbs@last@page}{300}
\pbs@newkey{pbs@last@page}{301}
\pbs@newkey{pbs@last@page}{302}
\pbs@newkey{pbs@last@page}{303}
\@writefile{nav}{\headcommand {\slideentry {5}{0}{2}{148/151}{}{0}}}
\@writefile{nav}{\headcommand {\beamer@framepages {148}{151}}}
\pbs@newkey{pbs@last@page}{304}
\pbs@newkey{pbs@last@page}{305}
\newlabel{deployment:table:examples}{{44}{153}{Case-study: Deploying BLSE for targeted tourism}{Doc-Start}{}}
\@writefile{snm}{\beamer@slide {deployment:table:examples}{152}}
\newlabel{deployment:table:tweets}{{44}{153}{Case-study: Deploying BLSE for targeted tourism}{Doc-Start}{}}
\@writefile{snm}{\beamer@slide {deployment:table:tweets}{152}}
\pbs@newkey{pbs@last@page}{306}
\pbs@newkey{pbs@last@page}{307}
\@writefile{nav}{\headcommand {\slideentry {5}{0}{3}{152/153}{}{0}}}
\@writefile{nav}{\headcommand {\beamer@framepages {152}{153}}}
\pbs@newkey{pbs@last@page}{308}
\savepointas {e}{pgfid331}
\pbs@newkey{pbs@last@page}{309}
\@writefile{nav}{\headcommand {\slideentry {5}{0}{4}{154/154}{}{0}}}
\@writefile{nav}{\headcommand {\beamer@framepages {154}{154}}}
\pbs@newkey{pbs@last@page}{310}
\savepointas {e}{pgfid335}
\pbs@newkey{pbs@last@page}{311}
\pgfsyspdfmark {pgfid331}{21713065}{8596430}
\pbs@newkey{pbs@last@page}{312}
\savepointas {f}{pgfid338}
\pbs@newkey{pbs@last@page}{313}
\pgfsyspdfmark {pgfid334}{20552524}{8596430}
\pgfsyspdfmark {pgfid335}{21713065}{8596430}
\@writefile{nav}{\headcommand {\slideentry {5}{0}{5}{155/156}{}{0}}}
\@writefile{nav}{\headcommand {\beamer@framepages {155}{156}}}
\pbs@newkey{pbs@last@page}{314}
\savepointas {f}{pgfid341}
\pbs@newkey{pbs@last@page}{315}
\pgfsyspdfmark {pgfid338}{22608792}{7013747}
\pbs@newkey{pbs@last@page}{316}
\savepointas {f}{pgfid345}
\pbs@newkey{pbs@last@page}{317}
\pgfsyspdfmark {pgfid341}{22608792}{7013747}
\pbs@newkey{pbs@last@page}{318}
\pbs@newkey{pbs@last@page}{319}
\pgfsyspdfmark {pgfid344}{21448251}{7013747}
\pgfsyspdfmark {pgfid345}{22608792}{7013747}
\@writefile{nav}{\headcommand {\slideentry {5}{0}{6}{157/159}{}{0}}}
\@writefile{nav}{\headcommand {\beamer@framepages {157}{159}}}
\pbs@newkey{pbs@last@page}{320}
\pbs@newkey{pbs@last@page}{321}
\@writefile{nav}{\headcommand {\slideentry {5}{0}{7}{160/160}{}{0}}}
\@writefile{nav}{\headcommand {\beamer@framepages {160}{160}}}
\pbs@newkey{pbs@last@page}{322}
\pbs@newkey{pbs@last@page}{323}
\@writefile{nav}{\headcommand {\slideentry {5}{0}{8}{161/161}{}{0}}}
\@writefile{nav}{\headcommand {\beamer@framepages {161}{161}}}
\pbs@newkey{pbs@last@page}{324}
\pbs@newkey{pbs@last@page}{325}
\pbs@newkey{pbs@last@page}{326}
\pbs@newkey{pbs@last@page}{327}
\@writefile{nav}{\headcommand {\slideentry {5}{0}{9}{162/163}{}{0}}}
\@writefile{nav}{\headcommand {\beamer@framepages {162}{163}}}
\pbs@newkey{pbs@last@page}{328}
\pbs@newkey{pbs@last@page}{329}
\pbs@newkey{pbs@last@page}{330}
\pbs@newkey{pbs@last@page}{331}
\@writefile{nav}{\headcommand {\slideentry {5}{0}{10}{164/165}{}{0}}}
\@writefile{nav}{\headcommand {\beamer@framepages {164}{165}}}
\pbs@newkey{pbs@last@page}{332}
\pbs@newkey{pbs@last@page}{333}
\pbs@newkey{pbs@last@page}{334}
\pbs@newkey{pbs@last@page}{335}
\@writefile{nav}{\headcommand {\slideentry {5}{0}{11}{166/167}{}{0}}}
\@writefile{nav}{\headcommand {\beamer@framepages {166}{167}}}
\pbs@newkey{pbs@last@page}{336}
\pbs@newkey{pbs@last@page}{337}
\pbs@newkey{pbs@last@page}{338}
\pbs@newkey{pbs@last@page}{339}
\pbs@newkey{pbs@last@page}{340}
\pbs@newkey{pbs@last@page}{341}
\pbs@newkey{pbs@last@page}{342}
\pbs@newkey{pbs@last@page}{343}
\pbs@newkey{pbs@last@page}{344}
\pbs@newkey{pbs@last@page}{345}
\@writefile{nav}{\headcommand {\slideentry {5}{0}{12}{168/172}{}{0}}}
\@writefile{nav}{\headcommand {\beamer@framepages {168}{172}}}
\pbs@newkey{pbs@last@page}{346}
\pbs@newkey{pbs@last@page}{347}
\@writefile{toc}{\beamer@sectionintoc {6}{Cross-domain sentiment analysis}{173}{0}{6}}
\@writefile{nav}{\headcommand {\beamer@sectionpages {147}{172}}}
\@writefile{nav}{\headcommand {\beamer@subsectionpages {147}{172}}}
\@writefile{nav}{\headcommand {\sectionentry {6}{Cross-domain sentiment analysis}{173}{Cross-domain sentiment analysis}{0}}}
\@writefile{nav}{\headcommand {\slideentry {6}{0}{1}{173/173}{}{0}}}
\@writefile{nav}{\headcommand {\beamer@framepages {173}{173}}}
\pbs@newkey{pbs@last@page}{348}
\pbs@newkey{pbs@last@page}{349}
\pbs@newkey{pbs@last@page}{350}
\pbs@newkey{pbs@last@page}{351}
\pbs@newkey{pbs@last@page}{352}
\pbs@newkey{pbs@last@page}{353}
\@writefile{nav}{\headcommand {\slideentry {6}{0}{2}{174/176}{}{0}}}
\@writefile{nav}{\headcommand {\beamer@framepages {174}{176}}}
\pbs@newkey{pbs@last@page}{354}
\pbs@newkey{pbs@last@page}{355}
\newlabel{domain:datasetstats}{{55}{178}{Cross-domain sentiment analysis}{Doc-Start}{}}
\@writefile{snm}{\beamer@slide {domain:datasetstats}{177}}
\@writefile{nav}{\headcommand {\slideentry {6}{0}{3}{177/177}{}{0}}}
\@writefile{nav}{\headcommand {\beamer@framepages {177}{177}}}
\pbs@newkey{pbs@last@page}{356}
\citation{Chen2012}
\citation{Ziser2017}
\pbs@newkey{pbs@last@page}{357}
\@writefile{nav}{\headcommand {\slideentry {6}{0}{4}{178/178}{}{0}}}
\@writefile{nav}{\headcommand {\beamer@framepages {178}{178}}}
\pbs@newkey{pbs@last@page}{358}
\pbs@newkey{pbs@last@page}{359}
\@writefile{nav}{\headcommand {\slideentry {6}{0}{5}{179/179}{}{0}}}
\@writefile{nav}{\headcommand {\beamer@framepages {179}{179}}}
\pbs@newkey{pbs@last@page}{360}
\pbs@newkey{pbs@last@page}{361}
\@writefile{nav}{\headcommand {\slideentry {6}{0}{6}{180/180}{}{0}}}
\@writefile{nav}{\headcommand {\beamer@framepages {180}{180}}}
\pbs@newkey{pbs@last@page}{362}
\pbs@newkey{pbs@last@page}{363}
\pbs@newkey{pbs@last@page}{364}
\pbs@newkey{pbs@last@page}{365}
\pbs@newkey{pbs@last@page}{366}
\pbs@newkey{pbs@last@page}{367}
\@writefile{nav}{\headcommand {\slideentry {6}{0}{7}{181/183}{}{0}}}
\@writefile{nav}{\headcommand {\beamer@framepages {181}{183}}}
\pbs@newkey{pbs@last@page}{368}
\pbs@newkey{pbs@last@page}{369}
\@writefile{toc}{\beamer@sectionintoc {7}{Final Comments}{184}{0}{7}}
\@writefile{nav}{\headcommand {\beamer@sectionpages {173}{183}}}
\@writefile{nav}{\headcommand {\beamer@subsectionpages {173}{183}}}
\@writefile{nav}{\headcommand {\sectionentry {7}{Final Comments}{184}{Final Comments}{0}}}
\@writefile{nav}{\headcommand {\slideentry {7}{0}{1}{184/184}{}{0}}}
\@writefile{nav}{\headcommand {\beamer@framepages {184}{184}}}
\pbs@newkey{pbs@last@page}{370}
\pbs@newkey{pbs@last@page}{371}
\pbs@newkey{pbs@last@page}{372}
\pbs@newkey{pbs@last@page}{373}
\pbs@newkey{pbs@last@page}{374}
\pbs@newkey{pbs@last@page}{375}
\pbs@newkey{pbs@last@page}{376}
\pbs@newkey{pbs@last@page}{377}
\pbs@newkey{pbs@last@page}{378}
\pbs@newkey{pbs@last@page}{379}
\@writefile{nav}{\headcommand {\slideentry {7}{0}{2}{185/189}{}{0}}}
\@writefile{nav}{\headcommand {\beamer@framepages {185}{189}}}
\pbs@newkey{pbs@last@page}{380}
\pbs@newkey{pbs@last@page}{381}
\@writefile{toc}{\beamer@sectionintoc {8}{Future Work}{190}{0}{8}}
\@writefile{nav}{\headcommand {\beamer@sectionpages {184}{189}}}
\@writefile{nav}{\headcommand {\beamer@subsectionpages {184}{189}}}
\@writefile{nav}{\headcommand {\sectionentry {8}{Future Work}{190}{Future Work}{0}}}
\@writefile{nav}{\headcommand {\slideentry {8}{0}{1}{190/190}{}{0}}}
\@writefile{nav}{\headcommand {\beamer@framepages {190}{190}}}
\pbs@newkey{pbs@last@page}{382}
\pbs@newkey{pbs@last@page}{383}
\pbs@newkey{pbs@last@page}{384}
\pbs@newkey{pbs@last@page}{385}
\pbs@newkey{pbs@last@page}{386}
\pbs@newkey{pbs@last@page}{387}
\pbs@newkey{pbs@last@page}{388}
\pbs@newkey{pbs@last@page}{389}
\@writefile{nav}{\headcommand {\slideentry {8}{0}{2}{191/194}{}{0}}}
\@writefile{nav}{\headcommand {\beamer@framepages {191}{194}}}
\pbs@newkey{pbs@last@page}{390}
\pbs@newkey{pbs@last@page}{391}
\@writefile{nav}{\headcommand {\slideentry {8}{0}{3}{195/195}{}{0}}}
\@writefile{nav}{\headcommand {\beamer@framepages {195}{195}}}
\pbs@newkey{pbs@last@page}{392}
\bibstyle{apalike}
\bibdata{lit}
\bibcite{Agerri2013}{\hyperlink {beamerbibAgerri2013}{Agerri et\nobreakspace  {}al., 2013}}
\bibcite{Almeida2015}{\hyperlink {beamerbibAlmeida2015}{Almeida et\nobreakspace  {}al., 2015}}
\bibcite{Artetxe2016}{\hyperlink {beamerbibArtetxe2016}{Artetxe et\nobreakspace  {}al., 2016}}
\pbs@newkey{pbs@last@page}{393}
\@writefile{toc}{\beamer@sectionintoc {9}{Bonus slides}{196}{0}{9}}
\@writefile{nav}{\headcommand {\beamer@sectionpages {190}{195}}}
\@writefile{nav}{\headcommand {\beamer@subsectionpages {190}{195}}}
\@writefile{nav}{\headcommand {\sectionentry {9}{Bonus slides}{196}{Bonus slides}{0}}}
\@writefile{nav}{\headcommand {\slideentry {9}{0}{1}{196/196}{}{0}}}
\@writefile{nav}{\headcommand {\beamer@framepages {196}{196}}}
\bibcite{Artetxe2017}{\hyperlink {beamerbibArtetxe2017}{Artetxe et\nobreakspace  {}al., 2017}}
\bibcite{bakliwal2013}{\hyperlink {beamerbibbakliwal2013}{Bakliwal et\nobreakspace  {}al., 2013}}
\pbs@newkey{pbs@last@page}{394}
\bibcite{Balahur2014d}{\hyperlink {beamerbibBalahur2014d}{Balahur and Turchi, 2014}}
\bibcite{Banea2008}{\hyperlink {beamerbibBanea2008}{Banea et\nobreakspace  {}al., 2008}}
\bibcite{Barnes2016}{\hyperlink {beamerbibBarnes2016}{Barnes et\nobreakspace  {}al., 2016}}
\pbs@newkey{pbs@last@page}{395}
\bibcite{Barnes2018a}{\hyperlink {beamerbibBarnes2018a}{Barnes et\nobreakspace  {}al., 2018}}
\bibcite{Blitzer2006}{\hyperlink {beamerbibBlitzer2006}{Blitzer et\nobreakspace  {}al., 2006}}
\pbs@newkey{pbs@last@page}{396}
\bibcite{Chandar2014}{\hyperlink {beamerbibChandar2014}{Chandar et\nobreakspace  {}al., 2014}}
\bibcite{Chen2012}{\hyperlink {beamerbibChen2012}{Chen et\nobreakspace  {}al., 2012}}
\pbs@newkey{pbs@last@page}{397}
\bibcite{Chen2016}{\hyperlink {beamerbibChen2016}{Chen et\nobreakspace  {}al., 2016}}
\bibcite{Demirtas2013}{\hyperlink {beamerbibDemirtas2013}{Demirtas and Pechenizkiy, 2013}}
\bibcite{Santos2014}{\hyperlink {beamerbibSantos2014}{dos Santos and Gatti, 2014}}
\pbs@newkey{pbs@last@page}{398}
\bibcite{Duh2011a}{\hyperlink {beamerbibDuh2011a}{Duh et\nobreakspace  {}al., 2011}}
\bibcite{Gouws2015}{\hyperlink {beamerbibGouws2015}{Gouws et\nobreakspace  {}al., 2015}}
\pbs@newkey{pbs@last@page}{399}
\bibcite{Gouws2015taskspecific}{\hyperlink {beamerbibGouws2015taskspecific}{Gouws and S{\o }gaard, 2015}}
\bibcite{hartung-EtAl:2017:WASSA2017}{\hyperlink {beamerbibhartung-EtAl:2017:WASSA2017}{Hartung et\nobreakspace  {}al., 2017}}
\bibcite{Kim2014}{\hyperlink {beamerbibKim2014}{Kim, 2014}}
\pbs@newkey{pbs@last@page}{400}
\bibcite{Klinger2014a}{\hyperlink {beamerbibKlinger2014a}{Klinger and Cimiano, 2014}}
\bibcite{Klinger2015}{\hyperlink {beamerbibKlinger2015}{Klinger and Cimiano, 2015}}
\pbs@newkey{pbs@last@page}{401}
\bibcite{Lambert2015}{\hyperlink {beamerbibLambert2015}{Lambert, 2015}}
\bibcite{Lample2017}{\hyperlink {beamerbibLample2017}{Lample et\nobreakspace  {}al., 2018}}
\bibcite{Liu2005}{\hyperlink {beamerbibLiu2005}{Liu et\nobreakspace  {}al., 2005}}
\pbs@newkey{pbs@last@page}{402}
\bibcite{Luong2015}{\hyperlink {beamerbibLuong2015}{Luong et\nobreakspace  {}al., 2015}}
\bibcite{Meng2012}{\hyperlink {beamerbibMeng2012}{Meng et\nobreakspace  {}al., 2012}}
\pbs@newkey{pbs@last@page}{403}
\bibcite{Mihalcea2007}{\hyperlink {beamerbibMihalcea2007}{Mihalcea et\nobreakspace  {}al., 2007}}
\bibcite{Mikolov2013translation}{\hyperlink {beamerbibMikolov2013translation}{Mikolov et\nobreakspace  {}al., 2013}}
\bibcite{Nahar2012}{\hyperlink {beamerbibNahar2012}{Nahar et\nobreakspace  {}al., 2012}}
\pbs@newkey{pbs@last@page}{404}
\bibcite{Pang2002}{\hyperlink {beamerbibPang2002}{Pang et\nobreakspace  {}al., 2002}}
\bibcite{Pontiki2016}{\hyperlink {beamerbibPontiki2016}{Pontiki et\nobreakspace  {}al., 2016}}
\pbs@newkey{pbs@last@page}{405}
\bibcite{Pontiki2014}{\hyperlink {beamerbibPontiki2014}{Pontiki et\nobreakspace  {}al., 2014}}
\bibcite{Rasooli2017}{\hyperlink {beamerbibRasooli2017}{Rasooli et\nobreakspace  {}al., 2017}}
\bibcite{Socher2013b}{\hyperlink {beamerbibSocher2013b}{Socher et\nobreakspace  {}al., 2013}}
\pbs@newkey{pbs@last@page}{406}
\bibcite{Tang2016}{\hyperlink {beamerbibTang2016}{Tang et\nobreakspace  {}al., 2016}}
\bibcite{Turney2002}{\hyperlink {beamerbibTurney2002}{Turney, 2002}}
\bibcite{Vulic2016}{\hyperlink {beamerbibVulic2016}{Vulic and Moens, 2016}}
\pbs@newkey{pbs@last@page}{407}
\bibcite{wang2012demo}{\hyperlink {beamerbibwang2012demo}{Wang et\nobreakspace  {}al., 2012}}
\bibcite{Wiebe2005}{\hyperlink {beamerbibWiebe2005}{Wiebe et\nobreakspace  {}al., 2005}}
\bibcite{Zhang2015}{\hyperlink {beamerbibZhang2015}{Zhang et\nobreakspace  {}al., 2015}}
\pbs@newkey{pbs@last@page}{408}
\bibcite{Ziser2017}{\hyperlink {beamerbibZiser2017}{Ziser and Reichart, 2017}}
\pbs@newkey{pbs@last@page}{409}
\@writefile{nav}{\headcommand {\beamer@partpages {1}{213}}}
\@writefile{nav}{\headcommand {\beamer@subsectionpages {196}{213}}}
\@writefile{nav}{\headcommand {\beamer@sectionpages {196}{213}}}
\@writefile{nav}{\headcommand {\beamer@documentpages {213}}}
\@writefile{nav}{\headcommand {\gdef \inserttotalframenumber {62}}}
