\relax 
\bibstyle{biblatex}
\bibdata{Informe2-blx,/home/jeremy/NS/Keep/Temp/Thesis/Informe2/Informe2}
\citation{biblatex-control}
\@writefile{toc}{\boolfalse {citerequest}\boolfalse {citetracker}\boolfalse {pagetracker}\boolfalse {backtracker}\relax }
\@writefile{lof}{\boolfalse {citerequest}\boolfalse {citetracker}\boolfalse {pagetracker}\boolfalse {backtracker}\relax }
\@writefile{lot}{\boolfalse {citerequest}\boolfalse {citetracker}\boolfalse {pagetracker}\boolfalse {backtracker}\relax }
\select@language{english}
\@writefile{toc}{\defcounter {refsection}{0}\relax }\@writefile{toc}{\select@language{english}}
\@writefile{lof}{\defcounter {refsection}{0}\relax }\@writefile{lof}{\select@language{english}}
\@writefile{lot}{\defcounter {refsection}{0}\relax }\@writefile{lot}{\select@language{english}}
\@writefile{toc}{\defcounter {refsection}{0}\relax }\@writefile{toc}{\contentsline {section}{\numberline {1}Introduction}{1}}
\citation{opinionFinder}
\@writefile{toc}{\defcounter {refsection}{0}\relax }\@writefile{toc}{\contentsline {section}{\numberline {2}Materials}{2}}
\@writefile{toc}{\defcounter {refsection}{0}\relax }\@writefile{toc}{\contentsline {subsection}{\numberline {2.1}Opinion Finder}{2}}
\abx@aux@page{1}{2}
\citation{Agerri2013}
\citation{Koehn2005}
\citation{multiUn}
\citation{PangLee2005}
\@writefile{toc}{\defcounter {refsection}{0}\relax }\@writefile{toc}{\contentsline {subsection}{\numberline {2.2}Corpora}{3}}
\@writefile{toc}{\defcounter {refsection}{0}\relax }\@writefile{toc}{\contentsline {subsubsection}{\numberline {2.2.1}Wikipedia Corpus}{3}}
\@writefile{toc}{\defcounter {refsection}{0}\relax }\@writefile{toc}{\contentsline {subsubsection}{\numberline {2.2.2}Opener Corpus}{3}}
\abx@aux@page{2}{3}
\@writefile{toc}{\defcounter {refsection}{0}\relax }\@writefile{toc}{\contentsline {subsubsection}{\numberline {2.2.3}English Europarl}{3}}
\abx@aux@page{3}{3}
\@writefile{toc}{\defcounter {refsection}{0}\relax }\@writefile{toc}{\contentsline {subsubsection}{\numberline {2.2.4}MultiUN}{3}}
\abx@aux@page{4}{3}
\@writefile{toc}{\defcounter {refsection}{0}\relax }\@writefile{toc}{\contentsline {subsubsection}{\numberline {2.2.5}Sentence Polarity Dataset}{3}}
\abx@aux@page{5}{3}
\@writefile{lot}{\defcounter {refsection}{0}\relax }\@writefile{lot}{\contentsline {table}{\numberline {1}{\ignorespaces Statistics of corpora }}{4}}
\newlabel{stats}{{1}{4}}
\@writefile{toc}{\defcounter {refsection}{0}\relax }\@writefile{toc}{\contentsline {section}{\numberline {3}Quantifying Subjectivity and Polarity}{4}}
\@writefile{lot}{\defcounter {refsection}{0}\relax }\@writefile{lot}{\contentsline {table}{\numberline {2}{\ignorespaces Subjectivity and Polarity Content of Corpora: less subjective to more subjective as you move left to right }}{5}}
\newlabel{subjectivity}{{2}{5}}
\@writefile{toc}{\defcounter {refsection}{0}\relax }\@writefile{toc}{\contentsline {section}{\numberline {4}Creation and Testing of Word Embeddings}{5}}
\@writefile{lot}{\defcounter {refsection}{0}\relax }\@writefile{lot}{\contentsline {table}{\numberline {3}{\ignorespaces Results of Full Corpora}}{6}}
\newlabel{full corpora}{{3}{6}}
\@writefile{toc}{\defcounter {refsection}{0}\relax }\@writefile{toc}{\contentsline {section}{\numberline {5}Ruling Out Corpora Size}{6}}
\@writefile{lot}{\defcounter {refsection}{0}\relax }\@writefile{lot}{\contentsline {table}{\numberline {4}{\ignorespaces Results of 10M word Corpora}}{7}}
\newlabel{table:1}{{4}{7}}
\@writefile{toc}{\defcounter {refsection}{0}\relax }\@writefile{toc}{\contentsline {section}{\numberline {6}Combining Wikipedia and Subjective Corpus}{7}}
\@writefile{lot}{\defcounter {refsection}{0}\relax }\@writefile{lot}{\contentsline {table}{\numberline {5}{\ignorespaces Results of Combined Wikipedia and Subjective Corpora }}{7}}
\newlabel{combined}{{5}{7}}
\@writefile{toc}{\defcounter {refsection}{0}\relax }\@writefile{toc}{\contentsline {section}{\numberline {7}Subjective Wikipedia Corpus}{8}}
\@writefile{lot}{\defcounter {refsection}{0}\relax }\@writefile{lot}{\contentsline {table}{\numberline {6}{\ignorespaces Results of Extracted Subjective Wikipedia Corpora }}{8}}
\newlabel{extracted wikipedia}{{6}{8}}
\@writefile{toc}{\defcounter {refsection}{0}\relax }\@writefile{toc}{\contentsline {section}{\numberline {8}Lexical Overlap between extracted subjectivity training corpus and sentence polarity test set}{8}}
\@writefile{toc}{\defcounter {refsection}{0}\relax }\@writefile{toc}{\contentsline {subsection}{\numberline {8.1}Types of missing words}{9}}
\@writefile{lot}{\defcounter {refsection}{0}\relax }\@writefile{lot}{\contentsline {table}{\numberline {7}{\ignorespaces Lexical diversity scores and overlap with test vocabulary in each training corpus. The \textit  {P} after a corpus denotes it was created using the high-precision algorithm in OpinionFinder, while the \textit  {R} was created with the high-recall algorithm.}}{10}}
\newlabel{Overlap}{{7}{10}}
\@writefile{lot}{\defcounter {refsection}{0}\relax }\@writefile{lot}{\contentsline {table}{\numberline {8}{\ignorespaces Words not found in embeddings trained on full wikipedia (NFIwiki) and the extracted MultiUN corpus P (NFIMultiUN) }}{11}}
\newlabel{Types of missing words}{{8}{11}}
\@writefile{toc}{\defcounter {refsection}{0}\relax }\@writefile{toc}{\contentsline {section}{\numberline {9}Backoff Model}{11}}
\@writefile{lot}{\defcounter {refsection}{0}\relax }\@writefile{lot}{\contentsline {table}{\numberline {9}{\ignorespaces Performance of backoff models }}{11}}
\newlabel{Backoff models}{{9}{11}}
\@writefile{toc}{\defcounter {refsection}{0}\relax }\@writefile{toc}{\contentsline {section}{\numberline {10}Concatenation}{11}}
\@writefile{lot}{\defcounter {refsection}{0}\relax }\@writefile{lot}{\contentsline {table}{\numberline {10}{\ignorespaces Performance of concatenation models }}{12}}
\newlabel{concat models}{{10}{12}}
\@writefile{toc}{\defcounter {refsection}{0}\relax }\@writefile{toc}{\contentsline {section}{\numberline {11}Discussion and Further Research}{13}}
\abx@aux@page{6}{13}
\abx@aux@page{7}{13}
\abx@aux@page{8}{14}
\abx@aux@page{9}{14}
\abx@aux@page{10}{14}
\abx@aux@page{11}{14}
\abx@aux@page{12}{14}
\abx@aux@page{13}{14}
\abx@aux@page{14}{14}
\abx@aux@page{15}{15}
