% $ biblatex auxiliary file $
% $ biblatex version 2.3 $
% Do not modify the above lines!
%
% This is an auxiliary file used by the 'biblatex' package.
% This file may safely be deleted. It will be recreated as
% required.
%
\begingroup
\makeatletter
\@ifundefined{ver@biblatex.sty}
  {\@latex@error
     {Missing 'biblatex' package}
     {The bibliography requires the 'biblatex' package.}
      \aftergroup\endinput}
  {}
\endgroup

\entry{Agerri2013}{article}{}
  \name{author}{4}{}{%
    {{}%
     {Agerri}{A.}%
     {Rodrigo}{R.}%
     {}{}%
     {}{}}%
    {{}%
     {Cuadros}{C.}%
     {Montse}{M.}%
     {}{}%
     {}{}}%
    {{}%
     {Gaines}{G.}%
     {Sean}{S.}%
     {}{}%
     {}{}}%
    {{}%
     {Rigau}{R.}%
     {German}{G.}%
     {}{}%
     {}{}}%
  }
  \strng{namehash}{AR+1}
  \strng{fullhash}{ARCMGSRG1}
  \field{labelyear}{2013}
  \field{sortinit}{A}
  \field{number}{Septiembre}
  \field{pages}{215\bibrangedash 218}
  \field{title}{{OpeNER: Open polarity enhanced named entity recognition.}}
  \field{volume}{51}
  \field{journaltitle}{Sociedad Espa{\~{n}}ola para el Procesamiento del
  Lenguaje Natural}
  \field{year}{2013}
\endentry

\entry{multiUn}{inproceedings}{}
  \name{author}{2}{}{%
    {{}%
     {Eisele}{E.}%
     {Andreas}{A.}%
     {}{}%
     {}{}}%
    {{}%
     {Chen}{C.}%
     {Yu}{Y.}%
     {}{}%
     {}{}}%
  }
  \list{publisher}{1}{%
    {European Language Resources Association (ELRA)}%
  }
  \strng{namehash}{EACY1}
  \strng{fullhash}{EACY1}
  \field{labelyear}{2010}
  \field{sortinit}{E}
  \field{booktitle}{Proceedings of the Seventh conference on International
  Language Resources and Evaluation}
  \field{pages}{2868\bibrangedash 2872}
  \field{title}{MultiUN: A Multilingual Corpus from United Nation Documents}
  \field{month}{05}
  \field{year}{2010}
\endentry

\entry{Iyyer2015}{inproceedings}{}
  \name{author}{4}{}{%
    {{}%
     {Iyyer}{I.}%
     {Mohit}{M.}%
     {}{}%
     {}{}}%
    {{}%
     {Manjunatha}{M.}%
     {Varun}{V.}%
     {}{}%
     {}{}}%
    {{}%
     {Boyd-Graber}{B.-G.}%
     {Jordan}{J.}%
     {}{}%
     {}{}}%
    {{}%
     {Daume~III}{D.~I.}%
     {Hal}{H.}%
     {}{}%
     {}{}}%
  }
  \strng{namehash}{IM+1}
  \strng{fullhash}{IMMVBGJDIH1}
  \field{labelyear}{2015}
  \field{sortinit}{I}
  \field{booktitle}{Proceedings of the 53rd Annual Meeting of the Association
  for Computational Linguistics and the 7th International Joint Conference on
  Natural Language Processing (Volume 1: Long Papers)}
  \field{pages}{1681\bibrangedash 1691}
  \field{title}{Deep unordered composition rivals syntactic methods for text
  classification}
  \list{location}{1}{%
    {Beijing, China}%
  }
  \field{year}{2015}
\endentry

\entry{Koehn2005}{inproceedings}{}
  \name{author}{1}{}{%
    {{}%
     {Koehn}{K.}%
     {Philipp}{P.}%
     {}{}%
     {}{}}%
  }
  \strng{namehash}{KP1}
  \strng{fullhash}{KP1}
  \field{labelyear}{2005}
  \field{sortinit}{K}
  \field{booktitle}{MT Summit}
  \field{title}{Europarl: A parallel corpus for statistical machine
  translation}
  \field{year}{2005}
\endentry

\entry{Mikolov2013word2vec}{article}{}
  \name{author}{4}{}{%
    {{}%
     {Mikolov}{M.}%
     {Tomas}{T.}%
     {}{}%
     {}{}}%
    {{}%
     {Corrado}{C.}%
     {Greg}{G.}%
     {}{}%
     {}{}}%
    {{}%
     {Chen}{C.}%
     {Kai}{K.}%
     {}{}%
     {}{}}%
    {{}%
     {Dean}{D.}%
     {Jeffrey}{J.}%
     {}{}%
     {}{}}%
  }
  \strng{namehash}{MT+1}
  \strng{fullhash}{MTCGCKDJ1}
  \field{labelyear}{2013}
  \field{sortinit}{M}
  \field{pages}{1\bibrangedash 12}
  \field{title}{{Efficient estimation of word representations in vector space}}
  \field{journaltitle}{Proceedings of the International Conference on Learning
  Representations (ICLR 2013)}
  \field{year}{2013}
\endentry

\entry{PangLee2005}{inproceedings}{}
  \name{author}{2}{}{%
    {{}%
     {Pang}{P.}%
     {Bo}{B.}%
     {}{}%
     {}{}}%
    {{}%
     {Lee}{L.}%
     {Lillian}{L.}%
     {}{}%
     {}{}}%
  }
  \strng{namehash}{PBLL1}
  \strng{fullhash}{PBLL1}
  \field{labelyear}{2005}
  \field{sortinit}{P}
  \field{booktitle}{Proceedings of the ACL}
  \field{title}{Seeing stars: Exploiting class relationships for sentiment
  categorization with respect to rating scales}
  \field{year}{2005}
\endentry

\entry{Pennington2014}{article}{}
  \name{author}{3}{}{%
    {{}%
     {Pennington}{P.}%
     {Jeffrey}{J.}%
     {}{}%
     {}{}}%
    {{}%
     {Socher}{S.}%
     {Richard}{R.}%
     {}{}%
     {}{}}%
    {{}%
     {Manning}{M.}%
     {Christopher~D}{C.~D.}%
     {}{}%
     {}{}}%
  }
  \strng{namehash}{PJSRMCD1}
  \strng{fullhash}{PJSRMCD1}
  \field{labelyear}{2014}
  \field{sortinit}{P}
  \field{pages}{1532\bibrangedash 1543}
  \field{title}{{Glove: Global vectors for word representation}}
  \field{journaltitle}{Proceedings of the 2014 Conference on Empirical Methods
  in Natural Language Processing}
  \field{year}{2014}
\endentry

\entry{Socher2013b}{article}{}
  \name{author}{7}{}{%
    {{}%
     {Socher}{S.}%
     {Richard}{R.}%
     {}{}%
     {}{}}%
    {{}%
     {Perelygin}{P.}%
     {Alex}{A.}%
     {}{}%
     {}{}}%
    {{}%
     {Wu}{W.}%
     {Jy}{J.}%
     {}{}%
     {}{}}%
    {{}%
     {Chuang}{C.}%
     {Jason}{J.}%
     {}{}%
     {}{}}%
    {{}%
     {Manning}{M.}%
     {Chris}{C.}%
     {}{}%
     {}{}}%
    {{}%
     {Ng}{N.}%
     {Andrew}{A.}%
     {}{}%
     {}{}}%
    {{}%
     {Potts}{P.}%
     {Chris}{C.}%
     {}{}%
     {}{}}%
  }
  \strng{namehash}{SR+1}
  \strng{fullhash}{SRPAWJCJMCNAPC1}
  \field{labelyear}{2013}
  \field{sortinit}{S}
  \field{pages}{1631\bibrangedash 1642}
  \field{title}{{Recursive deep models for semantic compositionality over a
  sentiment treebank}}
  \field{journaltitle}{Proceedings of the EMNLP 2013}
  \field{year}{2013}
\endentry

\entry{Tang2014}{article}{}
  \name{author}{6}{}{%
    {{}%
     {Tang}{T.}%
     {D.}{D.}%
     {}{}%
     {}{}}%
    {{}%
     {Wei}{W.}%
     {F.}{F.}%
     {}{}%
     {}{}}%
    {{}%
     {Yang}{Y.}%
     {N.}{N.}%
     {}{}%
     {}{}}%
    {{}%
     {Zhou}{Z.}%
     {M.}{M.}%
     {}{}%
     {}{}}%
    {{}%
     {Liu}{L.}%
     {T.}{T.}%
     {}{}%
     {}{}}%
    {{}%
     {Qin}{Q.}%
     {B.}{B.}%
     {}{}%
     {}{}}%
  }
  \strng{namehash}{TD+1}
  \strng{fullhash}{TDWFYNZMLTQB1}
  \field{labelyear}{2014}
  \field{sortinit}{T}
  \field{pages}{1555\bibrangedash 1565}
  \field{title}{{Learning sentiment-specific word embedding for twitter
  sentiment classification}}
  \field{journaltitle}{Proceedings of the 52nd Annual Meeting of the
  Association for Computational Linguistics}
  \field{year}{2014}
\endentry

\entry{opinionFinder}{inproceedings}{}
  \name{author}{9}{}{%
    {{}%
     {Wilson}{W.}%
     {Theresa}{T.}%
     {}{}%
     {}{}}%
    {{}%
     {Hoffman}{H.}%
     {Paul}{P.}%
     {}{}%
     {}{}}%
    {{}%
     {Somasundaran}{S.}%
     {Swapna}{S.}%
     {}{}%
     {}{}}%
    {{}%
     {Kessler}{K.}%
     {Jason}{J.}%
     {}{}%
     {}{}}%
    {{}%
     {Wiebe}{W.}%
     {Janice}{J.}%
     {}{}%
     {}{}}%
    {{}%
     {Choi}{C.}%
     {Yejin}{Y.}%
     {}{}%
     {}{}}%
    {{}%
     {Cardie}{C.}%
     {Claire}{C.}%
     {}{}%
     {}{}}%
    {{}%
     {Riloff}{R.}%
     {Ellen}{E.}%
     {}{}%
     {}{}}%
    {{}%
     {Patwardhan}{P.}%
     {Siddharth}{S.}%
     {}{}%
     {}{}}%
  }
  \strng{namehash}{WT+1}
  \strng{fullhash}{WTHPSSKJWJCYCCREPS1}
  \field{labelyear}{2005}
  \field{sortinit}{W}
  \field{booktitle}{Proceedings of the Conference on Human Language Technology
  and Empirical Methods in Natural Language Processing (HLT-EMNLP) on
  Interactive Demonstrations}
  \field{pages}{34\bibrangedash 35}
  \field{title}{OpinionFinder: A system for subjectivity analysis}
  \field{year}{2005}
\endentry

\lossort
\endlossort

\endinput
