\relax 
\abx@aux@sortscheme{nyt}
\abx@aux@cite{Klinger2015}
\abx@aux@cite{Klinger2013}
\abx@aux@cite{Saenger2016}
\abx@aux@cite{Klinger2016}
\abx@aux@cite{Koeper2016a}
\abx@aux@cite{Koeper2016c}
\@writefile{toc}{\boolfalse {citerequest}\boolfalse {citetracker}\boolfalse {pagetracker}\boolfalse {backtracker}\relax }
\@writefile{lof}{\boolfalse {citerequest}\boolfalse {citetracker}\boolfalse {pagetracker}\boolfalse {backtracker}\relax }
\@writefile{lot}{\boolfalse {citerequest}\boolfalse {citetracker}\boolfalse {pagetracker}\boolfalse {backtracker}\relax }
\abx@aux@page{1}{1}
\abx@aux@page{2}{1}
\abx@aux@page{3}{1}
\abx@aux@page{4}{1}
\abx@aux@page{5}{1}
\abx@aux@page{6}{1}
\abx@aux@page{7}{2}
\abx@aux@page{8}{2}
\abx@aux@page{9}{2}
\abx@aux@page{10}{2}
\abx@aux@page{11}{2}
\abx@aux@page{12}{2}
\@mlabel{}{\unhbox \voidb@x \ignorespaces \par \\}
