% $ biblatex auxiliary file $
% $ biblatex bbl format version 2.3 $
% Do not modify the above lines!
%
% This is an auxiliary file used by the 'biblatex' package.
% This file may safely be deleted. It will be recreated by
% biber as required.
%
\begingroup
\makeatletter
\@ifundefined{ver@biblatex.sty}
  {\@latex@error
     {Missing 'biblatex' package}
     {The bibliography requires the 'biblatex' package.}
      \aftergroup\endinput}
  {}
\endgroup


\refsection{0}
  \sortlist{entry}{nyt}
    \entry{Klinger2013}{inproceedings}{}
      \name{labelname}{2}{}{%
        {{uniquename=0,hash=2c2bc9b064a660f5bab9807cc78239f3}{Klinger}{K\bibinitperiod}{Roman}{R\bibinitperiod}{}{}{}{}}%
        {{uniquename=0,hash=42843da8f88197b42fb1e9df5f0ad5d5}{Cimiano}{C\bibinitperiod}{Philipp}{P\bibinitperiod}{}{}{}{}}%
      }
      \name{author}{2}{}{%
        {{uniquename=0,hash=2c2bc9b064a660f5bab9807cc78239f3}{Klinger}{K\bibinitperiod}{Roman}{R\bibinitperiod}{}{}{}{}}%
        {{uniquename=0,hash=42843da8f88197b42fb1e9df5f0ad5d5}{Cimiano}{C\bibinitperiod}{Philipp}{P\bibinitperiod}{}{}{}{}}%
      }
      \strng{namehash}{025e517842972e939de3e1a5a54d6d8b}
      \strng{fullhash}{025e517842972e939de3e1a5a54d6d8b}
      \field{sortinit}{K}
      \field{labelyear}{2013}
      \field{labelmonth}{12}
      \field{datelabelsource}{}
      \field{labeltitle}{Joint and Pipeline Probabilistic Models for Fine-Grained Sentiment Analysis: Extracting Aspects, Subjective Phrases and their Relations}
      \field{booktitle}{2013 IEEE 13th International Conference on Data Mining Workshops (ICDMW)}
      \field{month}{12}
      \field{title}{Joint and Pipeline Probabilistic Models for Fine-Grained Sentiment Analysis: Extracting Aspects, Subjective Phrases and their Relations}
      \field{year}{2013}
      \field{pages}{937\bibrangedash 944}
    \endentry
    \entry{Klinger2015}{inproceedings}{}
      \name{labelname}{2}{}{%
        {{uniquename=0,hash=2c2bc9b064a660f5bab9807cc78239f3}{Klinger}{K\bibinitperiod}{Roman}{R\bibinitperiod}{}{}{}{}}%
        {{uniquename=0,hash=42843da8f88197b42fb1e9df5f0ad5d5}{Cimiano}{C\bibinitperiod}{Philipp}{P\bibinitperiod}{}{}{}{}}%
      }
      \name{author}{2}{}{%
        {{uniquename=0,hash=2c2bc9b064a660f5bab9807cc78239f3}{Klinger}{K\bibinitperiod}{Roman}{R\bibinitperiod}{}{}{}{}}%
        {{uniquename=0,hash=42843da8f88197b42fb1e9df5f0ad5d5}{Cimiano}{C\bibinitperiod}{Philipp}{P\bibinitperiod}{}{}{}{}}%
      }
      \list{location}{1}{%
        {Beijing, China}%
      }
      \list{publisher}{1}{%
        {Association for Computational Linguistics}%
      }
      \strng{namehash}{025e517842972e939de3e1a5a54d6d8b}
      \strng{fullhash}{025e517842972e939de3e1a5a54d6d8b}
      \field{sortinit}{K}
      \field{labelyear}{2015}
      \field{labelmonth}{07}
      \field{datelabelsource}{}
      \field{labeltitle}{Instance selection improves cross-lingual model training for fine-grained sentiment analysis}
      \field{booktitle}{Proceedings of the Nineteenth Conference on Computational Natural Language Learning}
      \field{month}{07}
      \field{title}{Instance selection improves cross-lingual model training for fine-grained sentiment analysis}
      \field{year}{2015}
      \field{pages}{153\bibrangedash 163}
    \endentry
    \entry{Klinger2016}{inproceedings}{}
      \name{labelname}{3}{}{%
        {{uniquename=0,hash=2c2bc9b064a660f5bab9807cc78239f3}{Klinger}{K\bibinitperiod}{Roman}{R\bibinitperiod}{}{}{}{}}%
        {{uniquename=0,hash=6610ebaf81a15878cbd3680f7fe92c7a}{Suliya}{S\bibinitperiod}{Surayya\bibnamedelima Samat}{S\bibinitperiod\bibinitdelim S\bibinitperiod}{}{}{}{}}%
        {{uniquename=0,hash=0ed5caa35a787be411d95ff5b1413527}{Reiter}{R\bibinitperiod}{Nils}{N\bibinitperiod}{}{}{}{}}%
      }
      \name{author}{3}{}{%
        {{uniquename=0,hash=2c2bc9b064a660f5bab9807cc78239f3}{Klinger}{K\bibinitperiod}{Roman}{R\bibinitperiod}{}{}{}{}}%
        {{uniquename=0,hash=6610ebaf81a15878cbd3680f7fe92c7a}{Suliya}{S\bibinitperiod}{Surayya\bibnamedelima Samat}{S\bibinitperiod\bibinitdelim S\bibinitperiod}{}{}{}{}}%
        {{uniquename=0,hash=0ed5caa35a787be411d95ff5b1413527}{Reiter}{R\bibinitperiod}{Nils}{N\bibinitperiod}{}{}{}{}}%
      }
      \list{location}{1}{%
        {Krak\'ow, Poland}%
      }
      \strng{namehash}{90713efa1c3fefd7d156537903d8bd3d}
      \strng{fullhash}{b78ccd0df33932c5e77f638f7356f351}
      \field{sortinit}{K}
      \field{labelyear}{2016}
      \field{labelmonth}{07}
      \field{datelabelsource}{}
      \field{labeltitle}{{Automatic Emotion Detection for Quantitative Literary Studies -- A case study based on Franz Kafka's ``Das Schloss'' and ``Amerika''}}
      \field{booktitle}{Digital Humanities 2016: Conference Abstracts}
      \field{month}{07}
      \field{title}{{Automatic Emotion Detection for Quantitative Literary Studies -- A case study based on Franz Kafka's ``Das Schloss'' and ``Amerika''}}
      \field{year}{2016}
      \field{pages}{826\bibrangedash 828}
    \endentry
    \entry{Koeper2016a}{inproceedings}{}
      \name{labelname}{2}{}{%
        {{uniquename=0,hash=857f0672b6ae4e77c9c4451095021720}{K\"oper}{K\bibinitperiod}{Maximilian}{M\bibinitperiod}{}{}{}{}}%
        {{uniquename=0,hash=3621eb5b59293ebea487e14e05575543}{{Schulte\bibnamedelimb im\bibnamedelimb Walde}}{S\bibinitperiod}{Sabine}{S\bibinitperiod}{}{}{}{}}%
      }
      \name{author}{2}{}{%
        {{uniquename=0,hash=857f0672b6ae4e77c9c4451095021720}{K\"oper}{K\bibinitperiod}{Maximilian}{M\bibinitperiod}{}{}{}{}}%
        {{uniquename=0,hash=3621eb5b59293ebea487e14e05575543}{{Schulte\bibnamedelimb im\bibnamedelimb Walde}}{S\bibinitperiod}{Sabine}{S\bibinitperiod}{}{}{}{}}%
      }
      \list{location}{1}{%
        {Portoroz, Slovenia}%
      }
      \strng{namehash}{e1e08757874ecdd862aff51ed49d08b4}
      \strng{fullhash}{e1e08757874ecdd862aff51ed49d08b4}
      \field{sortinit}{K}
      \field{labelyear}{2016}
      \field{datelabelsource}{}
      \field{labeltitle}{Automatically Generated Affective Norms of Abstractness, Arousal, Imageability and Valence for 350 000 German Lemmas}
      \field{booktitle}{Proceedings of the 10th International Conference on Language Resources and Evaluation}
      \field{title}{Automatically Generated Affective Norms of Abstractness, Arousal, Imageability and Valence for 350 000 German Lemmas}
      \field{year}{2016}
      \field{pages}{2595\bibrangedash 2598}
    \endentry
    \entry{Koeper2016c}{inproceedings}{}
      \name{labelname}{2}{}{%
        {{uniquename=0,hash=b0293ea3eb0f9f17150b43e11a62a881}{K\"{o}per}{K\bibinitperiod}{Maximilian}{M\bibinitperiod}{}{}{}{}}%
        {{uniquename=0,hash=3621eb5b59293ebea487e14e05575543}{{Schulte\bibnamedelimb im\bibnamedelimb Walde}}{S\bibinitperiod}{Sabine}{S\bibinitperiod}{}{}{}{}}%
      }
      \name{author}{2}{}{%
        {{uniquename=0,hash=b0293ea3eb0f9f17150b43e11a62a881}{K\"{o}per}{K\bibinitperiod}{Maximilian}{M\bibinitperiod}{}{}{}{}}%
        {{uniquename=0,hash=3621eb5b59293ebea487e14e05575543}{{Schulte\bibnamedelimb im\bibnamedelimb Walde}}{S\bibinitperiod}{Sabine}{S\bibinitperiod}{}{}{}{}}%
      }
      \list{location}{1}{%
        {San Diego, California}%
      }
      \strng{namehash}{8c92d39a00e25a0ffa716551ac07c11b}
      \strng{fullhash}{8c92d39a00e25a0ffa716551ac07c11b}
      \field{sortinit}{K}
      \field{labelyear}{2016}
      \field{datelabelsource}{}
      \field{labeltitle}{Distinguishing Literal and Non-Literal Usage of German Particle Verbs}
      \field{booktitle}{Proceedings of the Conference of the North American Chapter of the Association for Computational Linguistics: Human Language Technologies}
      \field{title}{Distinguishing Literal and Non-Literal Usage of German Particle Verbs}
      \field{year}{2016}
      \field{pages}{353\bibrangedash 362}
    \endentry
    \entry{Saenger2016}{inproceedings}{}
      \name{labelname}{5}{}{%
        {{uniquename=0,hash=65e6501c174d28ca41ab72577a7cfc2a}{S\"{a}nger}{S\bibinitperiod}{Mario}{M\bibinitperiod}{}{}{}{}}%
        {{uniquename=0,hash=1ba0d09c0fef4885d8803bd079d6225d}{Leser}{L\bibinitperiod}{Ulf}{U\bibinitperiod}{}{}{}{}}%
        {{uniquename=0,hash=880e9fae286e072083ed3180552a7ad3}{Kemmerer}{K\bibinitperiod}{Steffen}{S\bibinitperiod}{}{}{}{}}%
        {{uniquename=0,hash=b2c67de2816c899455e75b104ed19155}{Adolphs}{A\bibinitperiod}{Peter}{P\bibinitperiod}{}{}{}{}}%
        {{uniquename=0,hash=2c2bc9b064a660f5bab9807cc78239f3}{Klinger}{K\bibinitperiod}{Roman}{R\bibinitperiod}{}{}{}{}}%
      }
      \name{author}{5}{}{%
        {{uniquename=0,hash=65e6501c174d28ca41ab72577a7cfc2a}{S\"{a}nger}{S\bibinitperiod}{Mario}{M\bibinitperiod}{}{}{}{}}%
        {{uniquename=0,hash=1ba0d09c0fef4885d8803bd079d6225d}{Leser}{L\bibinitperiod}{Ulf}{U\bibinitperiod}{}{}{}{}}%
        {{uniquename=0,hash=880e9fae286e072083ed3180552a7ad3}{Kemmerer}{K\bibinitperiod}{Steffen}{S\bibinitperiod}{}{}{}{}}%
        {{uniquename=0,hash=b2c67de2816c899455e75b104ed19155}{Adolphs}{A\bibinitperiod}{Peter}{P\bibinitperiod}{}{}{}{}}%
        {{uniquename=0,hash=2c2bc9b064a660f5bab9807cc78239f3}{Klinger}{K\bibinitperiod}{Roman}{R\bibinitperiod}{}{}{}{}}%
      }
      \name{editor}{9}{}{%
        {{hash=4787e03a748ac4658ce266650647c5b2}{Chair)}{C\bibinitperiod}{Nicoletta\bibnamedelimb Calzolari\bibnamedelima (Conference}{N\bibinitperiod\bibinitdelim C\bibinitperiod\bibinitdelim (\bibinitperiod}{}{}{}{}}%
        {{hash=39867e26feb655084bcaa95ee00ad1b3}{Choukri}{C\bibinitperiod}{Khalid}{K\bibinitperiod}{}{}{}{}}%
        {{hash=aa314aaff9cde7c75dd1dbefb7df9aee}{Declerck}{D\bibinitperiod}{Thierry}{T\bibinitperiod}{}{}{}{}}%
        {{hash=3bd5bf87c9e390a1d8f33dd98ef52b98}{Grobelnik}{G\bibinitperiod}{Marko}{M\bibinitperiod}{}{}{}{}}%
        {{hash=f89d93ac385cd2c8048bd80b6bec272c}{Maegaard}{M\bibinitperiod}{Bente}{B\bibinitperiod}{}{}{}{}}%
        {{hash=bdf0b8f2adba0ed452d8c7a080e79edb}{Mariani}{M\bibinitperiod}{Joseph}{J\bibinitperiod}{}{}{}{}}%
        {{hash=bfec001866fc980a5a370b3f8f617c1d}{Moreno}{M\bibinitperiod}{Asuncion}{A\bibinitperiod}{}{}{}{}}%
        {{hash=663e887ebca3a6dfcd35d2bbf8163b42}{Odijk}{O\bibinitperiod}{Jan}{J\bibinitperiod}{}{}{}{}}%
        {{hash=9d79dd4fb50589491e453c48e1d3c56a}{Piperidis}{P\bibinitperiod}{Stelios}{S\bibinitperiod}{}{}{}{}}%
      }
      \list{location}{1}{%
        {Paris, France}%
      }
      \strng{namehash}{5323dbd3179bcf26fa9c4e68385d95c5}
      \strng{fullhash}{a6cbee6aedbd4483a5821f47bcaa7329}
      \field{sortinit}{S}
      \field{labelyear}{2016}
      \field{labelmonth}{05}
      \field{datelabelsource}{}
      \field{labeltitle}{{SCARE - The Sentiment Corpus of App Reviews with Fine-grained Annotations in German}}
      \field{booktitle}{Proceedings of the Tenth International Conference on Language Resources and Evaluation (LREC 2016)}
      \field{month}{05}
      \field{title}{{SCARE - The Sentiment Corpus of App Reviews with Fine-grained Annotations in German}}
      \field{year}{2016}
    \endentry
  \endsortlist
\endrefsection
\endinput

