\relax 
\bibstyle{biblatex}
\bibdata{Informe-blx,/home/jeremy/Documentos/Thesis/Informe/Informe}
\citation{biblatex-control}
\citation{Mikolov2013d}
\@writefile{toc}{\boolfalse {citerequest}\boolfalse {citetracker}\boolfalse {pagetracker}\boolfalse {backtracker}\relax }
\@writefile{lof}{\boolfalse {citerequest}\boolfalse {citetracker}\boolfalse {pagetracker}\boolfalse {backtracker}\relax }
\@writefile{lot}{\boolfalse {citerequest}\boolfalse {citetracker}\boolfalse {pagetracker}\boolfalse {backtracker}\relax }
\select@language{english}
\@writefile{toc}{\defcounter {refsection}{0}\relax }\@writefile{toc}{\select@language{english}}
\@writefile{lof}{\defcounter {refsection}{0}\relax }\@writefile{lof}{\select@language{english}}
\@writefile{lot}{\defcounter {refsection}{0}\relax }\@writefile{lot}{\select@language{english}}
\citation{Loper2002}
\citation{Padro2010}
\citation{Mikolov2013d}
\citation{Mikolov2013}
\citation{rehurek_lrec}
\@writefile{toc}{\defcounter {refsection}{0}\relax }\@writefile{toc}{\contentsline {section}{\numberline {1}Introduction}{2}}
\abx@aux@page{1}{2}
\citation{Agerri2013}
\@writefile{toc}{\defcounter {refsection}{0}\relax }\@writefile{toc}{\contentsline {section}{\numberline {2}Experiments}{3}}
\@writefile{toc}{\defcounter {refsection}{0}\relax }\@writefile{toc}{\contentsline {subsection}{\numberline {2.1}Data Sets}{3}}
\abx@aux@page{2}{3}
\abx@aux@page{3}{3}
\abx@aux@page{4}{3}
\abx@aux@page{5}{3}
\abx@aux@page{6}{3}
\abx@aux@page{7}{3}
\@writefile{lot}{\defcounter {refsection}{0}\relax }\@writefile{lot}{\contentsline {table}{\numberline {1}{\ignorespaces Statistics of Wikipedia Corpora}}{3}}
\newlabel{table:1}{{1}{3}}
\@writefile{lot}{\defcounter {refsection}{0}\relax }\@writefile{lot}{\contentsline {table}{\numberline {2}{\ignorespaces Statistics of OpeNER Corpora}}{4}}
\newlabel{table:2}{{2}{4}}
\@writefile{toc}{\defcounter {refsection}{0}\relax }\@writefile{toc}{\contentsline {subsection}{\numberline {2.2}Experiment 1}{4}}
\@writefile{toc}{\defcounter {refsection}{0}\relax }\@writefile{toc}{\contentsline {subsubsection}{\numberline {2.2.1}Experimental Layout}{4}}
\citation{Kingma2014a}
\@writefile{lof}{\defcounter {refsection}{0}\relax }\@writefile{lof}{\contentsline {figure}{\numberline {1}{\ignorespaces Loss and validation loss during the training of the translation matrix}}{5}}
\newlabel{fig:1}{{1}{5}}
\citation{Mikolov2013d}
\abx@aux@page{8}{6}
\@writefile{lot}{\defcounter {refsection}{0}\relax }\@writefile{lot}{\contentsline {table}{\numberline {3}{\ignorespaces Accuracy of the 3 classifiers during the first experiment}}{6}}
\newlabel{table:3}{{3}{6}}
\@writefile{lot}{\defcounter {refsection}{0}\relax }\@writefile{lot}{\contentsline {table}{\numberline {4}{\ignorespaces Precision, Recall and F1 of English and cross-lingual classifiers}}{6}}
\newlabel{table:4}{{4}{6}}
\citation{Mikolov2013d}
\abx@aux@page{9}{7}
\@writefile{toc}{\defcounter {refsection}{0}\relax }\@writefile{toc}{\contentsline {subsubsection}{\numberline {2.2.2}Discussion of First Results}{7}}
\abx@aux@page{10}{7}
\citation{Mikolov2013}
\@writefile{toc}{\defcounter {refsection}{0}\relax }\@writefile{toc}{\contentsline {subsection}{\numberline {2.3}Experiment 2}{8}}
\abx@aux@page{11}{8}
\@writefile{lot}{\defcounter {refsection}{0}\relax }\@writefile{lot}{\contentsline {table}{\numberline {5}{\ignorespaces Results of Experiment 2: Spanish OpeNER dataset \IeC {\textendash } 4 class}}{8}}
\newlabel{table:5}{{5}{8}}
\@writefile{lof}{\defcounter {refsection}{0}\relax }\@writefile{lof}{\contentsline {figure}{\numberline {2}{\ignorespaces Cosine distance plotted as a function of training examples}}{9}}
\newlabel{fig:2}{{2}{9}}
\@writefile{toc}{\defcounter {refsection}{0}\relax }\@writefile{toc}{\contentsline {subsection}{\numberline {2.4}Experiment 3}{9}}
\@writefile{toc}{\defcounter {refsection}{0}\relax }\@writefile{toc}{\contentsline {subsection}{\numberline {2.5}Experiment 4}{9}}
\citation{Irsoy2014a}
\citation{Mikolov2013d}
\citation{Kingma2014a}
\@writefile{lot}{\defcounter {refsection}{0}\relax }\@writefile{lot}{\contentsline {table}{\numberline {6}{\ignorespaces Results of Experiment 3: using average of vectors instead of sum of vectors}}{10}}
\newlabel{table:6}{{6}{10}}
\abx@aux@page{12}{10}
\citation{Mikolov2013d}
\citation{Mikolov2013d}
\@writefile{lot}{\defcounter {refsection}{0}\relax }\@writefile{lot}{\contentsline {table}{\numberline {7}{\ignorespaces Results of experiment 4 \IeC {\textendash } 2 layer LSTM}}{11}}
\newlabel{table:7}{{7}{11}}
\@writefile{toc}{\defcounter {refsection}{0}\relax }\@writefile{toc}{\contentsline {subsection}{\numberline {2.6}Experiment 5}{11}}
\abx@aux@page{13}{11}
\abx@aux@page{14}{11}
\@writefile{lot}{\defcounter {refsection}{0}\relax }\@writefile{lot}{\contentsline {table}{\numberline {8}{\ignorespaces Results of experiment 5 - Neural mapping scheme}}{12}}
\newlabel{table:8}{{8}{12}}
\@writefile{toc}{\defcounter {refsection}{0}\relax }\@writefile{toc}{\contentsline {section}{\numberline {3}Discussion and Further Research}{12}}
\abx@aux@page{15}{12}
\abx@aux@page{16}{12}
\citation{Zou2013}
\citation{Klementiev2012b}
\citation{Zhou2014a}
\citation{Zhou2015a}
\abx@aux@page{17}{13}
\abx@aux@page{18}{13}
\abx@aux@page{19}{13}
\abx@aux@page{20}{13}
\abx@aux@page{21}{13}
\abx@aux@page{22}{13}
\abx@aux@page{23}{14}
\abx@aux@page{24}{14}
\abx@aux@page{25}{14}
\abx@aux@page{26}{14}
\abx@aux@page{27}{14}
\abx@aux@page{28}{14}
\abx@aux@page{29}{15}
\abx@aux@page{30}{15}
\abx@aux@page{31}{15}
\abx@aux@page{32}{15}
\abx@aux@page{33}{15}
