\boolfalse {citerequest}\boolfalse {citetracker}\boolfalse {pagetracker}\boolfalse {backtracker}\relax 
\defcounter {refsection}{0}\relax 
\select@language {english}
\defcounter {refsection}{0}\relax 
\contentsline {section}{\numberline {1}Introduction}{3}
\defcounter {refsection}{0}\relax 
\contentsline {section}{\numberline {2}Experiments}{5}
\defcounter {refsection}{0}\relax 
\contentsline {subsection}{\numberline {2.1}Experiment1}{5}
\defcounter {refsection}{0}\relax 
\contentsline {subsubsection}{\numberline {2.1.1}Experimental Layout}{5}
\defcounter {refsection}{0}\relax 
\contentsline {subsubsection}{\numberline {2.1.2}Discussion of First Results}{7}
\defcounter {refsection}{0}\relax 
\contentsline {subsection}{\numberline {2.2}Experiment 2}{8}
\defcounter {refsection}{0}\relax 
\contentsline {subsection}{\numberline {2.3}Experiment 3}{9}
\defcounter {refsection}{0}\relax 
\contentsline {subsection}{\numberline {2.4}Experiment 4}{11}
\defcounter {refsection}{0}\relax 
\contentsline {subsection}{\numberline {2.5}Experiment 5}{12}
\defcounter {refsection}{0}\relax 
\contentsline {section}{\numberline {3}Discussion and Further Research}{12}
