\select@language {english}
\select@language {english}
\select@language {english}
\select@language {english}
\contentsline {chapter}{Index of figures}{xiii}
\contentsline {chapter}{Index of tables}{xv}
\contentsline {section}{\numberline {0.1}Motivation}{1}
\contentsline {section}{\numberline {0.2}Goals of the thesis}{1}
\contentsline {section}{\numberline {0.3}Structure}{1}
\contentsline {section}{\numberline {0.4}Contributions}{1}
\contentsline {chapter}{\numberline {1}{\MakeUppercase { Tools and Resources}}}{3}
\contentsline {section}{\numberline {1.1}Data}{3}
\contentsline {subsection}{\numberline {1.1.1}OpeNER}{3}
\contentsline {section}{\numberline {1.2}Tools}{3}
\contentsline {chapter}{\numberline {2}{\MakeUppercase { Conclusion}}}{5}
