\relax 
\bibstyle{apalike}
\select@language{english}
\@writefile{toc}{\select@language{english}}
\@writefile{lof}{\select@language{english}}
\@writefile{lot}{\select@language{english}}
\select@language{english}
\@writefile{toc}{\select@language{english}}
\@writefile{lof}{\select@language{english}}
\@writefile{lot}{\select@language{english}}
\select@language{english}
\@writefile{toc}{\select@language{english}}
\@writefile{lof}{\select@language{english}}
\@writefile{lot}{\select@language{english}}
\select@language{english}
\@writefile{toc}{\select@language{english}}
\@writefile{lof}{\select@language{english}}
\@writefile{lot}{\select@language{english}}
\@writefile{toc}{\contentsline {chapter}{Index of figures}{xiii}}
\@writefile{toc}{\contentsline {chapter}{Index of tables}{xv}}
\@writefile{toc}{\contentsline {section}{\numberline {0.1}Motivation}{1}}
\@writefile{toc}{\contentsline {section}{\numberline {0.2}Goals of the thesis}{1}}
\@writefile{toc}{\contentsline {section}{\numberline {0.3}Structure}{1}}
\@writefile{toc}{\contentsline {section}{\numberline {0.4}Contributions}{1}}
\citation{Agerri2013}
\@writefile{toc}{\contentsline {chapter}{\numberline {1}{\MakeUppercase  { Tools and Resources}}}{3}}
\@writefile{lof}{\addvspace {10\p@ }}
\@writefile{lot}{\addvspace {10\p@ }}
\@writefile{toc}{\contentsline {section}{\numberline {1.1}Data}{3}}
\@writefile{toc}{\contentsline {subsection}{\numberline {1.1.1}OpeNER}{3}}
\@writefile{toc}{\contentsline {section}{\numberline {1.2}Tools}{3}}
\bibdata{lit}
\@writefile{toc}{\contentsline {chapter}{\numberline {2}{\MakeUppercase  { Conclusion}}}{5}}
\@writefile{lof}{\addvspace {10\p@ }}
\@writefile{lot}{\addvspace {10\p@ }}
\bibcite{Agerri2014}{Agerri et~al., 2014}
\bibcite{Agerri2013}{Agerri et~al., 2013}
\bibcite{Bosma2009}{Bosma et~al., 2009}
\bibcite{Cohen1960}{Cohen, 1960}
\bibcite{Fleiss1971}{Fleiss, 1971}
\bibcite{Fokkens2014}{Fokkens et~al., 2014}
\bibcite{Irsoy2014a}{Irsoy and Cardie, 2014}
\bibcite{Kingma2014a}{Kingma and Ba, 2014}
\bibcite{Loper2002}{Loper and Bird, 2002}
\bibcite{Mikolov2013word2vec}{Mikolov et~al., 2013}
\bibcite{Padro2010}{Padr\'{o} et~al., 2010}
\bibcite{rehurek_lrec}{{\v R}eh{\r u}{\v r}ek and Sojka, 2010}
\bibcite{Wiebe2005}{Wiebe et~al., 2005}
