\relax 
\abx@aux@sortscheme{nyt}
\abx@aux@cite{Banea2013a}
\abx@aux@cite{Wan2009c}
\abx@aux@cite{Klinger2013}
\abx@aux@cite{Balahur2014d}
\abx@aux@cite{Mohammad2015b}
\@writefile{toc}{\boolfalse {citerequest}\boolfalse {citetracker}\boolfalse {pagetracker}\boolfalse {backtracker}\relax }
\@writefile{lof}{\boolfalse {citerequest}\boolfalse {citetracker}\boolfalse {pagetracker}\boolfalse {backtracker}\relax }
\@writefile{lot}{\boolfalse {citerequest}\boolfalse {citetracker}\boolfalse {pagetracker}\boolfalse {backtracker}\relax }
\@writefile{toc}{\defcounter {refsection}{0}\relax }\@writefile{toc}{\contentsline {section}{\numberline {1}Motivation}{1}}
\newlabel{motivation}{{1}{1}}
\abx@aux@page{1}{1}
\abx@aux@page{2}{1}
\abx@aux@page{3}{1}
\abx@aux@cite{Mikolov2013word2vec}
\abx@aux@cite{Pennington2014}
\abx@aux@cite{Tai2015a}
\abx@aux@cite{Kim2014}
\abx@aux@cite{Mikolov2013translation}
\abx@aux@cite{Socher2013zeroshot}
\abx@aux@cite{Koeper2016b}
\abx@aux@cite{Klementiev2012b}
\abx@aux@cite{Zou2013}
\abx@aux@cite{Gouws2015}
\abx@aux@cite{Gouws2015taskspecific}
\abx@aux@cite{Chandar2013}
\abx@aux@cite{Zhou2015}
\abx@aux@cite{Jain2015}
\abx@aux@cite{Faruqui2014}
\abx@aux@cite{Barnes2016}
\abx@aux@page{4}{2}
\abx@aux@page{5}{2}
\abx@aux@page{6}{2}
\abx@aux@page{7}{2}
\abx@aux@page{8}{2}
\abx@aux@page{9}{2}
\abx@aux@page{10}{2}
\abx@aux@page{11}{2}
\abx@aux@page{12}{2}
\abx@aux@page{13}{2}
\abx@aux@page{14}{2}
\abx@aux@page{15}{2}
\abx@aux@page{16}{2}
\abx@aux@page{17}{2}
\abx@aux@page{18}{2}
\abx@aux@page{19}{2}
\abx@aux@cite{Rothe2016}
\abx@aux@page{20}{3}
\abx@aux@page{21}{3}
\abx@aux@page{22}{3}
\abx@aux@page{23}{3}
\@writefile{toc}{\defcounter {refsection}{0}\relax }\@writefile{toc}{\contentsline {section}{\numberline {2}Goals}{3}}
\abx@aux@page{24}{3}
\abx@aux@cite{Madhyastha2016}
\abx@aux@cite{Tang2014}
\abx@aux@cite{Vigliocco2009}
\abx@aux@cite{Skipper2014}
\abx@aux@cite{Turney2011}
\abx@aux@cite{Koeper2016c}
\abx@aux@cite{Koeper2016a}
\abx@aux@page{25}{5}
\abx@aux@page{26}{5}
\abx@aux@page{27}{5}
\abx@aux@page{28}{6}
\abx@aux@page{29}{6}
\abx@aux@page{31}{6}
\abx@aux@page{33}{6}
\abx@aux@page{35}{6}
\@writefile{toc}{\defcounter {refsection}{0}\relax }\@writefile{toc}{\contentsline {section}{\numberline {3}Workplan}{8}}
\@writefile{lof}{\defcounter {refsection}{0}\relax }\@writefile{lof}{\contentsline {figure}{\numberline {1}{\ignorespaces Current Work Plan}}{8}}
\newlabel{work_plan}{{1}{8}}
\@writefile{toc}{\defcounter {refsection}{0}\relax }\@writefile{toc}{\contentsline {section}{\numberline {4}References}{8}}
\abx@aux@page{36}{8}
\abx@aux@page{37}{8}
\abx@aux@page{38}{9}
\abx@aux@page{39}{9}
\abx@aux@page{40}{9}
\abx@aux@page{41}{9}
\abx@aux@page{42}{9}
\abx@aux@page{43}{9}
\abx@aux@page{44}{9}
\abx@aux@page{45}{9}
\abx@aux@page{46}{9}
\abx@aux@page{47}{10}
\abx@aux@page{48}{10}
\abx@aux@page{49}{10}
\abx@aux@page{50}{10}
\abx@aux@page{51}{10}
\abx@aux@page{52}{10}
\abx@aux@page{53}{11}
\abx@aux@page{54}{11}
\abx@aux@page{55}{11}
\abx@aux@page{56}{11}
\abx@aux@page{57}{11}
\abx@aux@page{58}{11}
\abx@aux@page{59}{11}
\abx@aux@page{60}{11}
\abx@aux@page{61}{12}
\abx@aux@page{62}{12}
\abx@aux@page{63}{12}
\abx@aux@page{64}{12}
