[0] Config.pm:318> INFO - This is Biber 1.8
[0] Config.pm:321> INFO - Logfile is 'ThesisProposal.blg'
[43] biber:275> INFO - === jue mar  3, 2016, 20:37:55
[43] Biber.pm:333> INFO - Reading 'ThesisProposal.bcf'
[86] Biber.pm:630> INFO - Found 27 citekeys in bib section 0
[97] Biber.pm:3053> INFO - Processing section 0
[108] Biber.pm:3190> INFO - Looking for bibtex format file 'ThesisProposal.bib' for section 0
[115] bibtex.pm:933> INFO - Decoding LaTeX character macros into UTF-8
[128] bibtex.pm:808> INFO - Found BibTeX data source 'ThesisProposal.bib'
[166] Utils.pm:169> WARN - BibTeX subsystem: /tmp/dZcoxuCJ2w/ThesisProposal.bib_14974.utf8, line 21, warning: possible runaway string started at line 3
[263] Biber.pm:2939> INFO - Overriding locale 'en_US.UTF-8' default tailoring 'variable = shifted' with 'variable = non-ignorable'
[263] Biber.pm:2945> INFO - Sorting 'entry' list 'nyt' keys
[263] Biber.pm:2949> INFO - No sort tailoring available for locale 'en_US.UTF-8'
[328] bbl.pm:482> INFO - Writing 'ThesisProposal.bbl' with encoding 'UTF-8'
[334] bbl.pm:555> INFO - Output to ThesisProposal.bbl
[334] Biber.pm:105> INFO - WARNINGS: 1
