\relax 
\abx@aux@sortscheme{nyt}
\@writefile{toc}{\boolfalse {citerequest}\boolfalse {citetracker}\boolfalse {pagetracker}\boolfalse {backtracker}\relax }
\@writefile{lof}{\boolfalse {citerequest}\boolfalse {citetracker}\boolfalse {pagetracker}\boolfalse {backtracker}\relax }
\@writefile{lot}{\boolfalse {citerequest}\boolfalse {citetracker}\boolfalse {pagetracker}\boolfalse {backtracker}\relax }
\select@language{english}
\@writefile{toc}{\defcounter {refsection}{0}\relax }\@writefile{toc}{\select@language{english}}
\@writefile{lof}{\defcounter {refsection}{0}\relax }\@writefile{lof}{\select@language{english}}
\@writefile{lot}{\defcounter {refsection}{0}\relax }\@writefile{lot}{\select@language{english}}
\@writefile{toc}{\defcounter {refsection}{0}\relax }\@writefile{toc}{\contentsline {section}{\numberline {1}Introduction}{3}}
\abx@aux@cite{pang2002thumbs}
\abx@aux@cite{Turney2002}
\abx@aux@cite{Tai2015a}
\@writefile{toc}{\defcounter {refsection}{0}\relax }\@writefile{toc}{\contentsline {section}{\numberline {2}Review of the Literature}{5}}
\@writefile{toc}{\defcounter {refsection}{0}\relax }\@writefile{toc}{\contentsline {subsection}{\numberline {2.1}Sentiment Analysis}{5}}
\abx@aux@page{1}{5}
\abx@aux@page{2}{5}
\abx@aux@cite{Mihalcea2007c}
\abx@aux@page{3}{6}
\@writefile{toc}{\defcounter {refsection}{0}\relax }\@writefile{toc}{\contentsline {subsection}{\numberline {2.2}Cross-lingual Sentiment Analysis}{6}}
\abx@aux@page{4}{6}
\abx@aux@cite{Banea2008d}
\abx@aux@cite{Wiebe2005b}
\abx@aux@cite{Wiebe2005e}
\abx@aux@page{5}{7}
\abx@aux@page{6}{7}
\abx@aux@page{7}{7}
\abx@aux@cite{Wan2009c}
\abx@aux@cite{Balahur2014d}
\abx@aux@cite{Popat2013}
\abx@aux@cite{Balamurali2012}
\abx@aux@cite{Mohammad2015b}
\abx@aux@page{8}{8}
\abx@aux@page{9}{8}
\abx@aux@page{10}{8}
\abx@aux@page{11}{8}
\abx@aux@page{12}{9}
\abx@aux@page{13}{9}
\abx@aux@page{14}{9}
\abx@aux@page{15}{9}
\abx@aux@page{16}{9}
\abx@aux@cite{Bengio2003}
\abx@aux@cite{Mikolov2013word2vec}
\abx@aux@cite{Pennington2014}
\abx@aux@cite{Klementiev2012b}
\@writefile{toc}{\defcounter {refsection}{0}\relax }\@writefile{toc}{\contentsline {subsection}{\numberline {2.3}Neural Distributional Representation of Words}{10}}
\abx@aux@page{17}{10}
\abx@aux@page{18}{10}
\abx@aux@page{19}{10}
\abx@aux@page{20}{10}
\abx@aux@cite{Baroni2014b}
\abx@aux@page{21}{11}
\abx@aux@page{22}{11}
\abx@aux@cite{Mikolov2013translation}
\abx@aux@page{23}{12}
\abx@aux@page{24}{12}
\abx@aux@page{25}{12}
\abx@aux@page{26}{13}
\@writefile{toc}{\defcounter {refsection}{0}\relax }\@writefile{toc}{\contentsline {subsection}{\numberline {2.4}Deep Learning}{13}}
\abx@aux@cite{Socher2013b}
\abx@aux@page{27}{14}
\abx@aux@page{28}{14}
\abx@aux@page{29}{14}
\abx@aux@cite{Zhou2015a}
\abx@aux@page{30}{15}
\abx@aux@page{31}{15}
\abx@aux@cite{Liu2015}
\abx@aux@page{32}{16}
\@writefile{toc}{\defcounter {refsection}{0}\relax }\@writefile{toc}{\contentsline {subsection}{\numberline {2.5}Aspect-level Sentiment Analysis}{16}}
\abx@aux@page{33}{16}
\abx@aux@cite{Lambert2015a}
\abx@aux@cite{Lin2014a}
\abx@aux@page{34}{17}
\abx@aux@page{35}{17}
\abx@aux@page{36}{17}
\@writefile{toc}{\defcounter {refsection}{0}\relax }\@writefile{toc}{\contentsline {section}{\numberline {3}Objectives}{17}}
\@writefile{toc}{\defcounter {refsection}{0}\relax }\@writefile{toc}{\contentsline {subsection}{\numberline {3.1}General Objectives}{18}}
\@writefile{toc}{\defcounter {refsection}{0}\relax }\@writefile{toc}{\contentsline {subsection}{\numberline {3.2}Specific Objectives}{18}}
\@writefile{toc}{\defcounter {refsection}{0}\relax }\@writefile{toc}{\contentsline {section}{\numberline {4}Theoretical Framework}{19}}
\@writefile{toc}{\defcounter {refsection}{0}\relax }\@writefile{toc}{\contentsline {subsection}{\numberline {4.1}Empirical NLP}{19}}
\@writefile{toc}{\defcounter {refsection}{0}\relax }\@writefile{toc}{\contentsline {subsection}{\numberline {4.2}Machine Learning}{19}}
\@writefile{toc}{\defcounter {refsection}{0}\relax }\@writefile{toc}{\contentsline {section}{\numberline {5}Hypotheses}{19}}
\@writefile{toc}{\defcounter {refsection}{0}\relax }\@writefile{toc}{\contentsline {section}{\numberline {6}Research Methodology}{20}}
\@writefile{toc}{\defcounter {refsection}{0}\relax }\@writefile{toc}{\contentsline {subsection}{\numberline {6.1}Adopted Methodology}{20}}
\@writefile{toc}{\defcounter {refsection}{0}\relax }\@writefile{toc}{\contentsline {subparagraph}{Tools}{20}}
\abx@aux@cite{Bosma2009}
\abx@aux@cite{Fokkens2014a}
\abx@aux@page{37}{21}
\abx@aux@page{38}{21}
\abx@aux@cite{padro10b}
\abx@aux@cite{rehurek_lrec}
\abx@aux@page{39}{22}
\abx@aux@page{40}{22}
\abx@aux@page{41}{22}
\abx@aux@page{42}{23}
\abx@aux@page{43}{23}
\abx@aux@page{44}{23}
\@writefile{toc}{\defcounter {refsection}{0}\relax }\@writefile{toc}{\contentsline {section}{\numberline {7}Work Plan}{24}}
\abx@aux@page{45}{24}
\abx@aux@page{46}{24}
\abx@aux@page{47}{24}
\abx@aux@page{48}{24}
\abx@aux@page{49}{25}
\abx@aux@page{50}{25}
\abx@aux@page{51}{25}
\abx@aux@page{52}{25}
\abx@aux@page{53}{25}
\abx@aux@page{54}{25}
\abx@aux@page{55}{25}
\abx@aux@page{56}{25}
\abx@aux@page{57}{26}
\abx@aux@page{58}{26}
\abx@aux@page{59}{26}
\abx@aux@page{60}{26}
\abx@aux@page{61}{26}
\abx@aux@page{62}{26}
\abx@aux@page{63}{26}
\abx@aux@page{64}{26}
\abx@aux@page{65}{27}
\abx@aux@page{66}{27}
\abx@aux@page{67}{27}
\abx@aux@page{68}{27}
\abx@aux@page{69}{27}
\abx@aux@page{70}{27}
\abx@aux@page{71}{27}
