<?xml version="1.0" encoding="UTF-8" standalone="no"?>
<!-- Created with Inkscape (http://www.inkscape.org/) -->

<svg
   xmlns:osb="http://www.openswatchbook.org/uri/2009/osb"
   xmlns:dc="http://purl.org/dc/elements/1.1/"
   xmlns:cc="http://creativecommons.org/ns#"
   xmlns:rdf="http://www.w3.org/1999/02/22-rdf-syntax-ns#"
   xmlns:svg="http://www.w3.org/2000/svg"
   xmlns="http://www.w3.org/2000/svg"
   xmlns:sodipodi="http://sodipodi.sourceforge.net/DTD/sodipodi-0.dtd"
   xmlns:inkscape="http://www.inkscape.org/namespaces/inkscape"
   width="613.25"
   height="373.21875"
   id="svg2"
   version="1.1"
   inkscape:version="0.48.4 r9939"
   sodipodi:docname="drawing.pdf">
  <defs
     id="defs4">
    <marker
       inkscape:stockid="Arrow2Mstart"
       orient="auto"
       refY="0"
       refX="0"
       id="Arrow2Mstart"
       style="overflow:visible">
      <path
         id="path3980"
         style="fill-rule:evenodd;stroke-width:0.625;stroke-linejoin:round"
         d="M 8.7185878,4.0337352 -2.2072895,0.01601326 8.7185884,-4.0017078 c -1.7454984,2.3720609 -1.7354408,5.6174519 -6e-7,8.035443 z"
         transform="scale(0.6,0.6)"
         inkscape:connector-curvature="0" />
    </marker>
    <marker
       inkscape:stockid="Arrow1Mstart"
       orient="auto"
       refY="0"
       refX="0"
       id="Arrow1Mstart"
       style="overflow:visible">
      <path
         id="path3962"
         d="M 0,0 5,-5 -12.5,0 5,5 0,0 z"
         style="fill-rule:evenodd;stroke:#000000;stroke-width:1pt"
         transform="matrix(0.4,0,0,0.4,4,0)"
         inkscape:connector-curvature="0" />
    </marker>
    <marker
       inkscape:stockid="Arrow2Sstart"
       orient="auto"
       refY="0"
       refX="0"
       id="Arrow2Sstart"
       style="overflow:visible">
      <path
         id="path3986"
         style="fill-rule:evenodd;stroke-width:0.625;stroke-linejoin:round"
         d="M 8.7185878,4.0337352 -2.2072895,0.01601326 8.7185884,-4.0017078 c -1.7454984,2.3720609 -1.7354408,5.6174519 -6e-7,8.035443 z"
         transform="matrix(0.3,0,0,0.3,-0.69,0)"
         inkscape:connector-curvature="0" />
    </marker>
    <marker
       inkscape:stockid="Arrow2Lstart"
       orient="auto"
       refY="0"
       refX="0"
       id="Arrow2Lstart"
       style="overflow:visible">
      <path
         id="path3974"
         style="fill-rule:evenodd;stroke-width:0.625;stroke-linejoin:round"
         d="M 8.7185878,4.0337352 -2.2072895,0.01601326 8.7185884,-4.0017078 c -1.7454984,2.3720609 -1.7354408,5.6174519 -6e-7,8.035443 z"
         transform="matrix(1.1,0,0,1.1,1.1,0)"
         inkscape:connector-curvature="0" />
    </marker>
    <marker
       inkscape:stockid="Arrow1Lstart"
       orient="auto"
       refY="0"
       refX="0"
       id="Arrow1Lstart"
       style="overflow:visible">
      <path
         id="path3956"
         d="M 0,0 5,-5 -12.5,0 5,5 0,0 z"
         style="fill-rule:evenodd;stroke:#000000;stroke-width:1pt"
         transform="matrix(0.8,0,0,0.8,10,0)"
         inkscape:connector-curvature="0" />
    </marker>
    <marker
       inkscape:stockid="Arrow2Mend"
       orient="auto"
       refY="0"
       refX="0"
       id="Arrow2Mend"
       style="overflow:visible">
      <path
         id="path3983"
         style="fill-rule:evenodd;stroke-width:0.625;stroke-linejoin:round"
         d="M 8.7185878,4.0337352 -2.2072895,0.01601326 8.7185884,-4.0017078 c -1.7454984,2.3720609 -1.7354408,5.6174519 -6e-7,8.035443 z"
         transform="scale(-0.6,-0.6)"
         inkscape:connector-curvature="0" />
    </marker>
    <marker
       inkscape:stockid="Arrow2Lend"
       orient="auto"
       refY="0"
       refX="0"
       id="Arrow2Lend"
       style="overflow:visible">
      <path
         id="path3977"
         style="fill-rule:evenodd;stroke-width:0.625;stroke-linejoin:round"
         d="M 8.7185878,4.0337352 -2.2072895,0.01601326 8.7185884,-4.0017078 c -1.7454984,2.3720609 -1.7354408,5.6174519 -6e-7,8.035443 z"
         transform="matrix(-1.1,0,0,-1.1,-1.1,0)"
         inkscape:connector-curvature="0" />
    </marker>
    <marker
       inkscape:stockid="Arrow1Lend"
       orient="auto"
       refY="0"
       refX="0"
       id="Arrow1Lend"
       style="overflow:visible">
      <path
         id="path3959"
         d="M 0,0 5,-5 -12.5,0 5,5 0,0 z"
         style="fill-rule:evenodd;stroke:#000000;stroke-width:1pt"
         transform="matrix(-0.8,0,0,-0.8,-10,0)"
         inkscape:connector-curvature="0" />
    </marker>
    <linearGradient
       id="linearGradient5215"
       osb:paint="solid">
      <stop
         style="stop-color:#668000;stop-opacity:1;"
         offset="0"
         id="stop5217" />
    </linearGradient>
    <clipPath
       clipPathUnits="userSpaceOnUse"
       id="clipPath3162">
      <rect
         style="fill:#ffffff;fill-opacity:1;stroke:#ffffff;stroke-width:1.24399996;stroke-linecap:butt;stroke-linejoin:miter;stroke-miterlimit:4;stroke-opacity:1;stroke-dasharray:none;stroke-dashoffset:0"
         id="rect3164"
         width="690"
         height="396"
         x="82"
         y="228.36218"
         ry="1.1792976" />
    </clipPath>
  </defs>
  <sodipodi:namedview
     id="base"
     pagecolor="#ffffff"
     bordercolor="#666666"
     borderopacity="1.0"
     inkscape:pageopacity="0.0"
     inkscape:pageshadow="2"
     inkscape:zoom="0.5"
     inkscape:cx="468.72351"
     inkscape:cy="15.78619"
     inkscape:document-units="px"
     inkscape:current-layer="layer1"
     showgrid="true"
     inkscape:window-width="1301"
     inkscape:window-height="744"
     inkscape:window-x="65"
     inkscape:window-y="24"
     inkscape:window-maximized="1"
     fit-margin-top="0"
     fit-margin-left="0"
     fit-margin-right="0"
     fit-margin-bottom="0" />
  <metadata
     id="metadata7">
    <rdf:RDF>
      <cc:Work
         rdf:about="">
        <dc:format>image/svg+xml</dc:format>
        <dc:type
           rdf:resource="http://purl.org/dc/dcmitype/StillImage" />
        <dc:title></dc:title>
      </cc:Work>
    </rdf:RDF>
  </metadata>
  <g
     inkscape:label="Layer 1"
     inkscape:groupmode="layer"
     id="layer1"
     transform="translate(-1.375,-1.75)">
    <path
       sodipodi:type="arc"
       style="opacity:0;fill:#668000;stroke:#000000;stroke-opacity:1"
       id="path3771"
       sodipodi:cx="520"
       sodipodi:cy="649.50507"
       sodipodi:rx="128.57143"
       sodipodi:ry="317.14285"
       d="m 648.57143,649.50507 c 0,175.15316 -57.56339,317.14285 -128.57143,317.14285 -71.00804,0 -128.57143,-141.98969 -128.57143,-317.14285 0,-175.15317 57.56339,-317.14286 128.57143,-317.14286 25.73516,0 50.87812,19.05022 72.17569,54.6858"
       sodipodi:start="0"
       sodipodi:end="5.3084251"
       sodipodi:open="true" />
    <flowRoot
       xml:space="preserve"
       id="flowRoot5409"
       style="font-size:40px;font-style:normal;font-weight:normal;line-height:125%;letter-spacing:0px;word-spacing:0px;fill:#000000;fill-opacity:1;stroke:none;font-family:Sans"><flowRegion
         id="flowRegion5411"><rect
           id="rect5413"
           width="186"
           height="44"
           x="292"
           y="899.36218" /></flowRegion><flowPara
         id="flowPara5415">Ninj</flowPara></flowRoot>    <flowRoot
       xml:space="preserve"
       id="flowRoot5495"
       style="font-size:40px;font-style:normal;font-weight:normal;line-height:125%;letter-spacing:0px;word-spacing:0px;fill:#000000;fill-opacity:1;stroke:none;font-family:Sans"><flowRegion
         id="flowRegion5497"><rect
           id="rect5499"
           width="156"
           height="42"
           x="29"
           y="681.36218" /></flowRegion><flowPara
         id="flowPara5501">aa</flowPara></flowRoot>    <text
       xml:space="preserve"
       style="font-size:28.71580696px;font-style:normal;font-weight:normal;line-height:125%;letter-spacing:0px;word-spacing:0px;fill:#000000;fill-opacity:1;stroke:none;font-family:Sans"
       x="763.65601"
       y="440.63202"
       id="text5503-2"
       sodipodi:linespacing="125%"
       transform="scale(0.86102838,1.1614019)"><tspan
         sodipodi:role="line"
         x="763.65601"
         y="440.63202"
         style="font-size:20px;font-style:normal;font-variant:normal;font-weight:normal;font-stretch:normal;text-align:center;text-anchor:middle;font-family:Times New Roman;-inkscape-font-specification:Times New Roman"
         id="tspan5548" /></text>
    <text
       xml:space="preserve"
       style="font-size:28.71580696px;font-style:normal;font-weight:normal;line-height:125%;letter-spacing:0px;word-spacing:0px;fill:#000000;fill-opacity:1;stroke:none;font-family:Sans"
       x="106.80148"
       y="393.55637"
       id="text5503-2-0"
       sodipodi:linespacing="125%"
       transform="scale(0.86102838,1.1614019)"><tspan
         sodipodi:role="line"
         x="106.80148"
         y="393.55637"
         style="font-size:20px;font-style:normal;font-variant:normal;font-weight:normal;font-stretch:normal;text-align:center;text-anchor:middle;font-family:Times New Roman;-inkscape-font-specification:Times New Roman"
         id="tspan5576" /></text>
    <flowRoot
       xml:space="preserve"
       id="flowRoot3889"><flowRegion
         id="flowRegion3891"><rect
           id="rect3893"
           width="59.396969"
           height="55.154327"
           x="207.88939"
           y="582.84326" /></flowRegion><flowPara
         id="flowPara3895" /></flowRoot>    <g
       id="g3069"
       transform="translate(-82,-226)"
       clip-path="url(#clipPath3162)">
      <rect
         ry="1.1792976"
         y="230.36218"
         x="88"
         height="372"
         width="612"
         id="rect3067"
         style="fill:#ffffff;fill-opacity:1;stroke:#ffffff;stroke-width:1.24399996;stroke-linecap:butt;stroke-linejoin:miter;stroke-miterlimit:4;stroke-opacity:1;stroke-dasharray:none;stroke-dashoffset:0" />
      <rect
         ry="16.342226"
         y="449.29037"
         x="169.49812"
         height="32.684452"
         width="132.51729"
         id="rect3777"
         style="color:#000000;fill:none;stroke:#000000;stroke-width:2.80713654;stroke-linecap:butt;stroke-linejoin:miter;stroke-miterlimit:4;stroke-opacity:1;stroke-dasharray:none;stroke-dashoffset:0;marker:none;visibility:visible;display:inline;overflow:visible;enable-background:accumulate" />
      <path
         transform="matrix(0.19008629,0,0,0.33645757,261.66281,165.58288)"
         d="m 145.71429,889.50507 c 0,17.35752 -13.43146,31.42857 -30,31.42857 -16.568546,0 -30.000003,-14.07105 -30.000003,-31.42857 0,-17.35752 13.431457,-31.42858 30.000003,-31.42858 16.56854,0 30,14.07106 30,31.42858 z"
         sodipodi:ry="31.428572"
         sodipodi:rx="30"
         sodipodi:cy="889.50507"
         sodipodi:cx="115.71429"
         id="path5225-3-5"
         style="fill:#4e4e4e;fill-opacity:1;stroke:#000000;stroke-width:1.00073147;stroke-miterlimit:4;stroke-opacity:1;stroke-dasharray:none"
         sodipodi:type="arc" />
      <path
         transform="matrix(0.19008629,0,0,0.33645757,237.68822,165.33871)"
         d="m 145.71429,889.50507 c 0,17.35752 -13.43146,31.42857 -30,31.42857 -16.568546,0 -30.000003,-14.07105 -30.000003,-31.42857 0,-17.35752 13.431457,-31.42858 30.000003,-31.42858 16.56854,0 30,14.07106 30,31.42858 z"
         sodipodi:ry="31.428572"
         sodipodi:rx="30"
         sodipodi:cy="889.50507"
         sodipodi:cx="115.71429"
         id="path5225-3-5-7"
         style="fill:#4e4e4e;fill-opacity:1;stroke:#000000;stroke-width:1.00073147;stroke-miterlimit:4;stroke-opacity:1;stroke-dasharray:none"
         sodipodi:type="arc" />
      <path
         transform="matrix(0.19008629,0,0,0.33645757,213.08707,165.33871)"
         d="m 145.71429,889.50507 c 0,17.35752 -13.43146,31.42857 -30,31.42857 -16.568546,0 -30.000003,-14.07105 -30.000003,-31.42857 0,-17.35752 13.431457,-31.42858 30.000003,-31.42858 16.56854,0 30,14.07106 30,31.42858 z"
         sodipodi:ry="31.428572"
         sodipodi:rx="30"
         sodipodi:cy="889.50507"
         sodipodi:cx="115.71429"
         id="path5225-3-5-0"
         style="fill:#4e4e4e;fill-opacity:1;stroke:#000000;stroke-width:1.00073147;stroke-miterlimit:4;stroke-opacity:1;stroke-dasharray:none"
         sodipodi:type="arc" />
      <path
         transform="matrix(0.19008629,0,0,0.33645757,188.82292,165.33871)"
         d="m 145.71429,889.50507 c 0,17.35752 -13.43146,31.42857 -30,31.42857 -16.568546,0 -30.000003,-14.07105 -30.000003,-31.42857 0,-17.35752 13.431457,-31.42858 30.000003,-31.42858 16.56854,0 30,14.07106 30,31.42858 z"
         sodipodi:ry="31.428572"
         sodipodi:rx="30"
         sodipodi:cy="889.50507"
         sodipodi:cx="115.71429"
         id="path5225-3-5-9"
         style="fill:#4e4e4e;fill-opacity:1;stroke:#000000;stroke-width:1.00073147;stroke-miterlimit:4;stroke-opacity:1;stroke-dasharray:none"
         sodipodi:type="arc" />
      <path
         transform="matrix(0.19008629,0,0,0.33645757,163.88476,165.33871)"
         d="m 145.71429,889.50507 c 0,17.35752 -13.43146,31.42857 -30,31.42857 -16.568546,0 -30.000003,-14.07105 -30.000003,-31.42857 0,-17.35752 13.431457,-31.42858 30.000003,-31.42858 16.56854,0 30,14.07106 30,31.42858 z"
         sodipodi:ry="31.428572"
         sodipodi:rx="30"
         sodipodi:cy="889.50507"
         sodipodi:cx="115.71429"
         id="path5225-3-5-3"
         style="fill:#4e4e4e;fill-opacity:1;stroke:#000000;stroke-width:1.00073147;stroke-miterlimit:4;stroke-opacity:1;stroke-dasharray:none"
         sodipodi:type="arc" />
      <rect
         ry="16.342226"
         y="451.25574"
         x="327.12079"
         height="32.684452"
         width="132.51729"
         id="rect3777-6"
         style="color:#000000;fill:none;stroke:#000000;stroke-width:2.80713654;stroke-linecap:butt;stroke-linejoin:miter;stroke-miterlimit:4;stroke-opacity:1;stroke-dasharray:none;stroke-dashoffset:0;marker:none;visibility:visible;display:inline;overflow:visible;enable-background:accumulate" />
      <path
         transform="matrix(0.19008629,0,0,0.33645757,419.28548,167.54822)"
         d="m 145.71429,889.50507 c 0,17.35752 -13.43146,31.42857 -30,31.42857 -16.568546,0 -30.000003,-14.07105 -30.000003,-31.42857 0,-17.35752 13.431457,-31.42858 30.000003,-31.42858 16.56854,0 30,14.07106 30,31.42858 z"
         sodipodi:ry="31.428572"
         sodipodi:rx="30"
         sodipodi:cy="889.50507"
         sodipodi:cx="115.71429"
         id="path5225-3-5-06"
         style="fill:#4e4e4e;fill-opacity:1;stroke:#000000;stroke-width:1.00073147;stroke-miterlimit:4;stroke-opacity:1;stroke-dasharray:none"
         sodipodi:type="arc" />
      <path
         transform="matrix(0.19008629,0,0,0.33645757,395.31088,167.30405)"
         d="m 145.71429,889.50507 c 0,17.35752 -13.43146,31.42857 -30,31.42857 -16.568546,0 -30.000003,-14.07105 -30.000003,-31.42857 0,-17.35752 13.431457,-31.42858 30.000003,-31.42858 16.56854,0 30,14.07106 30,31.42858 z"
         sodipodi:ry="31.428572"
         sodipodi:rx="30"
         sodipodi:cy="889.50507"
         sodipodi:cx="115.71429"
         id="path5225-3-5-7-2"
         style="fill:#4e4e4e;fill-opacity:1;stroke:#000000;stroke-width:1.00073147;stroke-miterlimit:4;stroke-opacity:1;stroke-dasharray:none"
         sodipodi:type="arc" />
      <path
         transform="matrix(0.19008629,0,0,0.33645757,370.70973,167.30405)"
         d="m 145.71429,889.50507 c 0,17.35752 -13.43146,31.42857 -30,31.42857 -16.568546,0 -30.000003,-14.07105 -30.000003,-31.42857 0,-17.35752 13.431457,-31.42858 30.000003,-31.42858 16.56854,0 30,14.07106 30,31.42858 z"
         sodipodi:ry="31.428572"
         sodipodi:rx="30"
         sodipodi:cy="889.50507"
         sodipodi:cx="115.71429"
         id="path5225-3-5-0-6"
         style="fill:#4e4e4e;fill-opacity:1;stroke:#000000;stroke-width:1.00073147;stroke-miterlimit:4;stroke-opacity:1;stroke-dasharray:none"
         sodipodi:type="arc" />
      <path
         transform="matrix(0.19008629,0,0,0.33645757,346.44558,167.30405)"
         d="m 145.71429,889.50507 c 0,17.35752 -13.43146,31.42857 -30,31.42857 -16.568546,0 -30.000003,-14.07105 -30.000003,-31.42857 0,-17.35752 13.431457,-31.42858 30.000003,-31.42858 16.56854,0 30,14.07106 30,31.42858 z"
         sodipodi:ry="31.428572"
         sodipodi:rx="30"
         sodipodi:cy="889.50507"
         sodipodi:cx="115.71429"
         id="path5225-3-5-9-1"
         style="fill:#4e4e4e;fill-opacity:1;stroke:#000000;stroke-width:1.00073147;stroke-miterlimit:4;stroke-opacity:1;stroke-dasharray:none"
         sodipodi:type="arc" />
      <path
         transform="matrix(0.19008629,0,0,0.33645757,321.50744,167.30405)"
         d="m 145.71429,889.50507 c 0,17.35752 -13.43146,31.42857 -30,31.42857 -16.568546,0 -30.000003,-14.07105 -30.000003,-31.42857 0,-17.35752 13.431457,-31.42858 30.000003,-31.42858 16.56854,0 30,14.07106 30,31.42858 z"
         sodipodi:ry="31.428572"
         sodipodi:rx="30"
         sodipodi:cy="889.50507"
         sodipodi:cx="115.71429"
         id="path5225-3-5-3-8"
         style="fill:#4e4e4e;fill-opacity:1;stroke:#000000;stroke-width:1.00073147;stroke-miterlimit:4;stroke-opacity:1;stroke-dasharray:none"
         sodipodi:type="arc" />
      <rect
         ry="16.342226"
         y="450.422"
         x="477.3259"
         height="32.684452"
         width="132.51729"
         id="rect3777-7"
         style="color:#000000;fill:none;stroke:#000000;stroke-width:2.80713654;stroke-linecap:butt;stroke-linejoin:miter;stroke-miterlimit:4;stroke-opacity:1;stroke-dasharray:none;stroke-dashoffset:0;marker:none;visibility:visible;display:inline;overflow:visible;enable-background:accumulate" />
      <path
         transform="matrix(0.19008629,0,0,0.33645757,569.4906,166.71445)"
         d="m 145.71429,889.50507 c 0,17.35752 -13.43146,31.42857 -30,31.42857 -16.568546,0 -30.000003,-14.07105 -30.000003,-31.42857 0,-17.35752 13.431457,-31.42858 30.000003,-31.42858 16.56854,0 30,14.07106 30,31.42858 z"
         sodipodi:ry="31.428572"
         sodipodi:rx="30"
         sodipodi:cy="889.50507"
         sodipodi:cx="115.71429"
         id="path5225-3-5-92"
         style="fill:#4e4e4e;fill-opacity:1;stroke:#000000;stroke-width:1.00073147;stroke-miterlimit:4;stroke-opacity:1;stroke-dasharray:none"
         sodipodi:type="arc" />
      <path
         transform="matrix(0.19008629,0,0,0.33645757,545.51601,166.47028)"
         d="m 145.71429,889.50507 c 0,17.35752 -13.43146,31.42857 -30,31.42857 -16.568546,0 -30.000003,-14.07105 -30.000003,-31.42857 0,-17.35752 13.431457,-31.42858 30.000003,-31.42858 16.56854,0 30,14.07106 30,31.42858 z"
         sodipodi:ry="31.428572"
         sodipodi:rx="30"
         sodipodi:cy="889.50507"
         sodipodi:cx="115.71429"
         id="path5225-3-5-7-0"
         style="fill:#4e4e4e;fill-opacity:1;stroke:#000000;stroke-width:1.00073147;stroke-miterlimit:4;stroke-opacity:1;stroke-dasharray:none"
         sodipodi:type="arc" />
      <path
         transform="matrix(0.19008629,0,0,0.33645757,520.91485,166.47028)"
         d="m 145.71429,889.50507 c 0,17.35752 -13.43146,31.42857 -30,31.42857 -16.568546,0 -30.000003,-14.07105 -30.000003,-31.42857 0,-17.35752 13.431457,-31.42858 30.000003,-31.42858 16.56854,0 30,14.07106 30,31.42858 z"
         sodipodi:ry="31.428572"
         sodipodi:rx="30"
         sodipodi:cy="889.50507"
         sodipodi:cx="115.71429"
         id="path5225-3-5-0-2"
         style="fill:#4e4e4e;fill-opacity:1;stroke:#000000;stroke-width:1.00073147;stroke-miterlimit:4;stroke-opacity:1;stroke-dasharray:none"
         sodipodi:type="arc" />
      <path
         transform="matrix(0.19008629,0,0,0.33645757,496.65071,166.47028)"
         d="m 145.71429,889.50507 c 0,17.35752 -13.43146,31.42857 -30,31.42857 -16.568546,0 -30.000003,-14.07105 -30.000003,-31.42857 0,-17.35752 13.431457,-31.42858 30.000003,-31.42858 16.56854,0 30,14.07106 30,31.42858 z"
         sodipodi:ry="31.428572"
         sodipodi:rx="30"
         sodipodi:cy="889.50507"
         sodipodi:cx="115.71429"
         id="path5225-3-5-9-3"
         style="fill:#4e4e4e;fill-opacity:1;stroke:#000000;stroke-width:1.00073147;stroke-miterlimit:4;stroke-opacity:1;stroke-dasharray:none"
         sodipodi:type="arc" />
      <path
         transform="matrix(0.19008629,0,0,0.33645757,471.71255,166.47028)"
         d="m 145.71429,889.50507 c 0,17.35752 -13.43146,31.42857 -30,31.42857 -16.568546,0 -30.000003,-14.07105 -30.000003,-31.42857 0,-17.35752 13.431457,-31.42858 30.000003,-31.42858 16.56854,0 30,14.07106 30,31.42858 z"
         sodipodi:ry="31.428572"
         sodipodi:rx="30"
         sodipodi:cy="889.50507"
         sodipodi:cx="115.71429"
         id="path5225-3-5-3-7"
         style="fill:#4e4e4e;fill-opacity:1;stroke:#000000;stroke-width:1.00073147;stroke-miterlimit:4;stroke-opacity:1;stroke-dasharray:none"
         sodipodi:type="arc" />
      <flowRoot
         transform="matrix(0.61812806,0,0,0.83376477,186.92466,-255.57808)"
         style="font-size:40px;font-style:normal;font-weight:normal;line-height:125%;letter-spacing:0px;word-spacing:0px;fill:#000000;fill-opacity:1;stroke:none;font-family:Sans"
         id="flowRoot5401"
         xml:space="preserve"><flowRegion
           id="flowRegion5403"><rect
             y="899.36218"
             x="24"
             height="67.050316"
             width="250.74266"
             id="rect5405" /></flowRegion><flowPara
           style="font-size:50.14660263px;font-style:normal;font-variant:normal;font-weight:normal;font-stretch:normal;font-family:Times New Roman;-inkscape-font-specification:Times New Roman"
           id="flowPara5407">&quot;really</flowPara></flowRoot>      <flowRoot
         transform="matrix(0.61812806,0,0,0.83376477,186.92466,-257.24561)"
         style="font-size:40px;font-style:normal;font-weight:normal;line-height:125%;letter-spacing:0px;word-spacing:0px;fill:#000000;fill-opacity:1;stroke:none;font-family:Sans"
         id="flowRoot5417"
         xml:space="preserve"><flowRegion
           id="flowRegion5419"><rect
             y="903.36218"
             x="289"
             height="60.569454"
             width="167.98473"
             id="rect5421" /></flowRegion><flowPara
           style="font-size:50.14660263px;font-style:normal;font-variant:normal;font-weight:normal;font-stretch:normal;font-family:Times New Roman;-inkscape-font-specification:Times New Roman"
           id="flowPara5423">nice</flowPara></flowRoot>      <flowRoot
         transform="matrix(0.61812806,0,0,0.83376477,184.45214,-252.24302)"
         style="font-size:40px;font-style:normal;font-weight:normal;line-height:125%;letter-spacing:0px;word-spacing:0px;fill:#000000;fill-opacity:1;stroke:none;font-family:Sans"
         id="flowRoot5425"
         xml:space="preserve"><flowRegion
           id="flowRegion5427"><rect
             y="896.36218"
             x="531"
             height="74.354141"
             width="194"
             id="rect5429" /></flowRegion><flowPara
           style="font-size:50.14660263px;font-style:normal;font-variant:normal;font-weight:normal;font-stretch:normal;font-family:Times New Roman;-inkscape-font-specification:Times New Roman"
           id="flowPara5431">hotel&quot;</flowPara></flowRoot>      <rect
         ry="16.342226"
         y="283.66901"
         x="326.50266"
         height="32.684452"
         width="132.51729"
         id="rect3777-6-5"
         style="color:#000000;fill:none;stroke:#000000;stroke-width:2.80713654;stroke-linecap:butt;stroke-linejoin:miter;stroke-miterlimit:4;stroke-opacity:1;stroke-dasharray:none;stroke-dashoffset:0;marker:none;visibility:visible;display:inline;overflow:visible;enable-background:accumulate" />
      <path
         transform="matrix(0.19008629,0,0,0.33645757,418.66735,-0.03850394)"
         d="m 145.71429,889.50507 c 0,17.35752 -13.43146,31.42857 -30,31.42857 -16.568546,0 -30.000003,-14.07105 -30.000003,-31.42857 0,-17.35752 13.431457,-31.42858 30.000003,-31.42858 16.56854,0 30,14.07106 30,31.42858 z"
         sodipodi:ry="31.428572"
         sodipodi:rx="30"
         sodipodi:cy="889.50507"
         sodipodi:cx="115.71429"
         id="path5225-3-5-06-9"
         style="fill:#4e4e4e;fill-opacity:1;stroke:#0000f8;stroke-width:1.00073147;stroke-miterlimit:4;stroke-opacity:1;stroke-dasharray:none"
         sodipodi:type="arc" />
      <path
         transform="matrix(0.19008629,0,0,0.33645757,394.69275,-0.28267294)"
         d="m 145.71429,889.50507 c 0,17.35752 -13.43146,31.42857 -30,31.42857 -16.568546,0 -30.000003,-14.07105 -30.000003,-31.42857 0,-17.35752 13.431457,-31.42858 30.000003,-31.42858 16.56854,0 30,14.07106 30,31.42858 z"
         sodipodi:ry="31.428572"
         sodipodi:rx="30"
         sodipodi:cy="889.50507"
         sodipodi:cx="115.71429"
         id="path5225-3-5-7-2-2"
         style="fill:#4e4e4e;fill-opacity:1;stroke:#0000f8;stroke-width:1.00073147;stroke-miterlimit:4;stroke-opacity:1;stroke-dasharray:none"
         sodipodi:type="arc" />
      <path
         transform="matrix(0.19008629,0,0,0.33645757,370.0916,-0.28267294)"
         d="m 145.71429,889.50507 c 0,17.35752 -13.43146,31.42857 -30,31.42857 -16.568546,0 -30.000003,-14.07105 -30.000003,-31.42857 0,-17.35752 13.431457,-31.42858 30.000003,-31.42858 16.56854,0 30,14.07106 30,31.42858 z"
         sodipodi:ry="31.428572"
         sodipodi:rx="30"
         sodipodi:cy="889.50507"
         sodipodi:cx="115.71429"
         id="path5225-3-5-0-6-2"
         style="fill:#4e4e4e;fill-opacity:1;stroke:#0000f8;stroke-width:1.00073147;stroke-miterlimit:4;stroke-opacity:1;stroke-dasharray:none"
         sodipodi:type="arc" />
      <path
         transform="matrix(0.19008629,0,0,0.33645757,345.82745,-0.28267294)"
         d="m 145.71429,889.50507 c 0,17.35752 -13.43146,31.42857 -30,31.42857 -16.568546,0 -30.000003,-14.07105 -30.000003,-31.42857 0,-17.35752 13.431457,-31.42858 30.000003,-31.42858 16.56854,0 30,14.07106 30,31.42858 z"
         sodipodi:ry="31.428572"
         sodipodi:rx="30"
         sodipodi:cy="889.50507"
         sodipodi:cx="115.71429"
         id="path5225-3-5-9-1-8"
         style="fill:#4e4e4e;fill-opacity:1;stroke:#0000f8;stroke-width:1.00073147;stroke-miterlimit:4;stroke-opacity:1;stroke-dasharray:none"
         sodipodi:type="arc" />
      <path
         transform="matrix(0.19008629,0,0,0.33645757,320.8893,-0.28267294)"
         d="m 145.71429,889.50507 c 0,17.35752 -13.43146,31.42857 -30,31.42857 -16.568546,0 -30.000003,-14.07105 -30.000003,-31.42857 0,-17.35752 13.431457,-31.42858 30.000003,-31.42858 16.56854,0 30,14.07106 30,31.42858 z"
         sodipodi:ry="31.428572"
         sodipodi:rx="30"
         sodipodi:cy="889.50507"
         sodipodi:cx="115.71429"
         id="path5225-3-5-3-8-9"
         style="fill:#4e4e4e;fill-opacity:1;stroke:#0000f8;stroke-width:1.00073147;stroke-miterlimit:4;stroke-opacity:1;stroke-dasharray:none"
         sodipodi:type="arc" />
      <path
         inkscape:connector-curvature="0"
         inkscape:connector-type="polyline"
         id="path5479"
         d="M 236.3749,441.75124 341.45667,323.35664"
         style="fill:none;stroke:#000000;stroke-width:3.58899999;stroke-linecap:butt;stroke-linejoin:miter;stroke-miterlimit:4;stroke-opacity:1;stroke-dasharray:none;marker-end:url(#Arrow2Mend);display:inline" />
      <path
         inkscape:connector-curvature="0"
         inkscape:connector-type="polyline"
         id="path5481"
         d="M 392.7613,437.58241 392.14318,328.35923"
         style="fill:none;stroke:#000000;stroke-width:3.58947587;stroke-linecap:butt;stroke-linejoin:miter;stroke-miterlimit:4;stroke-opacity:1;stroke-dasharray:none;marker-end:url(#Arrow2Mend);display:inline" />
      <path
         inkscape:connector-curvature="0"
         inkscape:connector-type="polyline"
         id="path5483"
         d="M 440.97529,325.85793 541.11204,441.75124"
         style="fill:none;stroke:#000000;stroke-width:3.58947587;stroke-linecap:butt;stroke-linejoin:miter;stroke-miterlimit:4;stroke-opacity:1;stroke-dasharray:none;marker-start:url(#Arrow2Mstart);marker-mid:none;marker-end:none;display:inline" />
      <text
         sodipodi:linespacing="125%"
         id="text3897"
         y="566.39966"
         x="216.97772"
         style="font-size:40px;font-style:normal;font-variant:normal;font-weight:normal;font-stretch:normal;line-height:125%;letter-spacing:0px;word-spacing:0px;fill:#000000;fill-opacity:1;stroke:none;font-family:Serif;-inkscape-font-specification:Serif"
         xml:space="preserve"><tspan
           style="font-size:65.00091553%;font-style:italic;baseline-shift:sub;-inkscape-font-specification:Serif Italic"
           y="566.39966"
           x="216.97772"
           id="tspan3899"
           sodipodi:role="line">O<tspan
   id="tspan3944">1</tspan></tspan></text>
      <text
         sodipodi:linespacing="125%"
         id="text3897-7"
         y="565.57983"
         x="369.79413"
         style="font-size:40px;font-style:normal;font-variant:normal;font-weight:normal;font-stretch:normal;line-height:125%;letter-spacing:0px;word-spacing:0px;fill:#000000;fill-opacity:1;stroke:none;font-family:Serif;-inkscape-font-specification:Serif"
         xml:space="preserve"><tspan
           style="font-size:65.00091553%;font-style:italic;baseline-shift:sub;-inkscape-font-specification:Serif Italic"
           y="565.57983"
           x="369.79413"
           id="tspan3899-7"
           sodipodi:role="line">O<tspan
   id="tspan3946">2</tspan></tspan></text>
      <text
         sodipodi:linespacing="125%"
         id="text3897-2"
         y="562.99408"
         x="518.74744"
         style="font-size:40px;font-style:normal;font-variant:normal;font-weight:normal;font-stretch:normal;line-height:125%;letter-spacing:0px;word-spacing:0px;fill:#000000;fill-opacity:1;stroke:none;font-family:Serif;-inkscape-font-specification:Serif"
         xml:space="preserve"><tspan
           style="font-size:65.00091553%;font-style:italic;baseline-shift:sub;-inkscape-font-specification:Serif Italic"
           y="562.99408"
           x="518.74744"
           id="tspan3899-3"
           sodipodi:role="line">O<tspan
   id="tspan3948">3</tspan></tspan></text>
      <text
         sodipodi:linespacing="125%"
         id="text3897-3"
         y="264.01074"
         x="359.11499"
         style="font-size:40px;font-style:normal;font-variant:normal;font-weight:normal;font-stretch:normal;line-height:125%;letter-spacing:0px;word-spacing:0px;fill:#000000;fill-opacity:1;stroke:none;font-family:Serif;-inkscape-font-specification:Serif"
         xml:space="preserve"><tspan
           style="font-size:32px;font-style:italic;baseline-shift:sub;-inkscape-font-specification:Serif Italic"
           y="264.01074"
           x="359.11499"
           id="tspan3899-6"
           sodipodi:role="line">avg</tspan></text>
    </g>
  </g>
</svg>
