<?xml version="1.0" encoding="UTF-8" standalone="no"?>
<!-- Created with Inkscape (http://www.inkscape.org/) -->

<svg
   xmlns:dc="http://purl.org/dc/elements/1.1/"
   xmlns:cc="http://creativecommons.org/ns#"
   xmlns:rdf="http://www.w3.org/1999/02/22-rdf-syntax-ns#"
   xmlns:svg="http://www.w3.org/2000/svg"
   xmlns="http://www.w3.org/2000/svg"
   xmlns:sodipodi="http://sodipodi.sourceforge.net/DTD/sodipodi-0.dtd"
   xmlns:inkscape="http://www.inkscape.org/namespaces/inkscape"
   width="744.09448819"
   height="1052.3622047"
   id="svg2"
   version="1.1"
   inkscape:version="0.48.4 r9939"
   sodipodi:docname="drawing.svg">
  <defs
     id="defs4">
    <marker
       inkscape:stockid="Arrow1Lend"
       orient="auto"
       refY="0.0"
       refX="0.0"
       id="Arrow1Lend"
       style="overflow:visible;">
      <path
         id="path3952"
         d="M 0.0,0.0 L 5.0,-5.0 L -12.5,0.0 L 5.0,5.0 L 0.0,0.0 z "
         style="fill-rule:evenodd;stroke:#000000;stroke-width:1.0pt;"
         transform="scale(0.8) rotate(180) translate(12.5,0)" />
    </marker>
    <marker
       inkscape:stockid="Arrow1Lend"
       orient="auto"
       refY="0"
       refX="0"
       id="Arrow1Lend-7"
       style="overflow:visible">
      <path
         inkscape:connector-curvature="0"
         id="path3952-2"
         d="M 0,0 5,-5 -12.5,0 5,5 0,0 z"
         style="fill-rule:evenodd;stroke:#000000;stroke-width:1pt"
         transform="matrix(-0.8,0,0,-0.8,-10,0)" />
    </marker>
    <marker
       inkscape:stockid="Arrow1Lend"
       orient="auto"
       refY="0"
       refX="0"
       id="Arrow1Lend-3"
       style="overflow:visible">
      <path
         inkscape:connector-curvature="0"
         id="path3952-6"
         d="M 0,0 5,-5 -12.5,0 5,5 0,0 z"
         style="fill-rule:evenodd;stroke:#000000;stroke-width:1pt"
         transform="matrix(-0.8,0,0,-0.8,-10,0)" />
    </marker>
    <marker
       inkscape:stockid="Arrow1Lend"
       orient="auto"
       refY="0"
       refX="0"
       id="Arrow1Lend-3-4"
       style="overflow:visible">
      <path
         inkscape:connector-curvature="0"
         id="path3952-6-4"
         d="M 0,0 5,-5 -12.5,0 5,5 0,0 z"
         style="fill-rule:evenodd;stroke:#000000;stroke-width:1pt"
         transform="matrix(-0.8,0,0,-0.8,-10,0)" />
    </marker>
  </defs>
  <sodipodi:namedview
     id="base"
     pagecolor="#ffffff"
     bordercolor="#666666"
     borderopacity="1.0"
     inkscape:pageopacity="0.0"
     inkscape:pageshadow="2"
     inkscape:zoom="0.49497475"
     inkscape:cx="50.638849"
     inkscape:cy="679.98989"
     inkscape:document-units="px"
     inkscape:current-layer="layer1"
     showgrid="false"
     inkscape:window-width="1301"
     inkscape:window-height="744"
     inkscape:window-x="65"
     inkscape:window-y="24"
     inkscape:window-maximized="1"
     showguides="true"
     inkscape:guide-bbox="true" />
  <metadata
     id="metadata7">
    <rdf:RDF>
      <cc:Work
         rdf:about="">
        <dc:format>image/svg+xml</dc:format>
        <dc:type
           rdf:resource="http://purl.org/dc/dcmitype/StillImage" />
        <dc:title />
      </cc:Work>
    </rdf:RDF>
  </metadata>
  <g
     inkscape:label="Layer 1"
     inkscape:groupmode="layer"
     id="layer1">
    <g
       id="g5596">
      <g
         id="g5467">
        <rect
           style="fill:#68c7ff;fill-opacity:0.18721463;stroke:#0005ff;stroke-width:1.05129194;stroke-linecap:butt;stroke-linejoin:miter;stroke-miterlimit:4;stroke-opacity:0.39215686;stroke-dasharray:none;stroke-dashoffset:0"
           id="rect4393"
           width="695.90698"
           height="308.76416"
           x="-367.38205"
           y="215.12297"
           ry="8.5811225e-05" />
        <g
           id="g5426">
          <g
             transform="translate(-391.28567,-5.7142857)"
             id="g3828">
            <rect
               style="fill:#ffffff;fill-opacity:1;stroke:#000000;stroke-width:1.24399996;stroke-linecap:butt;stroke-linejoin:miter;stroke-miterlimit:4;stroke-opacity:1;stroke-dasharray:none;stroke-dashoffset:0"
               id="rect2985"
               width="148.49243"
               height="208.09143"
               x="78.791901"
               y="291.71732"
               ry="0.00010799114" />
            <rect
               style="fill:#ffffff;fill-opacity:1;stroke:#000000;stroke-width:1.24399996;stroke-linecap:butt;stroke-linejoin:miter;stroke-miterlimit:4;stroke-opacity:1;stroke-dasharray:none;stroke-dashoffset:0"
               id="rect3755"
               width="125.25892"
               height="1.0101526"
               x="90.408661"
               y="307.88007"
               ry="0.00010799114" />
            <rect
               style="fill:#ffffff;fill-opacity:1;stroke:#000000;stroke-width:1.24399996;stroke-linecap:butt;stroke-linejoin:miter;stroke-miterlimit:4;stroke-opacity:1;stroke-dasharray:none;stroke-dashoffset:0"
               id="rect3755-3"
               width="125.25892"
               height="1.0101526"
               x="90.408661"
               y="323.32916"
               ry="0.00010799114" />
            <rect
               style="fill:#ffffff;fill-opacity:1;stroke:#000000;stroke-width:1.24399996;stroke-linecap:butt;stroke-linejoin:miter;stroke-miterlimit:4;stroke-opacity:1;stroke-dasharray:none;stroke-dashoffset:0"
               id="rect3755-6"
               width="125.25892"
               height="1.0101526"
               x="90.408661"
               y="338.77826"
               ry="0.00010799114" />
            <rect
               style="fill:#ffffff;fill-opacity:1;stroke:#000000;stroke-width:1.24399996;stroke-linecap:butt;stroke-linejoin:miter;stroke-miterlimit:4;stroke-opacity:1;stroke-dasharray:none;stroke-dashoffset:0"
               id="rect3755-7"
               width="125.25892"
               height="1.0101526"
               x="90.408661"
               y="354.22736"
               ry="0.00010799114" />
            <rect
               style="fill:#ffffff;fill-opacity:1;stroke:#000000;stroke-width:1.24399996;stroke-linecap:butt;stroke-linejoin:miter;stroke-miterlimit:4;stroke-opacity:1;stroke-dasharray:none;stroke-dashoffset:0"
               id="rect3755-3-5"
               width="125.25892"
               height="1.0101526"
               x="90.408661"
               y="369.67645"
               ry="0.00010799114" />
            <rect
               style="fill:#ffffff;fill-opacity:1;stroke:#000000;stroke-width:1.24399996;stroke-linecap:butt;stroke-linejoin:miter;stroke-miterlimit:4;stroke-opacity:1;stroke-dasharray:none;stroke-dashoffset:0"
               id="rect3755-6-3"
               width="125.25892"
               height="1.0101526"
               x="90.408661"
               y="385.12555"
               ry="0.00010799114" />
            <rect
               style="fill:#ffffff;fill-opacity:1;stroke:#000000;stroke-width:1.24399996;stroke-linecap:butt;stroke-linejoin:miter;stroke-miterlimit:4;stroke-opacity:1;stroke-dasharray:none;stroke-dashoffset:0"
               id="rect3755-5"
               width="125.25892"
               height="1.0101526"
               x="90.408661"
               y="400.57465"
               ry="0.00010799114" />
            <rect
               style="fill:#ffffff;fill-opacity:1;stroke:#000000;stroke-width:1.24399996;stroke-linecap:butt;stroke-linejoin:miter;stroke-miterlimit:4;stroke-opacity:1;stroke-dasharray:none;stroke-dashoffset:0"
               id="rect3755-3-6"
               width="125.25892"
               height="1.0101526"
               x="90.408661"
               y="416.02374"
               ry="0.00010799114" />
            <rect
               style="fill:#ffffff;fill-opacity:1;stroke:#000000;stroke-width:1.24399996;stroke-linecap:butt;stroke-linejoin:miter;stroke-miterlimit:4;stroke-opacity:1;stroke-dasharray:none;stroke-dashoffset:0"
               id="rect3755-6-2"
               width="125.25892"
               height="1.0101526"
               x="90.408661"
               y="431.47284"
               ry="0.00010799114" />
            <rect
               style="fill:#ffffff;fill-opacity:1;stroke:#000000;stroke-width:1.24399996;stroke-linecap:butt;stroke-linejoin:miter;stroke-miterlimit:4;stroke-opacity:1;stroke-dasharray:none;stroke-dashoffset:0"
               id="rect3755-9"
               width="125.25892"
               height="1.0101526"
               x="90.408661"
               y="446.92194"
               ry="0.00010799114" />
            <rect
               style="fill:#ffffff;fill-opacity:1;stroke:#000000;stroke-width:1.24399996;stroke-linecap:butt;stroke-linejoin:miter;stroke-miterlimit:4;stroke-opacity:1;stroke-dasharray:none;stroke-dashoffset:0"
               id="rect3755-3-1"
               width="125.25892"
               height="1.0101526"
               x="90.408661"
               y="462.37103"
               ry="0.00010799114" />
            <rect
               style="fill:#ffffff;fill-opacity:1;stroke:#000000;stroke-width:1.24399996;stroke-linecap:butt;stroke-linejoin:miter;stroke-miterlimit:4;stroke-opacity:1;stroke-dasharray:none;stroke-dashoffset:0"
               id="rect3755-6-27"
               width="125.25892"
               height="1.0101526"
               x="90.408661"
               y="477.82013"
               ry="0.00010799114" />
          </g>
          <g
             id="g3828-0"
             transform="translate(59.865603,-3.6939837)">
            <rect
               style="fill:#ffffff;fill-opacity:1;stroke:#000000;stroke-width:1.24399996;stroke-linecap:butt;stroke-linejoin:miter;stroke-miterlimit:4;stroke-opacity:1;stroke-dasharray:none;stroke-dashoffset:0"
               id="rect2985-9"
               width="148.49243"
               height="208.09143"
               x="78.791901"
               y="291.71732"
               ry="0.00010799114" />
            <rect
               style="fill:#ffffff;fill-opacity:1;stroke:#000000;stroke-width:1.24399996;stroke-linecap:butt;stroke-linejoin:miter;stroke-miterlimit:4;stroke-opacity:1;stroke-dasharray:none;stroke-dashoffset:0"
               id="rect3755-36"
               width="125.25892"
               height="1.0101526"
               x="90.408661"
               y="307.88007"
               ry="0.00010799114" />
            <rect
               style="fill:#ffffff;fill-opacity:1;stroke:#000000;stroke-width:1.24399996;stroke-linecap:butt;stroke-linejoin:miter;stroke-miterlimit:4;stroke-opacity:1;stroke-dasharray:none;stroke-dashoffset:0"
               id="rect3755-3-0"
               width="125.25892"
               height="1.0101526"
               x="90.408661"
               y="323.32916"
               ry="0.00010799114" />
            <rect
               style="fill:#ffffff;fill-opacity:1;stroke:#000000;stroke-width:1.24399996;stroke-linecap:butt;stroke-linejoin:miter;stroke-miterlimit:4;stroke-opacity:1;stroke-dasharray:none;stroke-dashoffset:0"
               id="rect3755-6-6"
               width="125.25892"
               height="1.0101526"
               x="90.408661"
               y="338.77826"
               ry="0.00010799114" />
            <rect
               style="fill:#ffffff;fill-opacity:1;stroke:#000000;stroke-width:1.24399996;stroke-linecap:butt;stroke-linejoin:miter;stroke-miterlimit:4;stroke-opacity:1;stroke-dasharray:none;stroke-dashoffset:0"
               id="rect3755-7-2"
               width="125.25892"
               height="1.0101526"
               x="90.408661"
               y="354.22736"
               ry="0.00010799114" />
            <rect
               style="fill:#ffffff;fill-opacity:1;stroke:#000000;stroke-width:1.24399996;stroke-linecap:butt;stroke-linejoin:miter;stroke-miterlimit:4;stroke-opacity:1;stroke-dasharray:none;stroke-dashoffset:0"
               id="rect3755-3-5-6"
               width="125.25892"
               height="1.0101526"
               x="90.408661"
               y="369.67645"
               ry="0.00010799114" />
            <rect
               style="fill:#ffffff;fill-opacity:1;stroke:#000000;stroke-width:1.24399996;stroke-linecap:butt;stroke-linejoin:miter;stroke-miterlimit:4;stroke-opacity:1;stroke-dasharray:none;stroke-dashoffset:0"
               id="rect3755-6-3-1"
               width="125.25892"
               height="1.0101526"
               x="90.408661"
               y="385.12555"
               ry="0.00010799114" />
            <rect
               style="fill:#ffffff;fill-opacity:1;stroke:#000000;stroke-width:1.24399996;stroke-linecap:butt;stroke-linejoin:miter;stroke-miterlimit:4;stroke-opacity:1;stroke-dasharray:none;stroke-dashoffset:0"
               id="rect3755-5-8"
               width="125.25892"
               height="1.0101526"
               x="90.408661"
               y="400.57465"
               ry="0.00010799114" />
            <rect
               style="fill:#ffffff;fill-opacity:1;stroke:#000000;stroke-width:1.24399996;stroke-linecap:butt;stroke-linejoin:miter;stroke-miterlimit:4;stroke-opacity:1;stroke-dasharray:none;stroke-dashoffset:0"
               id="rect3755-3-6-7"
               width="125.25892"
               height="1.0101526"
               x="90.408661"
               y="416.02374"
               ry="0.00010799114" />
            <rect
               style="fill:#ffffff;fill-opacity:1;stroke:#000000;stroke-width:1.24399996;stroke-linecap:butt;stroke-linejoin:miter;stroke-miterlimit:4;stroke-opacity:1;stroke-dasharray:none;stroke-dashoffset:0"
               id="rect3755-6-2-9"
               width="125.25892"
               height="1.0101526"
               x="90.408661"
               y="431.47284"
               ry="0.00010799114" />
            <rect
               style="fill:#ffffff;fill-opacity:1;stroke:#000000;stroke-width:1.24399996;stroke-linecap:butt;stroke-linejoin:miter;stroke-miterlimit:4;stroke-opacity:1;stroke-dasharray:none;stroke-dashoffset:0"
               id="rect3755-9-2"
               width="125.25892"
               height="1.0101526"
               x="90.408661"
               y="446.92194"
               ry="0.00010799114" />
            <rect
               style="fill:#ffffff;fill-opacity:1;stroke:#000000;stroke-width:1.24399996;stroke-linecap:butt;stroke-linejoin:miter;stroke-miterlimit:4;stroke-opacity:1;stroke-dasharray:none;stroke-dashoffset:0"
               id="rect3755-3-1-0"
               width="125.25892"
               height="1.0101526"
               x="90.408661"
               y="462.37103"
               ry="0.00010799114" />
            <rect
               style="fill:#ffffff;fill-opacity:1;stroke:#000000;stroke-width:1.24399996;stroke-linecap:butt;stroke-linejoin:miter;stroke-miterlimit:4;stroke-opacity:1;stroke-dasharray:none;stroke-dashoffset:0"
               id="rect3755-6-27-2"
               width="125.25892"
               height="1.0101526"
               x="90.408661"
               y="477.82013"
               ry="0.00010799114" />
          </g>
          <flowRoot
             transform="translate(-403.28567,2.2857143)"
             style="font-size:36px;font-style:normal;font-variant:normal;font-weight:normal;font-stretch:normal;line-height:125%;letter-spacing:0px;word-spacing:0px;fill:#000000;fill-opacity:1;stroke:none;font-family:Garuda;-inkscape-font-specification:Garuda"
             id="flowRoot3900"
             xml:space="preserve"><flowRegion
               id="flowRegion3902"><rect
                 y="228.07646"
                 x="40"
                 height="51.42857"
                 width="244.28572"
                 id="rect3904" /></flowRegion><flowPara
               style="font-size:20px;text-align:center;text-anchor:middle"
               id="flowPara3906">Supersense Annotated EN Wikipedia Corpus</flowPara></flowRoot>          <flowRoot
             transform="translate(56.715603,2.7168251)"
             style="font-size:36px;font-style:normal;font-variant:normal;font-weight:normal;font-stretch:normal;line-height:125%;letter-spacing:0px;word-spacing:0px;fill:#000000;fill-opacity:1;stroke:none;font-family:Garuda;-inkscape-font-specification:Garuda"
             id="flowRoot3900-3"
             xml:space="preserve"><flowRegion
               id="flowRegion3902-7"><rect
                 y="228.07646"
                 x="40"
                 height="51.42857"
                 width="244.28572"
                 id="rect3904-5" /></flowRegion><flowPara
               style="font-size:20px;text-align:center;text-anchor:middle"
               id="flowPara3906-9">ES Machine Translated Corpus</flowPara></flowRoot>          <path
             sodipodi:nodetypes="ccc"
             inkscape:connector-curvature="0"
             id="path3943"
             d="M -145.8571,452.93361 -15.857101,420.07646 114.1429,457.21932"
             style="fill:none;stroke:#000000;stroke-width:1px;stroke-linecap:butt;stroke-linejoin:miter;stroke-opacity:1;marker-end:url(#Arrow1Lend)" />
          <text
             sodipodi:linespacing="125%"
             id="text4389"
             y="408.93359"
             x="-105.28567"
             style="font-size:36px;font-style:normal;font-variant:normal;font-weight:normal;font-stretch:normal;line-height:125%;letter-spacing:0px;word-spacing:0px;fill:#000000;fill-opacity:1;stroke:none;font-family:Garuda;-inkscape-font-specification:Garuda"
             xml:space="preserve"><tspan
               style="font-size:24px"
               y="408.93359"
               x="-105.28567"
               id="tspan4391"
               sodipodi:role="line">project annotations</tspan></text>
        </g>
      </g>
      <flowRoot
         transform="translate(-413.06346,28.285714)"
         style="font-size:36px;font-style:normal;font-variant:normal;font-weight:normal;font-stretch:normal;line-height:125%;letter-spacing:0px;word-spacing:0px;fill:#000000;fill-opacity:1;stroke:none;font-family:Garuda;-inkscape-font-specification:Garuda"
         id="flowRoot5235"
         xml:space="preserve"><flowRegion
           id="flowRegion5237"><rect
             y="152.36218"
             x="47.142857"
             height="51.428566"
             width="727.14288"
             id="rect5239" /></flowRegion><flowPara
           style="font-size:32px;font-weight:bold;-inkscape-font-specification:Garuda Bold"
           id="flowPara5241">(2) Create Parallel Supersense-tagged Corpora</flowPara></flowRoot>      <g
         id="g5554">
        <rect
           style="fill:#ff0000;fill-opacity:0.18823529;stroke:#ff0000;stroke-width:0.97318077;stroke-linecap:butt;stroke-linejoin:miter;stroke-miterlimit:4;stroke-opacity:0.77647059;stroke-dasharray:none;stroke-dashoffset:0"
           id="rect4393-4"
           width="695.98511"
           height="264.55655"
           x="-367.42111"
           y="-90.630371"
           ry="7.3525123e-05" />
        <g
           id="g3828-2"
           transform="matrix(0.78056681,0,0,0.69290572,-379.59933,-190.79286)">
          <rect
             ry="0.00010799114"
             y="291.71732"
             x="78.791901"
             height="208.09143"
             width="148.49243"
             id="rect2985-2"
             style="fill:#ffffff;fill-opacity:1;stroke:#000000;stroke-width:1.24399996;stroke-linecap:butt;stroke-linejoin:miter;stroke-miterlimit:4;stroke-opacity:1;stroke-dasharray:none;stroke-dashoffset:0" />
          <rect
             ry="0.00010799114"
             y="307.88007"
             x="90.408661"
             height="1.0101526"
             width="125.25892"
             id="rect3755-8"
             style="fill:#ffffff;fill-opacity:1;stroke:#000000;stroke-width:1.24399996;stroke-linecap:butt;stroke-linejoin:miter;stroke-miterlimit:4;stroke-opacity:1;stroke-dasharray:none;stroke-dashoffset:0" />
          <rect
             ry="0.00010799114"
             y="323.32916"
             x="90.408661"
             height="1.0101526"
             width="125.25892"
             id="rect3755-3-9"
             style="fill:#ffffff;fill-opacity:1;stroke:#000000;stroke-width:1.24399996;stroke-linecap:butt;stroke-linejoin:miter;stroke-miterlimit:4;stroke-opacity:1;stroke-dasharray:none;stroke-dashoffset:0" />
          <rect
             ry="0.00010799114"
             y="338.77826"
             x="90.408661"
             height="1.0101526"
             width="125.25892"
             id="rect3755-6-7"
             style="fill:#ffffff;fill-opacity:1;stroke:#000000;stroke-width:1.24399996;stroke-linecap:butt;stroke-linejoin:miter;stroke-miterlimit:4;stroke-opacity:1;stroke-dasharray:none;stroke-dashoffset:0" />
          <rect
             ry="0.00010799114"
             y="354.22736"
             x="90.408661"
             height="1.0101526"
             width="125.25892"
             id="rect3755-7-3"
             style="fill:#ffffff;fill-opacity:1;stroke:#000000;stroke-width:1.24399996;stroke-linecap:butt;stroke-linejoin:miter;stroke-miterlimit:4;stroke-opacity:1;stroke-dasharray:none;stroke-dashoffset:0" />
          <rect
             ry="0.00010799114"
             y="369.67645"
             x="90.408661"
             height="1.0101526"
             width="125.25892"
             id="rect3755-3-5-61"
             style="fill:#ffffff;fill-opacity:1;stroke:#000000;stroke-width:1.24399996;stroke-linecap:butt;stroke-linejoin:miter;stroke-miterlimit:4;stroke-opacity:1;stroke-dasharray:none;stroke-dashoffset:0" />
          <rect
             ry="0.00010799114"
             y="385.12555"
             x="90.408661"
             height="1.0101526"
             width="125.25892"
             id="rect3755-6-3-2"
             style="fill:#ffffff;fill-opacity:1;stroke:#000000;stroke-width:1.24399996;stroke-linecap:butt;stroke-linejoin:miter;stroke-miterlimit:4;stroke-opacity:1;stroke-dasharray:none;stroke-dashoffset:0" />
          <rect
             ry="0.00010799114"
             y="400.57465"
             x="90.408661"
             height="1.0101526"
             width="125.25892"
             id="rect3755-5-9"
             style="fill:#ffffff;fill-opacity:1;stroke:#000000;stroke-width:1.24399996;stroke-linecap:butt;stroke-linejoin:miter;stroke-miterlimit:4;stroke-opacity:1;stroke-dasharray:none;stroke-dashoffset:0" />
          <rect
             ry="0.00010799114"
             y="416.02374"
             x="90.408661"
             height="1.0101526"
             width="125.25892"
             id="rect3755-3-6-3"
             style="fill:#ffffff;fill-opacity:1;stroke:#000000;stroke-width:1.24399996;stroke-linecap:butt;stroke-linejoin:miter;stroke-miterlimit:4;stroke-opacity:1;stroke-dasharray:none;stroke-dashoffset:0" />
          <rect
             ry="0.00010799114"
             y="431.47284"
             x="90.408661"
             height="1.0101526"
             width="125.25892"
             id="rect3755-6-2-1"
             style="fill:#ffffff;fill-opacity:1;stroke:#000000;stroke-width:1.24399996;stroke-linecap:butt;stroke-linejoin:miter;stroke-miterlimit:4;stroke-opacity:1;stroke-dasharray:none;stroke-dashoffset:0" />
          <rect
             ry="0.00010799114"
             y="446.92194"
             x="90.408661"
             height="1.0101526"
             width="125.25892"
             id="rect3755-9-9"
             style="fill:#ffffff;fill-opacity:1;stroke:#000000;stroke-width:1.24399996;stroke-linecap:butt;stroke-linejoin:miter;stroke-miterlimit:4;stroke-opacity:1;stroke-dasharray:none;stroke-dashoffset:0" />
          <rect
             ry="0.00010799114"
             y="462.37103"
             x="90.408661"
             height="1.0101526"
             width="125.25892"
             id="rect3755-3-1-4"
             style="fill:#ffffff;fill-opacity:1;stroke:#000000;stroke-width:1.24399996;stroke-linecap:butt;stroke-linejoin:miter;stroke-miterlimit:4;stroke-opacity:1;stroke-dasharray:none;stroke-dashoffset:0" />
          <rect
             ry="0.00010799114"
             y="477.82013"
             x="90.408661"
             height="1.0101526"
             width="125.25892"
             id="rect3755-6-27-7"
             style="fill:#ffffff;fill-opacity:1;stroke:#000000;stroke-width:1.24399996;stroke-linecap:butt;stroke-linejoin:miter;stroke-miterlimit:4;stroke-opacity:1;stroke-dasharray:none;stroke-dashoffset:0" />
        </g>
        <g
           id="g3828-2-8"
           transform="matrix(0.78056681,0,0,0.69290572,86.829241,-190.79286)">
          <rect
             ry="0.00010799114"
             y="291.71732"
             x="78.791901"
             height="208.09143"
             width="148.49243"
             id="rect2985-2-4"
             style="fill:#ffffff;fill-opacity:1;stroke:#000000;stroke-width:1.24399996;stroke-linecap:butt;stroke-linejoin:miter;stroke-miterlimit:4;stroke-opacity:1;stroke-dasharray:none;stroke-dashoffset:0" />
          <rect
             ry="0.00010799114"
             y="307.88007"
             x="90.408661"
             height="1.0101526"
             width="125.25892"
             id="rect3755-8-5"
             style="fill:#ffffff;fill-opacity:1;stroke:#000000;stroke-width:1.24399996;stroke-linecap:butt;stroke-linejoin:miter;stroke-miterlimit:4;stroke-opacity:1;stroke-dasharray:none;stroke-dashoffset:0" />
          <rect
             ry="0.00010799114"
             y="323.32916"
             x="90.408661"
             height="1.0101526"
             width="125.25892"
             id="rect3755-3-9-0"
             style="fill:#ffffff;fill-opacity:1;stroke:#000000;stroke-width:1.24399996;stroke-linecap:butt;stroke-linejoin:miter;stroke-miterlimit:4;stroke-opacity:1;stroke-dasharray:none;stroke-dashoffset:0" />
          <rect
             ry="0.00010799114"
             y="338.77826"
             x="90.408661"
             height="1.0101526"
             width="125.25892"
             id="rect3755-6-7-3"
             style="fill:#ffffff;fill-opacity:1;stroke:#000000;stroke-width:1.24399996;stroke-linecap:butt;stroke-linejoin:miter;stroke-miterlimit:4;stroke-opacity:1;stroke-dasharray:none;stroke-dashoffset:0" />
          <rect
             ry="0.00010799114"
             y="354.22736"
             x="90.408661"
             height="1.0101526"
             width="125.25892"
             id="rect3755-7-3-6"
             style="fill:#ffffff;fill-opacity:1;stroke:#000000;stroke-width:1.24399996;stroke-linecap:butt;stroke-linejoin:miter;stroke-miterlimit:4;stroke-opacity:1;stroke-dasharray:none;stroke-dashoffset:0" />
          <rect
             ry="0.00010799114"
             y="369.67645"
             x="90.408661"
             height="1.0101526"
             width="125.25892"
             id="rect3755-3-5-61-1"
             style="fill:#ffffff;fill-opacity:1;stroke:#000000;stroke-width:1.24399996;stroke-linecap:butt;stroke-linejoin:miter;stroke-miterlimit:4;stroke-opacity:1;stroke-dasharray:none;stroke-dashoffset:0" />
          <rect
             ry="0.00010799114"
             y="385.12555"
             x="90.408661"
             height="1.0101526"
             width="125.25892"
             id="rect3755-6-3-2-0"
             style="fill:#ffffff;fill-opacity:1;stroke:#000000;stroke-width:1.24399996;stroke-linecap:butt;stroke-linejoin:miter;stroke-miterlimit:4;stroke-opacity:1;stroke-dasharray:none;stroke-dashoffset:0" />
          <rect
             ry="0.00010799114"
             y="400.57465"
             x="90.408661"
             height="1.0101526"
             width="125.25892"
             id="rect3755-5-9-6"
             style="fill:#ffffff;fill-opacity:1;stroke:#000000;stroke-width:1.24399996;stroke-linecap:butt;stroke-linejoin:miter;stroke-miterlimit:4;stroke-opacity:1;stroke-dasharray:none;stroke-dashoffset:0" />
          <rect
             ry="0.00010799114"
             y="416.02374"
             x="90.408661"
             height="1.0101526"
             width="125.25892"
             id="rect3755-3-6-3-3"
             style="fill:#ffffff;fill-opacity:1;stroke:#000000;stroke-width:1.24399996;stroke-linecap:butt;stroke-linejoin:miter;stroke-miterlimit:4;stroke-opacity:1;stroke-dasharray:none;stroke-dashoffset:0" />
          <rect
             ry="0.00010799114"
             y="431.47284"
             x="90.408661"
             height="1.0101526"
             width="125.25892"
             id="rect3755-6-2-1-2"
             style="fill:#ffffff;fill-opacity:1;stroke:#000000;stroke-width:1.24399996;stroke-linecap:butt;stroke-linejoin:miter;stroke-miterlimit:4;stroke-opacity:1;stroke-dasharray:none;stroke-dashoffset:0" />
          <rect
             ry="0.00010799114"
             y="446.92194"
             x="90.408661"
             height="1.0101526"
             width="125.25892"
             id="rect3755-9-9-0"
             style="fill:#ffffff;fill-opacity:1;stroke:#000000;stroke-width:1.24399996;stroke-linecap:butt;stroke-linejoin:miter;stroke-miterlimit:4;stroke-opacity:1;stroke-dasharray:none;stroke-dashoffset:0" />
          <rect
             ry="0.00010799114"
             y="462.37103"
             x="90.408661"
             height="1.0101526"
             width="125.25892"
             id="rect3755-3-1-4-6"
             style="fill:#ffffff;fill-opacity:1;stroke:#000000;stroke-width:1.24399996;stroke-linecap:butt;stroke-linejoin:miter;stroke-miterlimit:4;stroke-opacity:1;stroke-dasharray:none;stroke-dashoffset:0" />
          <rect
             ry="0.00010799114"
             y="477.82013"
             x="90.408661"
             height="1.0101526"
             width="125.25892"
             id="rect3755-6-27-7-1"
             style="fill:#ffffff;fill-opacity:1;stroke:#000000;stroke-width:1.24399996;stroke-linecap:butt;stroke-linejoin:miter;stroke-miterlimit:4;stroke-opacity:1;stroke-dasharray:none;stroke-dashoffset:0" />
        </g>
        <g
           id="g4854"
           transform="translate(-396.14285,-675.71429)">
          <rect
             ry="8.5811225e-05"
             y="601.2193"
             x="283.14285"
             height="81.428574"
             width="170"
             id="rect4591"
             style="fill:#c8555a;fill-opacity:1;stroke:#c8555a;stroke-width:1.24399996;stroke-linecap:butt;stroke-linejoin:miter;stroke-miterlimit:4;stroke-opacity:1;stroke-dasharray:none;stroke-dashoffset:0" />
          <text
             sodipodi:linespacing="125%"
             id="text4593"
             y="648.36218"
             x="304.28571"
             style="font-size:36px;font-style:normal;font-variant:normal;font-weight:normal;font-stretch:normal;line-height:125%;letter-spacing:0px;word-spacing:0px;fill:#000000;fill-opacity:1;stroke:none;font-family:Garuda;-inkscape-font-specification:Garuda"
             xml:space="preserve"><tspan
               style="font-style:normal;font-variant:normal;font-weight:bold;font-stretch:normal;font-family:KacstBook;-inkscape-font-specification:KacstBook Bold"
               y="648.36218"
               x="304.28571"
               id="tspan4595"
               sodipodi:role="line">Moses</tspan></text>
        </g>
        <text
           xml:space="preserve"
           style="font-size:36px;font-style:normal;font-variant:normal;font-weight:normal;font-stretch:normal;line-height:125%;letter-spacing:0px;word-spacing:0px;fill:#000000;fill-opacity:1;stroke:none;font-family:Garuda;-inkscape-font-specification:Garuda"
           x="-355.71429"
           y="-2.7807007"
           id="text4597"
           sodipodi:linespacing="125%"><tspan
             sodipodi:role="line"
             id="tspan4599"
             x="-355.71429"
             y="-2.7807007"
             style="font-size:20px">EN - Wikipedia corpus</tspan></text>
        <text
           xml:space="preserve"
           style="font-size:36px;font-style:normal;font-variant:normal;font-weight:normal;font-stretch:normal;line-height:125%;letter-spacing:0px;word-spacing:0px;fill:#000000;fill-opacity:1;stroke:none;font-family:Garuda;-inkscape-font-specification:Garuda"
           x="112.84781"
           y="-1.0392456"
           id="text4597-1"
           sodipodi:linespacing="125%"><tspan
             sodipodi:role="line"
             id="tspan4599-0"
             x="112.84781"
             y="-1.0392456"
             style="font-size:20px">ES - Wikipedia corpus</tspan></text>
        <g
           id="g4859"
           transform="translate(-390.85714,-675.71429)">
          <path
             inkscape:connector-curvature="0"
             id="path4622"
             d="M 200,788.07647 C 317.14286,696.6479 317.14286,696.6479 317.14286,696.6479"
             style="fill:none;stroke:#000000;stroke-width:1px;stroke-linecap:butt;stroke-linejoin:miter;stroke-opacity:1;marker-end:url(#Arrow1Lend)" />
          <path
             inkscape:connector-curvature="0"
             id="path4622-6"
             d="M 525.71429,788.6479 C 408.57143,697.21933 408.57143,697.21933 408.57143,697.21933"
             style="fill:none;stroke:#000000;stroke-width:1px;stroke-linecap:butt;stroke-linejoin:miter;stroke-opacity:1;marker-end:url(#Arrow1Lend)" />
        </g>
      </g>
      <flowRoot
         transform="translate(-413.06346,-276.50196)"
         style="font-size:36px;font-style:normal;font-variant:normal;font-weight:normal;font-stretch:normal;line-height:125%;letter-spacing:0px;word-spacing:0px;fill:#000000;fill-opacity:1;stroke:none;font-family:Garuda;-inkscape-font-specification:Garuda"
         id="flowRoot5235-0"
         xml:space="preserve"><flowRegion
           id="flowRegion5237-2"><rect
             y="152.36218"
             x="47.142857"
             height="51.428566"
             width="727.14288"
             id="rect5239-9" /></flowRegion><flowPara
           style="font-size:32px;font-weight:bold;-inkscape-font-specification:Garuda Bold"
           id="flowPara5241-0">(1) Train SMT System</flowPara></flowRoot>      <flowRoot
         transform="translate(-413.06346,385.254)"
         style="font-size:36px;font-style:normal;font-variant:normal;font-weight:normal;font-stretch:normal;line-height:125%;letter-spacing:0px;word-spacing:0px;fill:#000000;fill-opacity:1;stroke:none;font-family:Garuda;-inkscape-font-specification:Garuda"
         id="flowRoot5235-03"
         xml:space="preserve"><flowRegion
           id="flowRegion5237-6"><rect
             y="152.36218"
             x="47.142857"
             height="51.428566"
             width="727.14288"
             id="rect5239-1" /></flowRegion><flowPara
           style="font-size:32px;font-weight:bold;-inkscape-font-specification:Garuda Bold"
           id="flowPara5241-06">(3) Train Bilingual Sentiment Embeddings</flowPara></flowRoot>      <g
         transform="translate(47.983942,0)"
         id="g5200">
        <g
           id="g5022"
           transform="translate(-42.341425,0)">
          <rect
             ry="8.5811225e-05"
             y="572.09125"
             x="-373.02457"
             height="308.76416"
             width="695.90698"
             id="rect4393-5"
             style="fill:#00ef00;fill-opacity:0.27397263;stroke:#0005ff;stroke-width:1.05129194;stroke-linecap:butt;stroke-linejoin:miter;stroke-miterlimit:4;stroke-opacity:0.39215686;stroke-dasharray:none;stroke-dashoffset:0" />
          <g
             transform="translate(-18,80)"
             id="g4972">
            <g
               id="g4550-4"
               transform="translate(228.60508,-58.309758)">
              <rect
                 ry="0.00010799114"
                 y="642.97131"
                 x="-309.92236"
                 height="208.09143"
                 width="148.49243"
                 id="rect2985-5-9"
                 style="fill:#ffffff;fill-opacity:1;stroke:#000000;stroke-width:1.24399996;stroke-linecap:butt;stroke-linejoin:miter;stroke-miterlimit:4;stroke-opacity:1;stroke-dasharray:none;stroke-dashoffset:0" />
              <path
                 d="m -285.35715,676.11218 c 0,1.47934 -1.11929,2.67857 -2.5,2.67857 -1.38071,0 -2.5,-1.19923 -2.5,-2.67857 0,-1.47933 1.11929,-2.67857 2.5,-2.67857 1.38071,0 2.5,1.19924 2.5,2.67857 z"
                 sodipodi:ry="2.6785715"
                 sodipodi:rx="2.5"
                 sodipodi:cy="676.11218"
                 sodipodi:cx="-287.85715"
                 id="path4383-09"
                 style="fill:#ff0000;fill-opacity:1;stroke:#ff0000;stroke-width:1.24399996;stroke-linecap:butt;stroke-linejoin:miter;stroke-miterlimit:4;stroke-opacity:1;stroke-dasharray:none;stroke-dashoffset:0"
                 sodipodi:type="arc" />
              <path
                 d="m -285.35715,676.11218 c 0,1.47934 -1.11929,2.67857 -2.5,2.67857 -1.38071,0 -2.5,-1.19923 -2.5,-2.67857 0,-1.47933 1.11929,-2.67857 2.5,-2.67857 1.38071,0 2.5,1.19924 2.5,2.67857 z"
                 sodipodi:ry="2.6785715"
                 sodipodi:rx="2.5"
                 sodipodi:cy="676.11218"
                 sodipodi:cx="-287.85715"
                 id="path4383-3-1"
                 style="fill:#ff0000;fill-opacity:1;stroke:#ff0000;stroke-width:1.24399996;stroke-linecap:butt;stroke-linejoin:miter;stroke-miterlimit:4;stroke-opacity:1;stroke-dasharray:none;stroke-dashoffset:0"
                 sodipodi:type="arc"
                 transform="translate(16.071433,1.2499996)" />
              <path
                 d="m -285.35715,676.11218 c 0,1.47934 -1.11929,2.67857 -2.5,2.67857 -1.38071,0 -2.5,-1.19923 -2.5,-2.67857 0,-1.47933 1.11929,-2.67857 2.5,-2.67857 1.38071,0 2.5,1.19924 2.5,2.67857 z"
                 sodipodi:ry="2.6785715"
                 sodipodi:rx="2.5"
                 sodipodi:cy="676.11218"
                 sodipodi:cx="-287.85715"
                 id="path4383-2-7"
                 style="fill:#ff0000;fill-opacity:1;stroke:#ff0000;stroke-width:1.24399996;stroke-linecap:butt;stroke-linejoin:miter;stroke-miterlimit:4;stroke-opacity:1;stroke-dasharray:none;stroke-dashoffset:0"
                 sodipodi:type="arc"
                 transform="translate(8.5714326,5.8928568)" />
              <path
                 d="m -285.35715,676.11218 c 0,1.47934 -1.11929,2.67857 -2.5,2.67857 -1.38071,0 -2.5,-1.19923 -2.5,-2.67857 0,-1.47933 1.11929,-2.67857 2.5,-2.67857 1.38071,0 2.5,1.19924 2.5,2.67857 z"
                 sodipodi:ry="2.6785715"
                 sodipodi:rx="2.5"
                 sodipodi:cy="676.11218"
                 sodipodi:cx="-287.85715"
                 id="path4383-0-7"
                 style="fill:#ff0000;fill-opacity:1;stroke:#ff0000;stroke-width:1.24399996;stroke-linecap:butt;stroke-linejoin:miter;stroke-miterlimit:4;stroke-opacity:1;stroke-dasharray:none;stroke-dashoffset:0"
                 sodipodi:type="arc"
                 transform="translate(-0.71428166,40.178571)" />
              <path
                 d="m -285.35715,676.11218 c 0,1.47934 -1.11929,2.67857 -2.5,2.67857 -1.38071,0 -2.5,-1.19923 -2.5,-2.67857 0,-1.47933 1.11929,-2.67857 2.5,-2.67857 1.38071,0 2.5,1.19924 2.5,2.67857 z"
                 sodipodi:ry="2.6785715"
                 sodipodi:rx="2.5"
                 sodipodi:cy="676.11218"
                 sodipodi:cx="-287.85715"
                 id="path4383-6-1"
                 style="fill:#ff0000;fill-opacity:1;stroke:#ff0000;stroke-width:1.24399996;stroke-linecap:butt;stroke-linejoin:miter;stroke-miterlimit:4;stroke-opacity:1;stroke-dasharray:none;stroke-dashoffset:0"
                 sodipodi:type="arc"
                 transform="translate(27.857147,39.107143)" />
              <path
                 d="m -285.35715,676.11218 c 0,1.47934 -1.11929,2.67857 -2.5,2.67857 -1.38071,0 -2.5,-1.19923 -2.5,-2.67857 0,-1.47933 1.11929,-2.67857 2.5,-2.67857 1.38071,0 2.5,1.19924 2.5,2.67857 z"
                 sodipodi:ry="2.6785715"
                 sodipodi:rx="2.5"
                 sodipodi:cy="676.11218"
                 sodipodi:cx="-287.85715"
                 id="path4383-1-1"
                 style="fill:#ff0000;fill-opacity:1;stroke:#ff0000;stroke-width:1.24399996;stroke-linecap:butt;stroke-linejoin:miter;stroke-miterlimit:4;stroke-opacity:1;stroke-dasharray:none;stroke-dashoffset:0"
                 sodipodi:type="arc"
                 transform="translate(35.000004,23.392857)" />
              <path
                 d="m -285.35715,676.11218 c 0,1.47934 -1.11929,2.67857 -2.5,2.67857 -1.38071,0 -2.5,-1.19923 -2.5,-2.67857 0,-1.47933 1.11929,-2.67857 2.5,-2.67857 1.38071,0 2.5,1.19924 2.5,2.67857 z"
                 sodipodi:ry="2.6785715"
                 sodipodi:rx="2.5"
                 sodipodi:cy="676.11218"
                 sodipodi:cx="-287.85715"
                 id="path4383-5-5"
                 style="fill:#ff0000;fill-opacity:1;stroke:#ff0000;stroke-width:1.24399996;stroke-linecap:butt;stroke-linejoin:miter;stroke-miterlimit:4;stroke-opacity:1;stroke-dasharray:none;stroke-dashoffset:0"
                 sodipodi:type="arc"
                 transform="translate(65.357147,64.107143)" />
              <path
                 d="m -285.35715,676.11218 c 0,1.47934 -1.11929,2.67857 -2.5,2.67857 -1.38071,0 -2.5,-1.19923 -2.5,-2.67857 0,-1.47933 1.11929,-2.67857 2.5,-2.67857 1.38071,0 2.5,1.19924 2.5,2.67857 z"
                 sodipodi:ry="2.6785715"
                 sodipodi:rx="2.5"
                 sodipodi:cy="676.11218"
                 sodipodi:cx="-287.85715"
                 id="path4383-54-9"
                 style="fill:#ff0000;fill-opacity:1;stroke:#ff0000;stroke-width:1.24399996;stroke-linecap:butt;stroke-linejoin:miter;stroke-miterlimit:4;stroke-opacity:1;stroke-dasharray:none;stroke-dashoffset:0"
                 sodipodi:type="arc"
                 transform="translate(42.857147,83.035714)" />
              <path
                 d="m -285.35715,676.11218 c 0,1.47934 -1.11929,2.67857 -2.5,2.67857 -1.38071,0 -2.5,-1.19923 -2.5,-2.67857 0,-1.47933 1.11929,-2.67857 2.5,-2.67857 1.38071,0 2.5,1.19924 2.5,2.67857 z"
                 sodipodi:ry="2.6785715"
                 sodipodi:rx="2.5"
                 sodipodi:cy="676.11218"
                 sodipodi:cx="-287.85715"
                 id="path4383-7-7"
                 style="fill:#ff0000;fill-opacity:1;stroke:#ff0000;stroke-width:1.24399996;stroke-linecap:butt;stroke-linejoin:miter;stroke-miterlimit:4;stroke-opacity:1;stroke-dasharray:none;stroke-dashoffset:0"
                 sodipodi:type="arc"
                 transform="translate(23.571433,89.821428)" />
              <path
                 d="m -285.35715,676.11218 c 0,1.47934 -1.11929,2.67857 -2.5,2.67857 -1.38071,0 -2.5,-1.19923 -2.5,-2.67857 0,-1.47933 1.11929,-2.67857 2.5,-2.67857 1.38071,0 2.5,1.19924 2.5,2.67857 z"
                 sodipodi:ry="2.6785715"
                 sodipodi:rx="2.5"
                 sodipodi:cy="676.11218"
                 sodipodi:cx="-287.85715"
                 id="path4383-65-76"
                 style="fill:#ff0000;fill-opacity:1;stroke:#ff0000;stroke-width:1.24399996;stroke-linecap:butt;stroke-linejoin:miter;stroke-miterlimit:4;stroke-opacity:1;stroke-dasharray:none;stroke-dashoffset:0"
                 sodipodi:type="arc"
                 transform="translate(-2.4999959,94.464285)" />
              <path
                 d="m -285.35715,676.11218 c 0,1.47934 -1.11929,2.67857 -2.5,2.67857 -1.38071,0 -2.5,-1.19923 -2.5,-2.67857 0,-1.47933 1.11929,-2.67857 2.5,-2.67857 1.38071,0 2.5,1.19924 2.5,2.67857 z"
                 sodipodi:ry="2.6785715"
                 sodipodi:rx="2.5"
                 sodipodi:cy="676.11218"
                 sodipodi:cx="-287.85715"
                 id="path4383-69-7"
                 style="fill:#ff0000;fill-opacity:1;stroke:#ff0000;stroke-width:1.24399996;stroke-linecap:butt;stroke-linejoin:miter;stroke-miterlimit:4;stroke-opacity:1;stroke-dasharray:none;stroke-dashoffset:0"
                 sodipodi:type="arc"
                 transform="translate(6.0714326,98.035714)" />
              <path
                 d="m -285.35715,676.11218 c 0,1.47934 -1.11929,2.67857 -2.5,2.67857 -1.38071,0 -2.5,-1.19923 -2.5,-2.67857 0,-1.47933 1.11929,-2.67857 2.5,-2.67857 1.38071,0 2.5,1.19924 2.5,2.67857 z"
                 sodipodi:ry="2.6785715"
                 sodipodi:rx="2.5"
                 sodipodi:cy="676.11218"
                 sodipodi:cx="-287.85715"
                 id="path4383-37-3"
                 style="fill:#ff0000;fill-opacity:1;stroke:#ff0000;stroke-width:1.24399996;stroke-linecap:butt;stroke-linejoin:miter;stroke-miterlimit:4;stroke-opacity:1;stroke-dasharray:none;stroke-dashoffset:0"
                 sodipodi:type="arc"
                 transform="translate(5.3571469,86.964285)" />
              <path
                 d="m -285.35715,676.11218 c 0,1.47934 -1.11929,2.67857 -2.5,2.67857 -1.38071,0 -2.5,-1.19923 -2.5,-2.67857 0,-1.47933 1.11929,-2.67857 2.5,-2.67857 1.38071,0 2.5,1.19924 2.5,2.67857 z"
                 sodipodi:ry="2.6785715"
                 sodipodi:rx="2.5"
                 sodipodi:cy="676.11218"
                 sodipodi:cx="-287.85715"
                 id="path4383-4-6"
                 style="fill:#ff0000;fill-opacity:1;stroke:#ff0000;stroke-width:1.24399996;stroke-linecap:butt;stroke-linejoin:miter;stroke-miterlimit:4;stroke-opacity:1;stroke-dasharray:none;stroke-dashoffset:0"
                 sodipodi:type="arc"
                 transform="translate(80.71429,14.821429)" />
              <path
                 d="m -285.35715,676.11218 c 0,1.47934 -1.11929,2.67857 -2.5,2.67857 -1.38071,0 -2.5,-1.19923 -2.5,-2.67857 0,-1.47933 1.11929,-2.67857 2.5,-2.67857 1.38071,0 2.5,1.19924 2.5,2.67857 z"
                 sodipodi:ry="2.6785715"
                 sodipodi:rx="2.5"
                 sodipodi:cy="676.11218"
                 sodipodi:cx="-287.85715"
                 id="path4383-52-5"
                 style="fill:#ff0000;fill-opacity:1;stroke:#ff0000;stroke-width:1.24399996;stroke-linecap:butt;stroke-linejoin:miter;stroke-miterlimit:4;stroke-opacity:1;stroke-dasharray:none;stroke-dashoffset:0"
                 sodipodi:type="arc"
                 transform="translate(87.857147,11.964286)" />
              <path
                 d="m -285.35715,676.11218 c 0,1.47934 -1.11929,2.67857 -2.5,2.67857 -1.38071,0 -2.5,-1.19923 -2.5,-2.67857 0,-1.47933 1.11929,-2.67857 2.5,-2.67857 1.38071,0 2.5,1.19924 2.5,2.67857 z"
                 sodipodi:ry="2.6785715"
                 sodipodi:rx="2.5"
                 sodipodi:cy="676.11218"
                 sodipodi:cx="-287.85715"
                 id="path4383-547-6"
                 style="fill:#ff0000;fill-opacity:1;stroke:#ff0000;stroke-width:1.24399996;stroke-linecap:butt;stroke-linejoin:miter;stroke-miterlimit:4;stroke-opacity:1;stroke-dasharray:none;stroke-dashoffset:0"
                 sodipodi:type="arc"
                 transform="translate(83.571433,3.3928571)" />
              <path
                 d="m -285.35715,676.11218 c 0,1.47934 -1.11929,2.67857 -2.5,2.67857 -1.38071,0 -2.5,-1.19923 -2.5,-2.67857 0,-1.47933 1.11929,-2.67857 2.5,-2.67857 1.38071,0 2.5,1.19924 2.5,2.67857 z"
                 sodipodi:ry="2.6785715"
                 sodipodi:rx="2.5"
                 sodipodi:cy="676.11218"
                 sodipodi:cx="-287.85715"
                 id="path4383-44-3"
                 style="fill:#ff0000;fill-opacity:1;stroke:#ff0000;stroke-width:1.24399996;stroke-linecap:butt;stroke-linejoin:miter;stroke-miterlimit:4;stroke-opacity:1;stroke-dasharray:none;stroke-dashoffset:0"
                 sodipodi:type="arc"
                 transform="translate(109.28572,-9.4642857)" />
              <path
                 d="m -285.35715,676.11218 c 0,1.47934 -1.11929,2.67857 -2.5,2.67857 -1.38071,0 -2.5,-1.19923 -2.5,-2.67857 0,-1.47933 1.11929,-2.67857 2.5,-2.67857 1.38071,0 2.5,1.19924 2.5,2.67857 z"
                 sodipodi:ry="2.6785715"
                 sodipodi:rx="2.5"
                 sodipodi:cy="676.11218"
                 sodipodi:cx="-287.85715"
                 id="path4383-30-9"
                 style="fill:#ff0000;fill-opacity:1;stroke:#ff0000;stroke-width:1.24399996;stroke-linecap:butt;stroke-linejoin:miter;stroke-miterlimit:4;stroke-opacity:1;stroke-dasharray:none;stroke-dashoffset:0"
                 sodipodi:type="arc"
                 transform="translate(99.285719,113.39286)" />
              <path
                 d="m -285.35715,676.11218 c 0,1.47934 -1.11929,2.67857 -2.5,2.67857 -1.38071,0 -2.5,-1.19923 -2.5,-2.67857 0,-1.47933 1.11929,-2.67857 2.5,-2.67857 1.38071,0 2.5,1.19924 2.5,2.67857 z"
                 sodipodi:ry="2.6785715"
                 sodipodi:rx="2.5"
                 sodipodi:cy="676.11218"
                 sodipodi:cx="-287.85715"
                 id="path4383-78-4"
                 style="fill:#ff0000;fill-opacity:1;stroke:#ff0000;stroke-width:1.24399996;stroke-linecap:butt;stroke-linejoin:miter;stroke-miterlimit:4;stroke-opacity:1;stroke-dasharray:none;stroke-dashoffset:0"
                 sodipodi:type="arc"
                 transform="translate(75.000004,136.25)" />
              <path
                 d="m -285.35715,676.11218 c 0,1.47934 -1.11929,2.67857 -2.5,2.67857 -1.38071,0 -2.5,-1.19923 -2.5,-2.67857 0,-1.47933 1.11929,-2.67857 2.5,-2.67857 1.38071,0 2.5,1.19924 2.5,2.67857 z"
                 sodipodi:ry="2.6785715"
                 sodipodi:rx="2.5"
                 sodipodi:cy="676.11218"
                 sodipodi:cx="-287.85715"
                 id="path4383-68-8"
                 style="fill:#ff0000;fill-opacity:1;stroke:#ff0000;stroke-width:1.24399996;stroke-linecap:butt;stroke-linejoin:miter;stroke-miterlimit:4;stroke-opacity:1;stroke-dasharray:none;stroke-dashoffset:0"
                 sodipodi:type="arc"
                 transform="translate(33.571433,126.25)" />
              <path
                 d="m -285.35715,676.11218 c 0,1.47934 -1.11929,2.67857 -2.5,2.67857 -1.38071,0 -2.5,-1.19923 -2.5,-2.67857 0,-1.47933 1.11929,-2.67857 2.5,-2.67857 1.38071,0 2.5,1.19924 2.5,2.67857 z"
                 sodipodi:ry="2.6785715"
                 sodipodi:rx="2.5"
                 sodipodi:cy="676.11218"
                 sodipodi:cx="-287.85715"
                 id="path4383-8-1"
                 style="fill:#ff0000;fill-opacity:1;stroke:#ff0000;stroke-width:1.24399996;stroke-linecap:butt;stroke-linejoin:miter;stroke-miterlimit:4;stroke-opacity:1;stroke-dasharray:none;stroke-dashoffset:0"
                 sodipodi:type="arc"
                 transform="translate(72.142862,136.25)" />
              <path
                 d="m -285.35715,676.11218 c 0,1.47934 -1.11929,2.67857 -2.5,2.67857 -1.38071,0 -2.5,-1.19923 -2.5,-2.67857 0,-1.47933 1.11929,-2.67857 2.5,-2.67857 1.38071,0 2.5,1.19924 2.5,2.67857 z"
                 sodipodi:ry="2.6785715"
                 sodipodi:rx="2.5"
                 sodipodi:cy="676.11218"
                 sodipodi:cx="-287.85715"
                 id="path4383-43-2"
                 style="fill:#ff0000;fill-opacity:1;stroke:#ff0000;stroke-width:1.24399996;stroke-linecap:butt;stroke-linejoin:miter;stroke-miterlimit:4;stroke-opacity:1;stroke-dasharray:none;stroke-dashoffset:0"
                 sodipodi:type="arc"
                 transform="matrix(1,0,0,-1,70.71429,1468.4744)" />
              <path
                 d="m -285.35715,676.11218 c 0,1.47934 -1.11929,2.67857 -2.5,2.67857 -1.38071,0 -2.5,-1.19923 -2.5,-2.67857 0,-1.47933 1.11929,-2.67857 2.5,-2.67857 1.38071,0 2.5,1.19924 2.5,2.67857 z"
                 sodipodi:ry="2.6785715"
                 sodipodi:rx="2.5"
                 sodipodi:cy="676.11218"
                 sodipodi:cx="-287.85715"
                 id="path4383-14-9"
                 style="fill:#ff0000;fill-opacity:1;stroke:#ff0000;stroke-width:1.24399996;stroke-linecap:butt;stroke-linejoin:miter;stroke-miterlimit:4;stroke-opacity:1;stroke-dasharray:none;stroke-dashoffset:0"
                 sodipodi:type="arc"
                 transform="translate(55.000004,140.53571)" />
              <path
                 d="m -285.35715,676.11218 c 0,1.47934 -1.11929,2.67857 -2.5,2.67857 -1.38071,0 -2.5,-1.19923 -2.5,-2.67857 0,-1.47933 1.11929,-2.67857 2.5,-2.67857 1.38071,0 2.5,1.19924 2.5,2.67857 z"
                 sodipodi:ry="2.6785715"
                 sodipodi:rx="2.5"
                 sodipodi:cy="676.11218"
                 sodipodi:cx="-287.85715"
                 id="path4383-9-3"
                 style="fill:#ff0000;fill-opacity:1;stroke:#ff0000;stroke-width:1.24399996;stroke-linecap:butt;stroke-linejoin:miter;stroke-miterlimit:4;stroke-opacity:1;stroke-dasharray:none;stroke-dashoffset:0"
                 sodipodi:type="arc"
                 transform="translate(6.4285758,150.53571)" />
            </g>
            <path
               sodipodi:type="arc"
               style="fill:#0000ff;fill-opacity:1;stroke:#0000ff;stroke-width:1.24399996;stroke-linecap:butt;stroke-linejoin:miter;stroke-miterlimit:4;stroke-opacity:1;stroke-dasharray:none;stroke-dashoffset:0"
               id="path4383-92-9"
               sodipodi:cx="-287.85715"
               sodipodi:cy="676.11218"
               sodipodi:rx="2.5"
               sodipodi:ry="2.6785715"
               d="m -285.35715,676.11218 c 0,1.47934 -1.11929,2.67857 -2.5,2.67857 -1.38071,0 -2.5,-1.19923 -2.5,-2.67857 0,-1.47933 1.11929,-2.67857 2.5,-2.67857 1.38071,0 2.5,1.19924 2.5,2.67857 z"
               transform="translate(221.37853,-61.25536)" />
            <path
               transform="translate(237.44996,-60.00536)"
               sodipodi:type="arc"
               style="fill:#0000ff;fill-opacity:1;stroke:#0000ff;stroke-width:1.24399996;stroke-linecap:butt;stroke-linejoin:miter;stroke-miterlimit:4;stroke-opacity:1;stroke-dasharray:none;stroke-dashoffset:0"
               id="path4383-3-6-0"
               sodipodi:cx="-287.85715"
               sodipodi:cy="676.11218"
               sodipodi:rx="2.5"
               sodipodi:ry="2.6785715"
               d="m -285.35715,676.11218 c 0,1.47934 -1.11929,2.67857 -2.5,2.67857 -1.38071,0 -2.5,-1.19923 -2.5,-2.67857 0,-1.47933 1.11929,-2.67857 2.5,-2.67857 1.38071,0 2.5,1.19924 2.5,2.67857 z" />
            <path
               transform="translate(229.94996,-67.3625)"
               sodipodi:type="arc"
               style="fill:#0000ff;fill-opacity:1;stroke:#0000ff;stroke-width:1.24399996;stroke-linecap:butt;stroke-linejoin:miter;stroke-miterlimit:4;stroke-opacity:1;stroke-dasharray:none;stroke-dashoffset:0"
               id="path4383-2-6-8"
               sodipodi:cx="-287.85715"
               sodipodi:cy="676.11218"
               sodipodi:rx="2.5"
               sodipodi:ry="2.6785715"
               d="m -285.35715,676.11218 c 0,1.47934 -1.11929,2.67857 -2.5,2.67857 -1.38071,0 -2.5,-1.19923 -2.5,-2.67857 0,-1.47933 1.11929,-2.67857 2.5,-2.67857 1.38071,0 2.5,1.19924 2.5,2.67857 z" />
            <path
               transform="translate(214.66425,-13.07679)"
               sodipodi:type="arc"
               style="fill:#0000ff;fill-opacity:1;stroke:#0000ff;stroke-width:1.24399996;stroke-linecap:butt;stroke-linejoin:miter;stroke-miterlimit:4;stroke-opacity:1;stroke-dasharray:none;stroke-dashoffset:0"
               id="path4383-0-4-8"
               sodipodi:cx="-287.85715"
               sodipodi:cy="676.11218"
               sodipodi:rx="2.5"
               sodipodi:ry="2.6785715"
               d="m -285.35715,676.11218 c 0,1.47934 -1.11929,2.67857 -2.5,2.67857 -1.38071,0 -2.5,-1.19923 -2.5,-2.67857 0,-1.47933 1.11929,-2.67857 2.5,-2.67857 1.38071,0 2.5,1.19924 2.5,2.67857 z" />
            <path
               transform="translate(249.23568,-22.14821)"
               sodipodi:type="arc"
               style="fill:#0000ff;fill-opacity:1;stroke:#0000ff;stroke-width:1.24399996;stroke-linecap:butt;stroke-linejoin:miter;stroke-miterlimit:4;stroke-opacity:1;stroke-dasharray:none;stroke-dashoffset:0"
               id="path4383-6-9-5"
               sodipodi:cx="-287.85715"
               sodipodi:cy="676.11218"
               sodipodi:rx="2.5"
               sodipodi:ry="2.6785715"
               d="m -285.35715,676.11218 c 0,1.47934 -1.11929,2.67857 -2.5,2.67857 -1.38071,0 -2.5,-1.19923 -2.5,-2.67857 0,-1.47933 1.11929,-2.67857 2.5,-2.67857 1.38071,0 2.5,1.19924 2.5,2.67857 z" />
            <path
               transform="translate(256.37853,-43.8625)"
               sodipodi:type="arc"
               style="fill:#0000ff;fill-opacity:1;stroke:#0000ff;stroke-width:1.24399996;stroke-linecap:butt;stroke-linejoin:miter;stroke-miterlimit:4;stroke-opacity:1;stroke-dasharray:none;stroke-dashoffset:0"
               id="path4383-1-5-0"
               sodipodi:cx="-287.85715"
               sodipodi:cy="676.11218"
               sodipodi:rx="2.5"
               sodipodi:ry="2.6785715"
               d="m -285.35715,676.11218 c 0,1.47934 -1.11929,2.67857 -2.5,2.67857 -1.38071,0 -2.5,-1.19923 -2.5,-2.67857 0,-1.47933 1.11929,-2.67857 2.5,-2.67857 1.38071,0 2.5,1.19924 2.5,2.67857 z" />
            <path
               transform="translate(292.73568,6.85179)"
               sodipodi:type="arc"
               style="fill:#0000ff;fill-opacity:1;stroke:#0000ff;stroke-width:1.24399996;stroke-linecap:butt;stroke-linejoin:miter;stroke-miterlimit:4;stroke-opacity:1;stroke-dasharray:none;stroke-dashoffset:0"
               id="path4383-5-0-9"
               sodipodi:cx="-287.85715"
               sodipodi:cy="676.11218"
               sodipodi:rx="2.5"
               sodipodi:ry="2.6785715"
               d="m -285.35715,676.11218 c 0,1.47934 -1.11929,2.67857 -2.5,2.67857 -1.38071,0 -2.5,-1.19923 -2.5,-2.67857 0,-1.47933 1.11929,-2.67857 2.5,-2.67857 1.38071,0 2.5,1.19924 2.5,2.67857 z" />
            <path
               transform="translate(270.23568,25.78036)"
               sodipodi:type="arc"
               style="fill:#0000ff;fill-opacity:1;stroke:#0000ff;stroke-width:1.24399996;stroke-linecap:butt;stroke-linejoin:miter;stroke-miterlimit:4;stroke-opacity:1;stroke-dasharray:none;stroke-dashoffset:0"
               id="path4383-54-4-6"
               sodipodi:cx="-287.85715"
               sodipodi:cy="676.11218"
               sodipodi:rx="2.5"
               sodipodi:ry="2.6785715"
               d="m -285.35715,676.11218 c 0,1.47934 -1.11929,2.67857 -2.5,2.67857 -1.38071,0 -2.5,-1.19923 -2.5,-2.67857 0,-1.47933 1.11929,-2.67857 2.5,-2.67857 1.38071,0 2.5,1.19924 2.5,2.67857 z" />
            <path
               transform="translate(250.94996,32.56607)"
               sodipodi:type="arc"
               style="fill:#0000ff;fill-opacity:1;stroke:#0000ff;stroke-width:1.24399996;stroke-linecap:butt;stroke-linejoin:miter;stroke-miterlimit:4;stroke-opacity:1;stroke-dasharray:none;stroke-dashoffset:0"
               id="path4383-7-8-3"
               sodipodi:cx="-287.85715"
               sodipodi:cy="676.11218"
               sodipodi:rx="2.5"
               sodipodi:ry="2.6785715"
               d="m -285.35715,676.11218 c 0,1.47934 -1.11929,2.67857 -2.5,2.67857 -1.38071,0 -2.5,-1.19923 -2.5,-2.67857 0,-1.47933 1.11929,-2.67857 2.5,-2.67857 1.38071,0 2.5,1.19924 2.5,2.67857 z" />
            <path
               transform="translate(224.87853,37.20893)"
               sodipodi:type="arc"
               style="fill:#0000ff;fill-opacity:1;stroke:#0000ff;stroke-width:1.24399996;stroke-linecap:butt;stroke-linejoin:miter;stroke-miterlimit:4;stroke-opacity:1;stroke-dasharray:none;stroke-dashoffset:0"
               id="path4383-65-7-8"
               sodipodi:cx="-287.85715"
               sodipodi:cy="676.11218"
               sodipodi:rx="2.5"
               sodipodi:ry="2.6785715"
               d="m -285.35715,676.11218 c 0,1.47934 -1.11929,2.67857 -2.5,2.67857 -1.38071,0 -2.5,-1.19923 -2.5,-2.67857 0,-1.47933 1.11929,-2.67857 2.5,-2.67857 1.38071,0 2.5,1.19924 2.5,2.67857 z" />
            <path
               transform="translate(233.44996,40.78036)"
               sodipodi:type="arc"
               style="fill:#0000ff;fill-opacity:1;stroke:#0000ff;stroke-width:1.24399996;stroke-linecap:butt;stroke-linejoin:miter;stroke-miterlimit:4;stroke-opacity:1;stroke-dasharray:none;stroke-dashoffset:0"
               id="path4383-69-1-5"
               sodipodi:cx="-287.85715"
               sodipodi:cy="676.11218"
               sodipodi:rx="2.5"
               sodipodi:ry="2.6785715"
               d="m -285.35715,676.11218 c 0,1.47934 -1.11929,2.67857 -2.5,2.67857 -1.38071,0 -2.5,-1.19923 -2.5,-2.67857 0,-1.47933 1.11929,-2.67857 2.5,-2.67857 1.38071,0 2.5,1.19924 2.5,2.67857 z" />
            <path
               transform="translate(232.73568,29.70893)"
               sodipodi:type="arc"
               style="fill:#0000ff;fill-opacity:1;stroke:#0000ff;stroke-width:1.24399996;stroke-linecap:butt;stroke-linejoin:miter;stroke-miterlimit:4;stroke-opacity:1;stroke-dasharray:none;stroke-dashoffset:0"
               id="path4383-37-7-6"
               sodipodi:cx="-287.85715"
               sodipodi:cy="676.11218"
               sodipodi:rx="2.5"
               sodipodi:ry="2.6785715"
               d="m -285.35715,676.11218 c 0,1.47934 -1.11929,2.67857 -2.5,2.67857 -1.38071,0 -2.5,-1.19923 -2.5,-2.67857 0,-1.47933 1.11929,-2.67857 2.5,-2.67857 1.38071,0 2.5,1.19924 2.5,2.67857 z" />
            <path
               transform="translate(302.09282,-46.43393)"
               sodipodi:type="arc"
               style="fill:#0000ff;fill-opacity:1;stroke:#0000ff;stroke-width:1.24399996;stroke-linecap:butt;stroke-linejoin:miter;stroke-miterlimit:4;stroke-opacity:1;stroke-dasharray:none;stroke-dashoffset:0"
               id="path4383-4-2-1"
               sodipodi:cx="-287.85715"
               sodipodi:cy="676.11218"
               sodipodi:rx="2.5"
               sodipodi:ry="2.6785715"
               d="m -285.35715,676.11218 c 0,1.47934 -1.11929,2.67857 -2.5,2.67857 -1.38071,0 -2.5,-1.19923 -2.5,-2.67857 0,-1.47933 1.11929,-2.67857 2.5,-2.67857 1.38071,0 2.5,1.19924 2.5,2.67857 z" />
            <path
               transform="translate(309.23568,-49.29107)"
               sodipodi:type="arc"
               style="fill:#0000ff;fill-opacity:1;stroke:#0000ff;stroke-width:1.24399996;stroke-linecap:butt;stroke-linejoin:miter;stroke-miterlimit:4;stroke-opacity:1;stroke-dasharray:none;stroke-dashoffset:0"
               id="path4383-52-7-1"
               sodipodi:cx="-287.85715"
               sodipodi:cy="676.11218"
               sodipodi:rx="2.5"
               sodipodi:ry="2.6785715"
               d="m -285.35715,676.11218 c 0,1.47934 -1.11929,2.67857 -2.5,2.67857 -1.38071,0 -2.5,-1.19923 -2.5,-2.67857 0,-1.47933 1.11929,-2.67857 2.5,-2.67857 1.38071,0 2.5,1.19924 2.5,2.67857 z" />
            <path
               transform="translate(304.94996,-67.8625)"
               sodipodi:type="arc"
               style="fill:#0000ff;fill-opacity:1;stroke:#0000ff;stroke-width:1.24399996;stroke-linecap:butt;stroke-linejoin:miter;stroke-miterlimit:4;stroke-opacity:1;stroke-dasharray:none;stroke-dashoffset:0"
               id="path4383-547-2-5"
               sodipodi:cx="-287.85715"
               sodipodi:cy="676.11218"
               sodipodi:rx="2.5"
               sodipodi:ry="2.6785715"
               d="m -285.35715,676.11218 c 0,1.47934 -1.11929,2.67857 -2.5,2.67857 -1.38071,0 -2.5,-1.19923 -2.5,-2.67857 0,-1.47933 1.11929,-2.67857 2.5,-2.67857 1.38071,0 2.5,1.19924 2.5,2.67857 z" />
            <path
               transform="translate(330.66425,-70.71964)"
               sodipodi:type="arc"
               style="fill:#0000ff;fill-opacity:1;stroke:#0000ff;stroke-width:1.24399996;stroke-linecap:butt;stroke-linejoin:miter;stroke-miterlimit:4;stroke-opacity:1;stroke-dasharray:none;stroke-dashoffset:0"
               id="path4383-44-2-9"
               sodipodi:cx="-287.85715"
               sodipodi:cy="676.11218"
               sodipodi:rx="2.5"
               sodipodi:ry="2.6785715"
               d="m -285.35715,676.11218 c 0,1.47934 -1.11929,2.67857 -2.5,2.67857 -1.38071,0 -2.5,-1.19923 -2.5,-2.67857 0,-1.47933 1.11929,-2.67857 2.5,-2.67857 1.38071,0 2.5,1.19924 2.5,2.67857 z" />
            <path
               transform="translate(324.66425,56.1375)"
               sodipodi:type="arc"
               style="fill:#0000ff;fill-opacity:1;stroke:#0000ff;stroke-width:1.24399996;stroke-linecap:butt;stroke-linejoin:miter;stroke-miterlimit:4;stroke-opacity:1;stroke-dasharray:none;stroke-dashoffset:0"
               id="path4383-30-6-8"
               sodipodi:cx="-287.85715"
               sodipodi:cy="676.11218"
               sodipodi:rx="2.5"
               sodipodi:ry="2.6785715"
               d="m -285.35715,676.11218 c 0,1.47934 -1.11929,2.67857 -2.5,2.67857 -1.38071,0 -2.5,-1.19923 -2.5,-2.67857 0,-1.47933 1.11929,-2.67857 2.5,-2.67857 1.38071,0 2.5,1.19924 2.5,2.67857 z" />
            <path
               transform="translate(300.37853,78.99464)"
               sodipodi:type="arc"
               style="fill:#0000ff;fill-opacity:1;stroke:#0000ff;stroke-width:1.24399996;stroke-linecap:butt;stroke-linejoin:miter;stroke-miterlimit:4;stroke-opacity:1;stroke-dasharray:none;stroke-dashoffset:0"
               id="path4383-78-1-4"
               sodipodi:cx="-287.85715"
               sodipodi:cy="676.11218"
               sodipodi:rx="2.5"
               sodipodi:ry="2.6785715"
               d="m -285.35715,676.11218 c 0,1.47934 -1.11929,2.67857 -2.5,2.67857 -1.38071,0 -2.5,-1.19923 -2.5,-2.67857 0,-1.47933 1.11929,-2.67857 2.5,-2.67857 1.38071,0 2.5,1.19924 2.5,2.67857 z" />
            <path
               transform="translate(254.94996,62.99464)"
               sodipodi:type="arc"
               style="fill:#0000ff;fill-opacity:1;stroke:#0000ff;stroke-width:1.24399996;stroke-linecap:butt;stroke-linejoin:miter;stroke-miterlimit:4;stroke-opacity:1;stroke-dasharray:none;stroke-dashoffset:0"
               id="path4383-68-0-8"
               sodipodi:cx="-287.85715"
               sodipodi:cy="676.11218"
               sodipodi:rx="2.5"
               sodipodi:ry="2.6785715"
               d="m -285.35715,676.11218 c 0,1.47934 -1.11929,2.67857 -2.5,2.67857 -1.38071,0 -2.5,-1.19923 -2.5,-2.67857 0,-1.47933 1.11929,-2.67857 2.5,-2.67857 1.38071,0 2.5,1.19924 2.5,2.67857 z" />
            <path
               transform="translate(293.52139,88.99464)"
               sodipodi:type="arc"
               style="fill:#0000ff;fill-opacity:1;stroke:#0000ff;stroke-width:1.24399996;stroke-linecap:butt;stroke-linejoin:miter;stroke-miterlimit:4;stroke-opacity:1;stroke-dasharray:none;stroke-dashoffset:0"
               id="path4383-8-6-1"
               sodipodi:cx="-287.85715"
               sodipodi:cy="676.11218"
               sodipodi:rx="2.5"
               sodipodi:ry="2.6785715"
               d="m -285.35715,676.11218 c 0,1.47934 -1.11929,2.67857 -2.5,2.67857 -1.38071,0 -2.5,-1.19923 -2.5,-2.67857 0,-1.47933 1.11929,-2.67857 2.5,-2.67857 1.38071,0 2.5,1.19924 2.5,2.67857 z" />
            <path
               transform="matrix(1,0,0,-1,286.09282,1411.219)"
               sodipodi:type="arc"
               style="fill:#0000ff;fill-opacity:1;stroke:#0000ff;stroke-width:1.24399996;stroke-linecap:butt;stroke-linejoin:miter;stroke-miterlimit:4;stroke-opacity:1;stroke-dasharray:none;stroke-dashoffset:0"
               id="path4383-43-1-0"
               sodipodi:cx="-287.85715"
               sodipodi:cy="676.11218"
               sodipodi:rx="2.5"
               sodipodi:ry="2.6785715"
               d="m -285.35715,676.11218 c 0,1.47934 -1.11929,2.67857 -2.5,2.67857 -1.38071,0 -2.5,-1.19923 -2.5,-2.67857 0,-1.47933 1.11929,-2.67857 2.5,-2.67857 1.38071,0 2.5,1.19924 2.5,2.67857 z" />
            <path
               transform="translate(276.37853,89.28035)"
               sodipodi:type="arc"
               style="fill:#0000ff;fill-opacity:1;stroke:#0000ff;stroke-width:1.24399996;stroke-linecap:butt;stroke-linejoin:miter;stroke-miterlimit:4;stroke-opacity:1;stroke-dasharray:none;stroke-dashoffset:0"
               id="path4383-14-5-3"
               sodipodi:cx="-287.85715"
               sodipodi:cy="676.11218"
               sodipodi:rx="2.5"
               sodipodi:ry="2.6785715"
               d="m -285.35715,676.11218 c 0,1.47934 -1.11929,2.67857 -2.5,2.67857 -1.38071,0 -2.5,-1.19923 -2.5,-2.67857 0,-1.47933 1.11929,-2.67857 2.5,-2.67857 1.38071,0 2.5,1.19924 2.5,2.67857 z" />
            <path
               transform="translate(227.80711,93.28035)"
               sodipodi:type="arc"
               style="fill:#0000ff;fill-opacity:1;stroke:#0000ff;stroke-width:1.24399996;stroke-linecap:butt;stroke-linejoin:miter;stroke-miterlimit:4;stroke-opacity:1;stroke-dasharray:none;stroke-dashoffset:0"
               id="path4383-9-9-0"
               sodipodi:cx="-287.85715"
               sodipodi:cy="676.11218"
               sodipodi:rx="2.5"
               sodipodi:ry="2.6785715"
               d="m -285.35715,676.11218 c 0,1.47934 -1.11929,2.67857 -2.5,2.67857 -1.38071,0 -2.5,-1.19923 -2.5,-2.67857 0,-1.47933 1.11929,-2.67857 2.5,-2.67857 1.38071,0 2.5,1.19924 2.5,2.67857 z" />
          </g>
        </g>
        <g
           id="g5194"
           transform="translate(-7.4775029,0)">
          <rect
             ry="8.5811225e-05"
             y="585.2193"
             x="-223.50642"
             height="62.857143"
             width="327.14285"
             id="rect5186"
             style="fill:#0000ff;fill-opacity:0.52968038;stroke:#0000ff;stroke-width:1.24399996;stroke-linecap:butt;stroke-linejoin:miter;stroke-miterlimit:4;stroke-opacity:1;stroke-dasharray:none;stroke-dashoffset:0" />
          <text
             sodipodi:linespacing="125%"
             id="text5188"
             y="612.36218"
             x="-60.032654"
             style="font-size:36px;font-style:normal;font-variant:normal;font-weight:bold;font-stretch:normal;line-height:125%;letter-spacing:0px;word-spacing:0px;fill:#000000;fill-opacity:1;stroke:none;font-family:Verdana;-inkscape-font-specification:Verdana Bold"
             xml:space="preserve"><tspan
               style="font-size:20px;text-align:center;text-anchor:middle"
               y="612.36218"
               x="-60.032654"
               id="tspan5190"
               sodipodi:role="line">Bilingual Embedding</tspan><tspan
               style="font-size:20px;text-align:center;text-anchor:middle"
               id="tspan5192"
               y="637.36218"
               x="-60.032654"
               sodipodi:role="line">Algorithm</tspan></text>
        </g>
      </g>
    </g>
    <path
       style="fill:none;stroke:#000000;stroke-width:1px;stroke-linecap:butt;stroke-linejoin:miter;stroke-opacity:1;marker-end:url(#Arrow1Lend-3)"
       d="m -234.41631,504.8595 c 0,115.15739 0,115.15739 0,115.15739 l 44.44672,0"
       id="path5750"
       inkscape:connector-curvature="0" />
    <path
       style="fill:none;stroke:#000000;stroke-width:1px;stroke-linecap:butt;stroke-linejoin:miter;stroke-opacity:1;marker-end:url(#Arrow1Lend-3)"
       d="m 236.84272,503.82905 c 0,115.15739 0,115.15739 0,115.15739 l -44.44672,0"
       id="path5750-4"
       inkscape:connector-curvature="0" />
  </g>
</svg>
