\relax 
\abx@aux@sortscheme{nyt}
\@writefile{toc}{\boolfalse {citerequest}\boolfalse {citetracker}\boolfalse {pagetracker}\boolfalse {backtracker}\relax }
\@writefile{lof}{\boolfalse {citerequest}\boolfalse {citetracker}\boolfalse {pagetracker}\boolfalse {backtracker}\relax }
\@writefile{lot}{\boolfalse {citerequest}\boolfalse {citetracker}\boolfalse {pagetracker}\boolfalse {backtracker}\relax }
\select@language{english}
\@writefile{toc}{\defcounter {refsection}{0}\relax }\@writefile{toc}{\select@language{english}}
\@writefile{lof}{\defcounter {refsection}{0}\relax }\@writefile{lof}{\select@language{english}}
\@writefile{lot}{\defcounter {refsection}{0}\relax }\@writefile{lot}{\select@language{english}}
\@writefile{toc}{\defcounter {refsection}{0}\relax }\@writefile{toc}{\contentsline {section}{\numberline {1}Introduction}{8}}
\abx@aux@cite{Liu2012}
\@writefile{toc}{\defcounter {refsection}{0}\relax }\@writefile{toc}{\contentsline {section}{\numberline {2}Literature Survey}{9}}
\@writefile{toc}{\defcounter {refsection}{0}\relax }\@writefile{toc}{\contentsline {subsection}{\numberline {2.1}Aspect-level Sentiment Analysis}{9}}
\abx@aux@page{2}{9}
\abx@aux@cite{Liu2005}
\abx@aux@cite{Pang2002}
\abx@aux@cite{Turney2002}
\abx@aux@cite{Strapparava2004a}
\abx@aux@cite{Esuli2006a}
\abx@aux@page{4}{10}
\@writefile{toc}{\defcounter {refsection}{0}\relax }\@writefile{toc}{\contentsline {subsection}{\numberline {2.2}Sentiment Analysis}{10}}
\abx@aux@page{6}{10}
\abx@aux@cite{Pang2004}
\abx@aux@cite{Mejova2011b}
\abx@aux@cite{Kiritchenko2014c}
\@writefile{toc}{\defcounter {refsection}{0}\relax }\@writefile{toc}{\contentsline {subsubsection}{\numberline {2.2.1}Unsupervised Sentiment Analysis}{11}}
\abx@aux@page{7}{11}
\abx@aux@page{8}{11}
\abx@aux@page{9}{11}
\@writefile{toc}{\defcounter {refsection}{0}\relax }\@writefile{toc}{\contentsline {subsubsection}{\numberline {2.2.2}Supervised Machine Learning with Feature Engineering}{11}}
\abx@aux@page{11}{11}
\abx@aux@page{12}{11}
\abx@aux@page{13}{11}
\abx@aux@page{14}{11}
\abx@aux@cite{Bengio2008}
\abx@aux@cite{Mikolov2013word2vec}
\abx@aux@cite{Pennington2014}
\abx@aux@cite{Severyn2015}
\abx@aux@cite{Kim2014}
\abx@aux@cite{Socher2013b}
\@writefile{toc}{\defcounter {refsection}{0}\relax }\@writefile{toc}{\contentsline {subsubsection}{\numberline {2.2.3}Deep Learning}{12}}
\abx@aux@page{15}{12}
\abx@aux@page{16}{12}
\abx@aux@page{17}{12}
\abx@aux@page{18}{12}
\abx@aux@page{19}{12}
\abx@aux@page{21}{12}
\abx@aux@page{23}{12}
\abx@aux@cite{Tai2015a}
\abx@aux@page{25}{13}
\abx@aux@page{27}{13}
\abx@aux@page{29}{13}
\@writefile{toc}{\defcounter {refsection}{0}\relax }\@writefile{toc}{\contentsline {subsection}{\numberline {2.3}Cross-lingual Sentiment Analysis}{13}}
\@writefile{toc}{\defcounter {refsection}{0}\relax }\@writefile{toc}{\contentsline {subsubsection}{\numberline {2.3.1}Aspect-based CLSA}{13}}
\abx@aux@cite{Zhou2012}
\abx@aux@cite{Lin2014a}
\abx@aux@cite{Klinger2015}
\abx@aux@cite{Lambert2015a}
\abx@aux@cite{Duh2011a}
\abx@aux@cite{Balahur2014d}
\abx@aux@cite{Mohammad2015b}
\abx@aux@cite{Banea2008d}
\abx@aux@cite{Banea2013}
\abx@aux@cite{Mihalcea2007c}
\abx@aux@page{31}{14}
\abx@aux@page{33}{14}
\abx@aux@page{35}{14}
\abx@aux@page{37}{14}
\abx@aux@cite{Guo2012}
\abx@aux@cite{Wan2009c}
\abx@aux@cite{Demirtas2013}
\@writefile{toc}{\defcounter {refsection}{0}\relax }\@writefile{toc}{\contentsline {subsubsection}{\numberline {2.3.2}New Resources via Machine Translation}{15}}
\abx@aux@page{38}{15}
\abx@aux@page{39}{15}
\abx@aux@page{40}{15}
\abx@aux@page{41}{15}
\abx@aux@page{42}{15}
\abx@aux@page{43}{15}
\abx@aux@page{44}{15}
\abx@aux@page{45}{15}
\abx@aux@page{46}{15}
\abx@aux@page{47}{15}
\abx@aux@page{48}{15}
\@writefile{toc}{\defcounter {refsection}{0}\relax }\@writefile{toc}{\contentsline {subsubsection}{\numberline {2.3.3}Machine Translation for a Bilingual View}{15}}
\abx@aux@page{50}{15}
\abx@aux@cite{Pan2011}
\abx@aux@cite{Lu2011c}
\abx@aux@cite{Prettenhofer2011b}
\abx@aux@cite{Klementiev2012b}
\abx@aux@cite{Bengio2003}
\abx@aux@cite{Zhou2016}
\abx@aux@cite{Chandar2014}
\abx@aux@cite{Gouws2015}
\abx@aux@cite{Vulic2016}
\abx@aux@page{51}{16}
\abx@aux@page{53}{16}
\abx@aux@page{55}{16}
\@writefile{toc}{\defcounter {refsection}{0}\relax }\@writefile{toc}{\contentsline {subsubsection}{\numberline {2.3.4}Latent Distributed Representations}{16}}
\abx@aux@page{57}{16}
\abx@aux@page{59}{16}
\abx@aux@page{61}{16}
\abx@aux@page{63}{16}
\abx@aux@cite{Agirre2009}
\abx@aux@cite{Bullinaria2012}
\abx@aux@cite{Harris1954}
\abx@aux@page{64}{17}
\abx@aux@page{65}{17}
\abx@aux@page{66}{17}
\@writefile{toc}{\defcounter {refsection}{0}\relax }\@writefile{toc}{\contentsline {section}{\numberline {3}Objectives}{17}}
\@writefile{toc}{\defcounter {refsection}{0}\relax }\@writefile{toc}{\contentsline {subsection}{\numberline {3.1}Main Goals}{17}}
\@writefile{toc}{\defcounter {refsection}{0}\relax }\@writefile{toc}{\contentsline {subsection}{\numberline {3.2}Specific Objectives}{17}}
\abx@aux@cite{Baroni2014b}
\abx@aux@cite{Mikolov2013translation}
\@writefile{toc}{\defcounter {refsection}{0}\relax }\@writefile{toc}{\contentsline {section}{\numberline {4}Theoretical Framework}{18}}
\@writefile{toc}{\defcounter {refsection}{0}\relax }\@writefile{toc}{\contentsline {subsection}{\numberline {4.1}Distributional Semantics}{18}}
\@writefile{toc}{\defcounter {refsection}{0}\relax }\@writefile{toc}{\contentsline {subsubsection}{\numberline {4.1.1}Background}{18}}
\abx@aux@page{67}{18}
\abx@aux@page{68}{18}
\abx@aux@page{69}{18}
\abx@aux@page{70}{18}
\@writefile{toc}{\defcounter {refsection}{0}\relax }\@writefile{toc}{\contentsline {subsubsection}{\numberline {4.1.2}Count Models versus Predict Models}{18}}
\abx@aux@page{71}{18}
\abx@aux@page{72}{18}
\abx@aux@cite{Maas2011}
\abx@aux@cite{Tang2014}
\abx@aux@cite{Gouws2015taskspecific}
\abx@aux@cite{Collobert2011a}
\@writefile{toc}{\defcounter {refsection}{0}\relax }\@writefile{toc}{\contentsline {subsubsection}{\numberline {4.1.3}Advantages}{19}}
\abx@aux@page{73}{19}
\abx@aux@page{74}{19}
\abx@aux@page{75}{19}
\abx@aux@page{77}{19}
\abx@aux@page{79}{19}
\@writefile{toc}{\defcounter {refsection}{0}\relax }\@writefile{toc}{\contentsline {subsubsection}{\numberline {4.1.4}Limitations}{19}}
\abx@aux@cite{Dinu2015}
\abx@aux@page{80}{21}
\@writefile{toc}{\defcounter {refsection}{0}\relax }\@writefile{toc}{\contentsline {subsubsection}{\numberline {4.1.5}Alternatives}{21}}
\@writefile{toc}{\defcounter {refsection}{0}\relax }\@writefile{toc}{\contentsline {subsection}{\numberline {4.2}Machine Learning}{21}}
\@writefile{toc}{\defcounter {refsection}{0}\relax }\@writefile{toc}{\contentsline {subsubsection}{\numberline {4.2.1}Background}{21}}
\abx@aux@page{82}{21}
\@writefile{toc}{\defcounter {refsection}{0}\relax }\@writefile{toc}{\contentsline {subsubsection}{\numberline {4.2.2}Advantages}{22}}
\@writefile{toc}{\defcounter {refsection}{0}\relax }\@writefile{toc}{\contentsline {subsubsection}{\numberline {4.2.3}Limitations}{22}}
\@writefile{toc}{\defcounter {refsection}{0}\relax }\@writefile{toc}{\contentsline {section}{\numberline {5}Hypotheses}{22}}
\@writefile{toc}{\defcounter {refsection}{0}\relax }\@writefile{toc}{\contentsline {section}{\numberline {6}Research Methodology}{23}}
\@writefile{toc}{\defcounter {refsection}{0}\relax }\@writefile{toc}{\contentsline {subsection}{\numberline {6.1}Adopted Methodology}{23}}
\@writefile{toc}{\defcounter {refsection}{0}\relax }\@writefile{toc}{\contentsline {subsection}{\numberline {6.2}Work Packages}{24}}
\abx@aux@cite{Agerri2013}
\abx@aux@cite{Koehn2005}
\@writefile{toc}{\defcounter {refsection}{0}\relax }\@writefile{toc}{\contentsline {subsubsection}{\numberline {6.2.1}Datasets}{26}}
\abx@aux@page{83}{26}
\abx@aux@cite{Bosma2009}
\abx@aux@cite{Fokkens2014a}
\abx@aux@cite{Padro2010}
\abx@aux@cite{Loper2002}
\abx@aux@page{84}{27}
\@writefile{toc}{\defcounter {refsection}{0}\relax }\@writefile{toc}{\contentsline {subsubsection}{\numberline {6.2.2}Tools}{27}}
\abx@aux@page{85}{27}
\abx@aux@page{86}{27}
\abx@aux@page{87}{27}
\abx@aux@page{88}{27}
\abx@aux@cite{Theano2016}
\abx@aux@cite{Chollet2015}
\abx@aux@cite{Joachims/99a}
\abx@aux@cite{rehurek_lrec}
\abx@aux@page{89}{28}
\abx@aux@page{90}{28}
\abx@aux@page{91}{28}
\abx@aux@page{93}{28}
\abx@aux@page{95}{28}
\@writefile{toc}{\defcounter {refsection}{0}\relax }\@writefile{toc}{\contentsline {section}{\numberline {7}Work Plan}{29}}
\@writefile{lof}{\defcounter {refsection}{0}\relax }\@writefile{lof}{\contentsline {figure}{\numberline {1}{\ignorespaces Estimated Timeline}}{29}}
\@writefile{toc}{\defcounter {refsection}{0}\relax }\@writefile{toc}{\contentsline {section}{\numberline {8}Completed Experiments}{30}}
\@writefile{toc}{\defcounter {refsection}{0}\relax }\@writefile{toc}{\contentsline {subsection}{\numberline {8.1}Zero-shot Learning for CLSA}{30}}
\abx@aux@page{97}{30}
\abx@aux@page{99}{30}
\@writefile{toc}{\defcounter {refsection}{0}\relax }\@writefile{toc}{\contentsline {subsubsection}{\numberline {8.1.1}Data Sets}{30}}
\abx@aux@page{100}{30}
\abx@aux@page{101}{30}
\abx@aux@page{103}{30}
\abx@aux@page{104}{30}
\abx@aux@page{105}{31}
\abx@aux@page{106}{31}
\@writefile{lot}{\defcounter {refsection}{0}\relax }\@writefile{lot}{\contentsline {table}{\numberline {1}{\ignorespaces Statistics of Wikipedia Corpora}}{31}}
\newlabel{table:1}{{1}{31}}
\@writefile{toc}{\defcounter {refsection}{0}\relax }\@writefile{toc}{\contentsline {subsubsection}{\numberline {8.1.2}Experiment 1: English-Catalan zero-shot mapping with linear matrix and feedforward network}{31}}
\@writefile{toc}{\defcounter {refsection}{0}\relax }\@writefile{toc}{\contentsline {subparagraph}{Layout}{31}}
\@writefile{lot}{\defcounter {refsection}{0}\relax }\@writefile{lot}{\contentsline {table}{\numberline {2}{\ignorespaces Statistics of OpeNER Corpora}}{32}}
\newlabel{table:2}{{2}{32}}
\abx@aux@cite{Kingma2014a}
\abx@aux@page{107}{33}
\@writefile{lot}{\defcounter {refsection}{0}\relax }\@writefile{lot}{\contentsline {table}{\numberline {3}{\ignorespaces Accuracy of the 3 classifiers during the first experiment}}{33}}
\newlabel{table:3}{{3}{33}}
\abx@aux@page{109}{33}
\@writefile{lot}{\defcounter {refsection}{0}\relax }\@writefile{lot}{\contentsline {table}{\numberline {4}{\ignorespaces Precision, Recall and F1 of English and cross-lingual classifiers}}{34}}
\newlabel{table:4}{{4}{34}}
\@writefile{toc}{\defcounter {refsection}{0}\relax }\@writefile{toc}{\contentsline {subsubsection}{\numberline {8.1.3}Experiment 2: English-Spanish zero-shot mapping with linear matrix and feedforward network}{34}}
\abx@aux@page{111}{35}
\@writefile{lot}{\defcounter {refsection}{0}\relax }\@writefile{lot}{\contentsline {table}{\numberline {5}{\ignorespaces Results of Experiment 2: English-Spanish \IeC {\textendash } 4 class}}{35}}
\newlabel{table:5}{{5}{35}}
\@writefile{toc}{\defcounter {refsection}{0}\relax }\@writefile{toc}{\contentsline {subsubsection}{\numberline {8.1.4}Experiment 3: English-Spanish zero-shot mapping with linear matrix and LSTM}{35}}
\abx@aux@cite{Irsoy2014a}
\@writefile{lot}{\defcounter {refsection}{0}\relax }\@writefile{lot}{\contentsline {table}{\numberline {6}{\ignorespaces Results of experiment 4 \IeC {\textendash } 2 layer LSTM}}{36}}
\newlabel{table:6}{{6}{36}}
\abx@aux@page{113}{36}
\@writefile{toc}{\defcounter {refsection}{0}\relax }\@writefile{toc}{\contentsline {subsubsection}{\numberline {8.1.5}Experiment 4: English-Spanish zero-shot mapping with neural matrix and feedforward network}{37}}
\abx@aux@page{115}{37}
\abx@aux@page{116}{37}
\@writefile{lot}{\defcounter {refsection}{0}\relax }\@writefile{lot}{\contentsline {table}{\numberline {7}{\ignorespaces Results of experiment 5 - Neural mapping scheme}}{37}}
\newlabel{table:7}{{7}{37}}
\abx@aux@cite{Lazaridou2015}
\@writefile{toc}{\defcounter {refsection}{0}\relax }\@writefile{toc}{\contentsline {subsubsection}{\numberline {8.1.6}Discussion and Further Research}{38}}
\abx@aux@page{118}{38}
\abx@aux@page{120}{38}
\abx@aux@page{122}{38}
\abx@aux@page{124}{38}
\@writefile{toc}{\defcounter {refsection}{0}\relax }\@writefile{toc}{\contentsline {subsection}{\numberline {8.2}Bilingual Word-embeddings for CLSA}{39}}
\@writefile{toc}{\defcounter {refsection}{0}\relax }\@writefile{toc}{\contentsline {subsubsection}{\numberline {8.2.1}Experiment}{39}}
\abx@aux@page{126}{39}
\abx@aux@page{128}{39}
\abx@aux@page{129}{39}
\abx@aux@cite{Cheng2014}
\@writefile{lot}{\defcounter {refsection}{0}\relax }\@writefile{lot}{\contentsline {table}{\numberline {8}{\ignorespaces Precision, Recall and F1 of English and English-Spanish classifiers}}{40}}
\@writefile{toc}{\defcounter {refsection}{0}\relax }\@writefile{toc}{\contentsline {subsubsection}{\numberline {8.2.2}Discussion and Further Research}{40}}
\abx@aux@page{131}{40}
\@writefile{toc}{\defcounter {refsection}{0}\relax }\@writefile{toc}{\contentsline {subsection}{\numberline {8.3}Stacked Denoising Autoencoders for CLSA}{41}}
\@writefile{toc}{\defcounter {refsection}{0}\relax }\@writefile{toc}{\contentsline {subsubsection}{\numberline {8.3.1}Experiment}{41}}
\abx@aux@page{133}{41}
\@writefile{lot}{\defcounter {refsection}{0}\relax }\@writefile{lot}{\contentsline {table}{\numberline {9}{\ignorespaces Results of Stacked Denoising Autoencoder Experiment}}{41}}
\@writefile{toc}{\defcounter {refsection}{0}\relax }\@writefile{toc}{\contentsline {subsubsection}{\numberline {8.3.2}Discussion and Further Research}{41}}
\@writefile{toc}{\defcounter {refsection}{0}\relax }\@writefile{toc}{\contentsline {subsection}{\numberline {8.4}Final Comparison}{42}}
\abx@aux@page{135}{42}
\abx@aux@page{137}{42}
\@writefile{lot}{\defcounter {refsection}{0}\relax }\@writefile{lot}{\contentsline {table}{\numberline {10}{\ignorespaces Compared Results}}{42}}
\@writefile{toc}{\defcounter {refsection}{0}\relax }\@writefile{toc}{\contentsline {section}{\numberline {9}Explicit References}{43}}
\@writefile{toc}{\defcounter {refsection}{0}\relax }\@writefile{toc}{\contentsline {subsection}{\numberline {9.1}Zhou et al. (2016)}{43}}
\abx@aux@page{139}{43}
\@writefile{toc}{\defcounter {refsection}{0}\relax }\@writefile{toc}{\contentsline {subsection}{\numberline {9.2}Liu (2012)}{43}}
\abx@aux@page{141}{43}
\@writefile{toc}{\defcounter {refsection}{0}\relax }\@writefile{toc}{\contentsline {subsection}{\numberline {9.3}Gouws et al. (2015)}{44}}
\abx@aux@page{142}{44}
\@writefile{toc}{\defcounter {refsection}{0}\relax }\@writefile{toc}{\contentsline {subsection}{\numberline {9.4}Klementiev et al. (2012)}{44}}
\abx@aux@page{144}{44}
\abx@aux@page{145}{44}
\@writefile{toc}{\defcounter {refsection}{0}\relax }\@writefile{toc}{\contentsline {subsection}{\numberline {9.5}Chandar et al. (2014)}{45}}
\abx@aux@page{147}{45}
\@writefile{toc}{\defcounter {refsection}{0}\relax }\@writefile{toc}{\contentsline {section}{\numberline {10}References}{45}}
\abx@aux@page{148}{45}
\abx@aux@page{149}{46}
\abx@aux@page{150}{46}
\abx@aux@page{151}{46}
\abx@aux@page{152}{46}
\abx@aux@page{153}{46}
\abx@aux@page{154}{46}
\abx@aux@page{155}{46}
\abx@aux@page{156}{46}
\abx@aux@page{157}{47}
\abx@aux@page{158}{47}
\abx@aux@page{159}{47}
\abx@aux@page{160}{47}
\abx@aux@page{161}{47}
\abx@aux@page{162}{47}
\abx@aux@page{163}{47}
\abx@aux@page{164}{47}
\abx@aux@page{165}{48}
\abx@aux@page{166}{48}
\abx@aux@page{167}{48}
\abx@aux@page{168}{48}
\abx@aux@page{169}{48}
\abx@aux@page{170}{48}
\abx@aux@page{171}{48}
\abx@aux@page{172}{49}
\abx@aux@page{173}{49}
\abx@aux@page{174}{49}
\abx@aux@page{175}{49}
\abx@aux@page{176}{49}
\abx@aux@page{177}{49}
\abx@aux@page{178}{49}
\abx@aux@page{179}{49}
\abx@aux@page{180}{50}
\abx@aux@page{181}{50}
\abx@aux@page{182}{50}
\abx@aux@page{183}{50}
\abx@aux@page{184}{50}
\abx@aux@page{185}{50}
\abx@aux@page{186}{51}
\abx@aux@page{187}{51}
\abx@aux@page{188}{51}
\abx@aux@page{189}{51}
\abx@aux@page{190}{51}
\abx@aux@page{191}{51}
\abx@aux@page{192}{51}
\abx@aux@page{193}{51}
\abx@aux@page{194}{52}
\abx@aux@page{195}{52}
\abx@aux@page{196}{52}
\abx@aux@page{197}{52}
\abx@aux@page{198}{52}
\abx@aux@page{199}{52}
\abx@aux@page{200}{52}
\abx@aux@page{201}{53}
\abx@aux@page{202}{53}
\abx@aux@page{203}{53}
\abx@aux@page{204}{53}
\abx@aux@page{205}{53}
\abx@aux@page{206}{53}
\abx@aux@page{207}{53}
\abx@aux@page{208}{54}
\abx@aux@page{209}{54}
