\relax 
\abx@aux@sortscheme{nyt}
\@writefile{toc}{\boolfalse {citerequest}\boolfalse {citetracker}\boolfalse {pagetracker}\boolfalse {backtracker}\relax }
\@writefile{lof}{\boolfalse {citerequest}\boolfalse {citetracker}\boolfalse {pagetracker}\boolfalse {backtracker}\relax }
\@writefile{lot}{\boolfalse {citerequest}\boolfalse {citetracker}\boolfalse {pagetracker}\boolfalse {backtracker}\relax }
\select@language{english}
\@writefile{toc}{\defcounter {refsection}{0}\relax }\@writefile{toc}{\select@language{english}}
\@writefile{lof}{\defcounter {refsection}{0}\relax }\@writefile{lof}{\select@language{english}}
\@writefile{lot}{\defcounter {refsection}{0}\relax }\@writefile{lot}{\select@language{english}}
\@writefile{toc}{\defcounter {refsection}{0}\relax }\@writefile{toc}{\contentsline {section}{\numberline {1}Introduction}{8}}
\abx@aux@cite{Pang2002}
\abx@aux@cite{Turney2002}
\abx@aux@cite{Strapparava2004a}
\abx@aux@cite{Esuli2006a}
\@writefile{toc}{\defcounter {refsection}{0}\relax }\@writefile{toc}{\contentsline {section}{\numberline {2}Literature Survey}{9}}
\@writefile{toc}{\defcounter {refsection}{0}\relax }\@writefile{toc}{\contentsline {subsection}{\numberline {2.1}Sentiment Analysis}{9}}
\abx@aux@page{2}{9}
\abx@aux@cite{Pang2004}
\abx@aux@cite{Mejova2011b}
\abx@aux@cite{Kiritchenko2014c}
\@writefile{toc}{\defcounter {refsection}{0}\relax }\@writefile{toc}{\contentsline {subsubsection}{\numberline {2.1.1}Unsupervised Sentiment Analysis}{10}}
\abx@aux@page{3}{10}
\abx@aux@page{4}{10}
\abx@aux@page{5}{10}
\@writefile{toc}{\defcounter {refsection}{0}\relax }\@writefile{toc}{\contentsline {subsubsection}{\numberline {2.1.2}Supervised Machine Learning with Feature Engineering}{10}}
\abx@aux@page{7}{10}
\abx@aux@page{8}{10}
\abx@aux@page{9}{10}
\abx@aux@page{10}{10}
\abx@aux@cite{Bengio2008}
\abx@aux@cite{Mikolov2013word2vec}
\abx@aux@cite{Pennington2014}
\abx@aux@cite{Severyn2015}
\abx@aux@cite{Kim2014}
\abx@aux@cite{Socher2013b}
\@writefile{toc}{\defcounter {refsection}{0}\relax }\@writefile{toc}{\contentsline {subsubsection}{\numberline {2.1.3}Deep Learning}{11}}
\abx@aux@page{11}{11}
\abx@aux@page{12}{11}
\abx@aux@page{13}{11}
\abx@aux@page{14}{11}
\abx@aux@page{15}{11}
\abx@aux@page{17}{11}
\abx@aux@page{19}{11}
\abx@aux@cite{Tai2015a}
\abx@aux@page{21}{12}
\abx@aux@page{23}{12}
\abx@aux@page{25}{12}
\@writefile{toc}{\defcounter {refsection}{0}\relax }\@writefile{toc}{\contentsline {subsection}{\numberline {2.2}Cross-lingual Sentiment Analysis}{12}}
\abx@aux@cite{Duh2011a}
\abx@aux@cite{Balahur2014d}
\abx@aux@cite{Mohammad2015b}
\abx@aux@cite{Banea2008d}
\abx@aux@cite{Banea2013}
\abx@aux@cite{Mihalcea2007c}
\abx@aux@cite{Guo2012}
\abx@aux@cite{Wan2009c}
\abx@aux@cite{Demirtas2013}
\@writefile{toc}{\defcounter {refsection}{0}\relax }\@writefile{toc}{\contentsline {subsubsection}{\numberline {2.2.1}New Resources via Machine Translation}{13}}
\abx@aux@page{26}{13}
\abx@aux@page{27}{13}
\abx@aux@page{28}{13}
\abx@aux@page{29}{13}
\abx@aux@page{30}{13}
\abx@aux@page{31}{13}
\abx@aux@page{32}{13}
\abx@aux@page{33}{13}
\abx@aux@page{34}{13}
\abx@aux@page{35}{13}
\abx@aux@page{36}{13}
\abx@aux@cite{Pan2011}
\abx@aux@cite{Lu2011c}
\abx@aux@cite{Prettenhofer2011b}
\abx@aux@cite{Klementiev2012b}
\abx@aux@cite{Bengio2003}
\abx@aux@cite{Zhou2016}
\@writefile{toc}{\defcounter {refsection}{0}\relax }\@writefile{toc}{\contentsline {subsubsection}{\numberline {2.2.2}Machine Translation for a Bilingual View}{14}}
\abx@aux@page{38}{14}
\abx@aux@page{39}{14}
\abx@aux@page{41}{14}
\abx@aux@page{43}{14}
\@writefile{toc}{\defcounter {refsection}{0}\relax }\@writefile{toc}{\contentsline {subsubsection}{\numberline {2.2.3}Latent Representation}{14}}
\abx@aux@page{45}{14}
\abx@aux@page{47}{14}
\abx@aux@page{49}{14}
\abx@aux@page{51}{14}
\abx@aux@cite{Chandar2014}
\abx@aux@cite{Gouws2015}
\abx@aux@cite{Vulic2016}
\abx@aux@cite{Liu2012}
\abx@aux@page{52}{15}
\abx@aux@page{53}{15}
\abx@aux@page{54}{15}
\@writefile{toc}{\defcounter {refsection}{0}\relax }\@writefile{toc}{\contentsline {subsection}{\numberline {2.3}Aspect-level Sentiment Analysis}{15}}
\abx@aux@page{56}{15}
\abx@aux@cite{Liu2005}
\abx@aux@cite{Zhou2012}
\abx@aux@cite{Lin2014a}
\abx@aux@cite{Klinger2015}
\abx@aux@cite{Lambert2015a}
\abx@aux@page{58}{16}
\abx@aux@page{60}{16}
\abx@aux@page{62}{16}
\abx@aux@page{64}{16}
\abx@aux@page{66}{16}
\@writefile{toc}{\defcounter {refsection}{0}\relax }\@writefile{toc}{\contentsline {section}{\numberline {3}Objectives}{16}}
\abx@aux@cite{Agirre2009}
\abx@aux@cite{Bullinaria2012}
\abx@aux@cite{Harris1954}
\@writefile{toc}{\defcounter {refsection}{0}\relax }\@writefile{toc}{\contentsline {section}{\numberline {4}Theoretical Framework}{17}}
\@writefile{toc}{\defcounter {refsection}{0}\relax }\@writefile{toc}{\contentsline {subsection}{\numberline {4.1}Distributional Semantics}{17}}
\@writefile{toc}{\defcounter {refsection}{0}\relax }\@writefile{toc}{\contentsline {subsubsection}{\numberline {4.1.1}Background}{17}}
\abx@aux@page{67}{17}
\abx@aux@page{68}{17}
\abx@aux@page{69}{17}
\abx@aux@page{70}{17}
\@writefile{toc}{\defcounter {refsection}{0}\relax }\@writefile{toc}{\contentsline {subsubsection}{\numberline {4.1.2}Count Models versus Predict Models}{17}}
\abx@aux@cite{Baroni2014b}
\abx@aux@cite{Mikolov2013translation}
\abx@aux@cite{Maas2011}
\abx@aux@cite{Tang2014}
\abx@aux@cite{Collobert2011a}
\abx@aux@page{71}{18}
\abx@aux@page{72}{18}
\@writefile{toc}{\defcounter {refsection}{0}\relax }\@writefile{toc}{\contentsline {subsubsection}{\numberline {4.1.3}Advantages}{18}}
\abx@aux@page{73}{18}
\abx@aux@page{74}{18}
\abx@aux@page{76}{18}
\abx@aux@page{78}{18}
\@writefile{toc}{\defcounter {refsection}{0}\relax }\@writefile{toc}{\contentsline {subsubsection}{\numberline {4.1.4}Limitations}{19}}
\abx@aux@cite{Dinu2015}
\abx@aux@page{79}{20}
\@writefile{toc}{\defcounter {refsection}{0}\relax }\@writefile{toc}{\contentsline {subsubsection}{\numberline {4.1.5}Alternatives}{20}}
\@writefile{toc}{\defcounter {refsection}{0}\relax }\@writefile{toc}{\contentsline {subsection}{\numberline {4.2}Machine Learning}{21}}
\@writefile{toc}{\defcounter {refsection}{0}\relax }\@writefile{toc}{\contentsline {subsubsection}{\numberline {4.2.1}Background}{21}}
\abx@aux@page{81}{21}
\@writefile{toc}{\defcounter {refsection}{0}\relax }\@writefile{toc}{\contentsline {subsubsection}{\numberline {4.2.2}Advantages}{21}}
\@writefile{toc}{\defcounter {refsection}{0}\relax }\@writefile{toc}{\contentsline {subsubsection}{\numberline {4.2.3}Limitations}{21}}
\abx@aux@cite{Agerri2013}
\@writefile{toc}{\defcounter {refsection}{0}\relax }\@writefile{toc}{\contentsline {section}{\numberline {5}Hypotheses}{22}}
\@writefile{toc}{\defcounter {refsection}{0}\relax }\@writefile{toc}{\contentsline {section}{\numberline {6}Research Methodology}{22}}
\@writefile{toc}{\defcounter {refsection}{0}\relax }\@writefile{toc}{\contentsline {subsection}{\numberline {6.1}Adopted Methodology}{22}}
\@writefile{toc}{\defcounter {refsection}{0}\relax }\@writefile{toc}{\contentsline {subsubsection}{\numberline {6.1.1}Datasets}{22}}
\abx@aux@page{82}{22}
\abx@aux@cite{Koehn2005}
\abx@aux@page{83}{23}
\abx@aux@cite{Bosma2009}
\abx@aux@cite{Fokkens2014a}
\abx@aux@cite{Padro2010}
\abx@aux@cite{Loper2002}
\abx@aux@cite{Theano2016}
\@writefile{toc}{\defcounter {refsection}{0}\relax }\@writefile{toc}{\contentsline {subsubsection}{\numberline {6.1.2}Tools}{24}}
\abx@aux@page{84}{24}
\abx@aux@page{85}{24}
\abx@aux@page{86}{24}
\abx@aux@page{87}{24}
\abx@aux@page{88}{24}
\abx@aux@cite{Chollet2015}
\abx@aux@cite{Joachims/99a}
\abx@aux@cite{rehurek_lrec}
\abx@aux@page{89}{25}
\abx@aux@page{90}{25}
\abx@aux@page{92}{25}
\abx@aux@page{94}{25}
\@writefile{toc}{\defcounter {refsection}{0}\relax }\@writefile{toc}{\contentsline {section}{\numberline {7}Preliminary Experiments}{25}}
\@writefile{toc}{\defcounter {refsection}{0}\relax }\@writefile{toc}{\contentsline {subsection}{\numberline {7.1}Zero-shot Learning for CLSA}{25}}
\abx@aux@page{96}{25}
\abx@aux@page{98}{26}
\@writefile{toc}{\defcounter {refsection}{0}\relax }\@writefile{toc}{\contentsline {subsubsection}{\numberline {7.1.1}Data Sets}{26}}
\abx@aux@page{99}{26}
\abx@aux@page{100}{26}
\abx@aux@page{102}{26}
\abx@aux@page{103}{26}
\abx@aux@page{104}{26}
\abx@aux@page{105}{26}
\@writefile{lot}{\defcounter {refsection}{0}\relax }\@writefile{lot}{\contentsline {table}{\numberline {1}{\ignorespaces Statistics of Wikipedia Corpora}}{27}}
\newlabel{table:1}{{1}{27}}
\@writefile{lot}{\defcounter {refsection}{0}\relax }\@writefile{lot}{\contentsline {table}{\numberline {2}{\ignorespaces Statistics of OpeNER Corpora}}{27}}
\newlabel{table:2}{{2}{27}}
\@writefile{toc}{\defcounter {refsection}{0}\relax }\@writefile{toc}{\contentsline {subsubsection}{\numberline {7.1.2}Experiment 1}{27}}
\@writefile{toc}{\defcounter {refsection}{0}\relax }\@writefile{toc}{\contentsline {subparagraph}{Layout}{27}}
\abx@aux@cite{Kingma2014a}
\abx@aux@page{106}{29}
\@writefile{lot}{\defcounter {refsection}{0}\relax }\@writefile{lot}{\contentsline {table}{\numberline {3}{\ignorespaces Accuracy of the 3 classifiers during the first experiment}}{29}}
\newlabel{table:3}{{3}{29}}
\@writefile{lot}{\defcounter {refsection}{0}\relax }\@writefile{lot}{\contentsline {table}{\numberline {4}{\ignorespaces Precision, Recall and F1 of English and cross-lingual classifiers}}{29}}
\newlabel{table:4}{{4}{29}}
\abx@aux@page{108}{29}
\@writefile{toc}{\defcounter {refsection}{0}\relax }\@writefile{toc}{\contentsline {subsubsection}{\numberline {7.1.3}Experiment 2}{30}}
\abx@aux@page{110}{30}
\@writefile{lot}{\defcounter {refsection}{0}\relax }\@writefile{lot}{\contentsline {table}{\numberline {5}{\ignorespaces Results of Experiment 2: Spanish OpeNER dataset \IeC {\textendash } 4 class}}{30}}
\newlabel{table:5}{{5}{30}}
\abx@aux@cite{Irsoy2014a}
\@writefile{toc}{\defcounter {refsection}{0}\relax }\@writefile{toc}{\contentsline {subsubsection}{\numberline {7.1.4}Experiment 3}{31}}
\abx@aux@page{112}{31}
\@writefile{lot}{\defcounter {refsection}{0}\relax }\@writefile{lot}{\contentsline {table}{\numberline {6}{\ignorespaces Results of experiment 4 \IeC {\textendash } 2 layer LSTM}}{32}}
\newlabel{table:6}{{6}{32}}
\@writefile{toc}{\defcounter {refsection}{0}\relax }\@writefile{toc}{\contentsline {subsubsection}{\numberline {7.1.5}Experiment 4}{32}}
\abx@aux@page{114}{32}
\abx@aux@page{115}{32}
\abx@aux@cite{Lazaridou2015}
\@writefile{lot}{\defcounter {refsection}{0}\relax }\@writefile{lot}{\contentsline {table}{\numberline {7}{\ignorespaces Results of experiment 5 - Neural mapping scheme}}{33}}
\newlabel{table:7}{{7}{33}}
\@writefile{toc}{\defcounter {refsection}{0}\relax }\@writefile{toc}{\contentsline {subsubsection}{\numberline {7.1.6}Discussion and Further Research}{33}}
\abx@aux@page{117}{33}
\abx@aux@page{119}{33}
\abx@aux@page{121}{33}
\abx@aux@page{123}{33}
\@writefile{toc}{\defcounter {refsection}{0}\relax }\@writefile{toc}{\contentsline {subsection}{\numberline {7.2}Bilingual Word-embeddings for CLSA}{34}}
\@writefile{toc}{\defcounter {refsection}{0}\relax }\@writefile{toc}{\contentsline {subsubsection}{\numberline {7.2.1}Experiment}{34}}
\abx@aux@page{125}{34}
\abx@aux@page{127}{34}
\abx@aux@cite{Cheng2014}
\@writefile{lot}{\defcounter {refsection}{0}\relax }\@writefile{lot}{\contentsline {table}{\numberline {8}{\ignorespaces Precision, Recall and F1 of English and English-Spanish classifiers}}{35}}
\@writefile{toc}{\defcounter {refsection}{0}\relax }\@writefile{toc}{\contentsline {subsubsection}{\numberline {7.2.2}Discussion and Further Research}{36}}
\abx@aux@page{129}{36}
\@writefile{toc}{\defcounter {refsection}{0}\relax }\@writefile{toc}{\contentsline {subsection}{\numberline {7.3}Stacked Denoising Autoencoders for CLSA}{36}}
\@writefile{toc}{\defcounter {refsection}{0}\relax }\@writefile{toc}{\contentsline {subsubsection}{\numberline {7.3.1}Experiment}{36}}
\abx@aux@page{131}{36}
\@writefile{lot}{\defcounter {refsection}{0}\relax }\@writefile{lot}{\contentsline {table}{\numberline {9}{\ignorespaces Results of Stacked Denoising Autoencoder Experiment}}{37}}
\@writefile{toc}{\defcounter {refsection}{0}\relax }\@writefile{toc}{\contentsline {subsubsection}{\numberline {7.3.2}Discussion and Further Research}{37}}
\@writefile{toc}{\defcounter {refsection}{0}\relax }\@writefile{toc}{\contentsline {section}{\numberline {8}Work Plan}{38}}
\@writefile{lof}{\defcounter {refsection}{0}\relax }\@writefile{lof}{\contentsline {figure}{\numberline {1}{\ignorespaces Estimated Timeline}}{39}}
\@writefile{toc}{\defcounter {refsection}{0}\relax }\@writefile{toc}{\contentsline {section}{\numberline {9}Explicit References}{39}}
\@writefile{toc}{\defcounter {refsection}{0}\relax }\@writefile{toc}{\contentsline {subsection}{\numberline {9.1}Zhou et al. (2016)}{39}}
\abx@aux@page{133}{39}
\@writefile{toc}{\defcounter {refsection}{0}\relax }\@writefile{toc}{\contentsline {subsection}{\numberline {9.2}Liu (2012)}{40}}
\abx@aux@page{135}{40}
\@writefile{toc}{\defcounter {refsection}{0}\relax }\@writefile{toc}{\contentsline {subsection}{\numberline {9.3}Gouws et al. (2015)}{40}}
\abx@aux@page{136}{40}
\@writefile{toc}{\defcounter {refsection}{0}\relax }\@writefile{toc}{\contentsline {subsection}{\numberline {9.4}Klementiev et al. (2012)}{41}}
\abx@aux@page{138}{41}
\abx@aux@page{139}{41}
\@writefile{toc}{\defcounter {refsection}{0}\relax }\@writefile{toc}{\contentsline {subsection}{\numberline {9.5}Chandar et al. (2014)}{41}}
\abx@aux@page{141}{41}
\@writefile{toc}{\defcounter {refsection}{0}\relax }\@writefile{toc}{\contentsline {section}{\numberline {10}References}{42}}
\abx@aux@page{142}{42}
\abx@aux@page{143}{42}
\abx@aux@page{144}{42}
\abx@aux@page{145}{42}
\abx@aux@page{146}{42}
\abx@aux@page{147}{43}
\abx@aux@page{148}{43}
\abx@aux@page{149}{43}
\abx@aux@page{150}{43}
\abx@aux@page{151}{43}
\abx@aux@page{152}{43}
\abx@aux@page{153}{43}
\abx@aux@page{154}{43}
\abx@aux@page{155}{44}
\abx@aux@page{156}{44}
\abx@aux@page{157}{44}
\abx@aux@page{158}{44}
\abx@aux@page{159}{44}
\abx@aux@page{160}{44}
\abx@aux@page{161}{44}
\abx@aux@page{162}{45}
\abx@aux@page{163}{45}
\abx@aux@page{164}{45}
\abx@aux@page{165}{45}
\abx@aux@page{166}{45}
\abx@aux@page{167}{45}
\abx@aux@page{168}{45}
\abx@aux@page{169}{45}
\abx@aux@page{170}{46}
\abx@aux@page{171}{46}
\abx@aux@page{172}{46}
\abx@aux@page{173}{46}
\abx@aux@page{174}{46}
\abx@aux@page{175}{46}
\abx@aux@page{176}{46}
\abx@aux@page{177}{47}
\abx@aux@page{178}{47}
\abx@aux@page{179}{47}
\abx@aux@page{180}{47}
\abx@aux@page{181}{47}
\abx@aux@page{182}{47}
\abx@aux@page{183}{47}
\abx@aux@page{184}{47}
\abx@aux@page{185}{48}
\abx@aux@page{186}{48}
\abx@aux@page{187}{48}
\abx@aux@page{188}{48}
\abx@aux@page{189}{48}
\abx@aux@page{190}{48}
\abx@aux@page{191}{48}
\abx@aux@page{192}{49}
\abx@aux@page{193}{49}
\abx@aux@page{194}{49}
\abx@aux@page{195}{49}
\abx@aux@page{196}{49}
\abx@aux@page{197}{49}
\abx@aux@page{198}{49}
\abx@aux@page{199}{50}
\abx@aux@page{200}{50}
\abx@aux@page{201}{50}
\abx@aux@page{202}{50}
